{
"authentication.error.network.title" : "Chyba sítě",
"authentication.error.unknown.title" : "Ach ne! Něco se pokazilo!",
"authentication.error.authentication.email.existed.message" : "Tento e-mail je již registrován! Zkuste jinou možnost",
"authentication.error.authentication.wrong.email.format.message" : "Neplatný formát e-mailu",
"authentication.error.authentication.wrong.email.or.password.message" : "Neplatná e-mailová adresa nebo heslo",
"authentication.error.authentication.user.cancelled.facebook.message" : "Zrušené přihlášení",
"authentication.error.authentication.email.not.provided.facebook.message" : "Vaše emailová adresa není poskytnuta, prosím, přihlašte se jinak",
"authentication.error.forgot.password.email.doesnt.exist.message" : "Ale ne! Tento email neexistuje.",
"authentication.sync-data-description" : "Vytvořte účet pro uložení a synchronizaci všech vašich návyků!",
"authentication.connect-facebook" : "Připojit pomocí Facebooku",
"authentication.sign-up-email" : "Zaregistrujte se pomocí e-mailu",
"authentication.sign-in-email" : "Již mám účet",
"authentication.skip" : "Přeskočit",
"authentication.sign.up" : "Vytvořit nový účet",
"authentication.agree.term" : "Podpisem, souhlasíte s naší politikou ochrany osobních údajů",
"authentication.forgot.password" : "Zapomenuté heslo?",
"authentication.forgot.password.title" : "Obnovit heslo",
"authentication.forgot.password.sent.message" : "Právě jsme Vám poslali e-mail, klikněte na odkaz pro obnovení hesla.",
"authentication.reset.password" : "Obnovit heslo",
"authentication.sign.in.title" : "Přihlásit se k Habitify",
"authentication.sign.in.description" : "Přihlášení pomocí účtu pro bezproblémovou synchronizaci mezi více zařízeními. Pokud už máte účet v Habitify iOS, přihlaste se zde.",
"authentication.sign.up.title" : "Vytvořit nový účet",
"authentication.sign.up.description" : "Vytvořte nový účet nebo se přihláste s Facebookem, pro zálohování vašich dat a hladkou synchronizaci mezi více zařízení.",
"authentication.sign.in.with.facebook" : "Přihlásit se přes Facebook",
"authentication.sign.up.with.facebook" : "Zaregistrovat se přes Facebook",
"authentication.sync.title" : "Synchronizovat mezi zařízeními",
"authentication.sync.mobile.instruction" : "Chcete-li synchronizovat data na iPhonu, iPadu a Apple Watch, přejděte na nastavení a přihlaste se pomocí stejného účtu.",
"authentication.invalid.email.title" : "Nesprávny e-mail?",
"authentication.invalid.email.subtitle" : "{msg} is an incorrect email. Please check again as you’ll need it to reset passwords and sync later on.",
"authentication.invalid.email.action.continue" : "Use This Email",
"common.retry" : "Zkusit znovu",
"common.privacy.policy" : "Zásady ochrany osobních údajů",
"common.terms.of.use" : "Podmínky užívání",
"common.contact.us" : "Kontaktujte nás",
"common.fail" : "Chyba",
"common.failed" : "Nesplněno",
"common.undo.fail" : "Vrátit Nesplněno",
"common.skip" : "Přeskočit",
"common.skipped" : "Vynecháno",
"common.undo.skip" : "Vráti Vynecháno",
"common.complete" : "Dokončit",
"common.completed" : "Dokončeno",
"common.undo.complete" : "Vrátit Dokončit",
"common.monthly" : "Měsíčně",
"common.yearly" : "Ročně",
"common.discard" : "Zrušit",
"common.archive" : "Archivovat",
"common.unarchive" : "Obnovit z archivu",
"common.archived" : "Archivováno",
"common.delete" : "Odstranit",
"common.later" : "Později",
"common.content.default" : "Výchozí",
"common.empty.habit.general" : "Ještě zde není žádný návyk!",
"common.commit" : "Potvrdit",
"common.cancel" : "Zrušit",
"common.today" : "Dnes",
"common.on" : "Zapnuto",
"common.off" : "Vypnuto",
"common.close" : "Zavřít",
"common.save" : "Uložit",
"common.edit" : "Upravit",
"common.prev" : "Předchozí",
"common.next" : "Další",
"common.back" : "Zpět",
"common.done" : "Hotovo",
"common.select" : "Vybrat",
"common.morning" : "Ráno",
"common.afternoon" : "Odpoledne",
"common.evening" : "Večer",
"common.anytime" : "Kdykoli",
"common.all.habit" : "Všechny návyky",
"common.current.streak" : "Aktuální série",
"common.longest.streak" : "Nejdelší série",
"common.completion.rate" : "Míra dokončení",
"common.total.completion" : "Celková dokončení",
"common.all.time" : "Všechny časy",
"common.weekends" : "Víkendy",
"common.everyday" : "Denně",
"common.weekdays" : "Všední dny",
"common.loading" : "Načítám",
"common.from.date" : "Od {msg}",
"common.add.note" : "Přidat poznámku",
"common.guest" : "Host",
"common.pseudocode.email.placeholder" : "priklad@gmail.com",
"common.subscribe" : "Přihlásit k odběru",
"common.full.name" : "Jméno",
"common.email" : "Email",
"common.password" : "Heslo",
"common.sign.up" : "Registrovat",
"common.sign.in" : "Přihlásit se",
"common.show" : "Zobrazit",
"common.hide" : "Skrýt",
"common.see.more" : "Zobrazit více",
"common.not.enough.data" : "Není dostatek informací pro hodnocení",
"common.preferences" : "Nastavení",
"common.view.note" : "Zobrazit poznámku",
"common.view.notes" : "Zobrazit poznámky",
"common.delete.selected" : "Smazat vybrané",
"common.edit.note" : "Upravit poznámku",
"common.general" : "Obecné",
"common.account" : "Účet",
"common.custom" : "Vlastní...",
"common.dismiss" : "Zrušit",
"common.create.habit" : "Vytvořit návyk",
"common.this.week" : "Tento týden",
"common.last.week" : "Minulý týden",
"common.yesterday" : "Včera",
"common.this.month" : "Tento měsíc",
"common.last.month" : "Minulý měsíc",
"common.this.year" : "Tento rok",
"common.last.year" : "Minulý rok",
"common.weekly" : "Týdně",
"common.average" : "Průměr",
"common.snooze" : "Odložit",
"common.camera" : "Fotoaparát",
"common.other" : "Ostatní",
"common.photo.library" : "Knihovna fotografií",
"common.connect" : "Připojit",
"common.connected" : "Připojeno",
"common.search" : "Hledat",
"common.ok" : "OK",
"common.passcode" : "Passcode",
"common.pause" : "Pauza",
"common.stop" : "Zastavit",
"common.resume" : "Obnovit",
"common.time.goal" : "Časový cíl",
"common.start.timer" : "Spustit časovač",
"common.time" : "Čas",
"common.daily.average" : "Denní průměr",
"common.weekly.average" : "Týdenní průměr",
"common.monthly.average" : "Měsíční průměr",
"common.time.of.day" : "Čas dne",
"common.start.of.day" : "Začátek dne",
"common.start.of.day.description" : "This is the time your Morning begins and Evening ends.",
"common.more" : "Více",
"common.profile.settings" : "Profil a nastavení",
"common.resources" : "Zdroje",
"common.tips.tricks" : "Tipy a triky",
"common.tomorrow" : "Zítra",
"common.send" : "Odeslat",
"common.save.changes" : "Uložit změny",
"common.create.new.habit" : "Vytvořit nový návyk",
"common.save.habit" : "Uložit návyk",
"common.common.feature.restricted" : "Tato funkce není v demoverzi povolena",
"common.common.demo.info.title" : "Demo informace",
"common.common.demo.info.message" : "This version of Habitify has been created specifically for demonstration purposes.\nAny data you entered will be wiped out when you exit the app.",
"common.common.continue" : "Pokračovat",
"common.timer" : "Časovač",
"common.time" : "Čas",
"common.minute.short" : "min.",
"edithabit.screen.name" : "Upravit návyk",
"edithabit.name" : "Jméno",
"edithabit.repeat" : "Opakovat",
"edithabit.start.date" : "Počáteční datum",
"edithabit.reminder" : "Upozornění",
"edithabit.add.reminder" : "Přidat upozornění",
"edithabit.daily" : "Denně",
"edithabit.weekly" : "Týdně",
"edithabit.interval" : "Interval",
"edithabit.delete.habit" : "Odstranit tento zvyk",
"edithabit.delete.confirm.title" : "Potvrzení",
"edithabit.delete.confirm.message" : "Všechna data budou trvale odstraněna. Chcete přesto pokračovat?",
"edithabit.delete" : "Odstranit",
"edithabit.archive.habit" : "Archivovat tento zvyk",
"edithabit.unarchive.habit" : "Odarchivovat tento zvyk",
"edithabit.time.of.day" : "Denní doba",
"edithabit.copy.to.clipboard" : "Kopírovat do schránky",
"edithabit.copied" : "Zkopírováno",
"edithabit.xcallback.read.more" : "Přečtěte si více o x-callback-url",
"edithabit.reminder.example" : "příklad: 9:00",
"edithabit.suggested" : "Navrhovaný",
"edithabit.suggested.meditate" : "Meditace",
"edithabit.suggested.run" : "Běh",
"edithabit.suggested.core.training" : "Core trénink",
"edithabit.suggested.read.book" : "Přečíst knihu",
"edithabit.suggested.learn.language" : "Učit se cizí jazyk",
"edithabit.suggested.cardio" : "Kardio",
"edithabit.suggested.yoga" : "Dělat jógu",
"edithabit.cancel.confirm.message" : "Veškeré neuložené údaje budou ztraceny. Chcete pokračovat?",
"edithabit.delete.reminder" : "Odstranit toto připomenutí",
"edithabit.repeat.everyday" : "Opakovat každý den",
"edithabit.repeat.weekdays" : "Opakovat ve všední dny",
"edithabit.repeat.weekend" : "Opakovat o víkendu",
"edithabit.repeat.specific.weekdays" : "Opakovat každý {msg}",
"edithabit.time.goal.disabled" : "Žádný časový cíl",
"edithabit.time.goal.enabled" : "Cieľ {msg}",
"edithabit.time.of.day.any.time" : "Udělat kdykoliv",
"edithabit.time.of.day.specific" : "Udělat {msg}",
"edithabit.start.date.from" : "Od {msg}",
"journal.empty.title" : "The Start of a Better You!",
"journal.empty.message" : "Habits are like dominos. As one is formed, all others will follow!",
"journal.empty.secondary.see.other" : "See What Others are Forming",
"journal.empty.in.specific.day.title" : "Příjemný den bez žádných návyků",
"journal.empty.in.specific.day.message" : "Relaxujte a užívejte si Váš den!",
"journal.screen.name" : "Deník",
"journal.dismiss" : "Zrušit",
"journal.hide.completed" : "Skrýt Dokončené",
"journal.show.completed" : "Zobrazit Dokončené",
"journal.date.progress.empty.habit" : "Vyplňte tuto lištu vaším prvním návykem",
"journal.date.progress.no.habit.in.day" : "Dnes je den bez návyků!",
"journal.date.progress.half" : "Jste v půli cesty!",
"journal.date.progress.one.left" : "Zbývá jeden návyk. Bojujte!",
"journal.date.progress.one.completed" : "Všechny návyky jsou dokončené!",
"journal.habit.message.failed" : "Příště to dokážete!",
"journal.habit.message.skipped" : "Přejeďte doleva pro zaznamenání důvodu",
"journal.habit.message.empty.checkins" : "Dokončete dnes abyste měli první sérii",
"journal.not.visible.habit.start.date" : "{msg1} will be visible from {msg2} onwards",
"journal.not.visible.habit.regularly" : "{msg1} will be visible from {msg2} onwards",
"journal.not.visible.habit.time.of.day" : "{msg1} is not visible in {msg2}. Switch to All Habit to see it.",
"journal.new.habit" : "New Habit",
"manage.active.count" : "Aktivní ({num})",
"manage.archived.count" : "Archivované ({num})",
"menubarapp.filter.by" : "Filtrovat zvyky podle:",
"menubarapp.quit" : "Opustit Habitify Mini",
"newupgrade.title" : "Získat Habitify prémium",
"newupgrade.package.popular" : "Oblíbené",
"newupgrade.package.best.value" : "Nejlepší nabídka",
"newupgrade.package.life-time" : "Doživotní licence",
"newupgrade.purchase.terms" : "Your iTunes Account will be charged at confirmation of purchase. Subscription will be auto-renewed. Your Account will be charged {msg} for renewal within 24-hours before current period ends. You can manage subscription & turn-off in Account Settings. Read our <a href='https://habitify.me/privacy-policy.html'>Privacy Policy</a> and <a href='https://habitify.me/terms-of-use.html'>Terms of Use</a>",
"newupgrade.purchase.life.time.terms" : "Your payment of {msg} will be charged to your iTunes account at confirmation of purchase. This is one-time payment. Once you have purchased this package, you’ll be entitled Premium membership forever, on all platforms, without having to pay anything else.",
"newupgrade.benefits.unlimited.habit.title" : "Neomezený počet zvyků",
"newupgrade.benefits.unlimited.habit.description" : "Become a well-rounded person by forming good habits in more areas of your life.",
"newupgrade.benefits.skip.title" : "Přeskočte své zvyky",
"newupgrade.benefits.skip.description" : "Protect that dazzling and motivating streak of hard work by \"skipping\" your habit.",
"newupgrade.benefits.archive.title" : "Archivujte své zvyky",
"newupgrade.benefits.archive.description" : "Udržuje svůj seznam zvyků čistý a nepoužívaného lehce archivujte.",
"newupgrade.benefits.yearly.calendar.title" : "Roční přehled",
"newupgrade.benefits.yearly.calendar.description" : "Have an overview of your well-being and performance with a yearly view option.",
"newupgrade.benefits.dark.mode.title" : "Tmavý mód",
"newupgrade.benefits.dark.mode.description" : "Keep your eyes softly relaxed when checking out your progress at night.",
"newupgrade.benefits.export.data.title" : "Exportujte svá data",
"newupgrade.benefits.export.data.description" : "Objevte další pohled na sebe tím, že si exportujete svá data do jiných analytických nástrojů.",
"newupgrade.benefits.privacy.lock.title" : "Soukromý režim",
"newupgrade.benefits.privacy.lock.description" : "Ochraňte svá data heslem, TouchID nebo FaceID.",
"newupgrade.benefits.notes.title" : "Poznámky",
"newupgrade.benefits.notes.description" : "Zaznamenejte rychle vaše úspěchy a myšlenky do poznámek.",
"newupgrade.benefits.unlimited.reminder.title" : "Unlimited Reminder",
"newupgrade.benefits.unlimited.reminder.description" : "Get reminded repeatedly to do a \"stubborn\" habit with unlimited reminders.",
"notification.snoozed.for" : "Odloženo na {msg}",
"notification.action.change.snooze.to" : "Odložit {msg}",
"notification.daily.briefing.morning.default.title" : "Good morning Habitify-er!",
"notification.daily.briefing.morning.default.message" : "Zkontrolujte, jaké návyky si můžete škrtnout, aby ste je jeden po druhém rozdrtili.",
"notification.daily.briefing.morning.title" : "Today Briefing",
"notification.daily.briefing.morning.single" : "Jediným vaším zvykem pro dnešek je {msg1} o {msg2}.",
"notification.daily.briefing.morning.no.habit.in.day" : "You have a free day with no habit! Enjoy some me-time!",
"notification.daily.briefing.morning.empty.habit.day.one.title" : "Náš první zvyk pro vás!",
"notification.daily.briefing.morning.empty.habit.day.one.message" : "Přemyšlení zlepšuje soustředení a myslivost pro produktivnější den. Pojďme na to!",
"notification.daily.briefing.morning.empty.habit.day.two.title" : "Náš druhý zvyk pro vás!",
"notification.daily.briefing.morning.empty.habit.day.two.message" : "Ranní cvičení vede k jasnější mysli a hlubšímu spánku. Proto si dnes vytvořme návyk.",
"notification.daily.briefing.morning.empty.habit.fallback.title" : "Čas na vaši rannní rutinu!",
"notification.daily.briefing.morning.empty.habit.fallback.message" : "Dobré ranní rutiny vás činí produktivními po celý deň. Vytvořme si jednu!",
"notification.daily.briefing.evening.default.title" : "How’s your day Habitify-er?",
"notification.daily.briefing.evening.default.message" : "Take notes of your achievements by swiping left on each habit. They will motivate you tomorrow!",
"notification.daily.briefing.evening.title" : "Today Review",
"notification.daily.briefing.evening.completed.all" : "You have completed all habits today! Hurrah!",
"notification.daily.briefing.evening.completed.in.progress.2" : "Today’s report is ready for you. Let’s see how well you’re performing",
"notification.daily.briefing.evening.empty.habit.day.one.title" : "Time for evening habits!",
"notification.daily.briefing.evening.empty.habit.day.one.message" : "Meditate and Read Book makes a deeper sleep. Try them out for just 5 minutes.",
"notification.daily.briefing.evening.empty.habit.day.two.title" : "Time for evening habits!",
"notification.daily.briefing.evening.empty.habit.day.two.message" : "Successful people often write journals to reflect and prepare for the next day. Let it help you too.",
"notification.daily.briefing.evening.empty.habit.fallback.title" : "Time for your Evening routine!",
"notification.daily.briefing.evening.empty.habit.fallback.message" : "Meditate. Stretch. Journal. Read book. Let’s form a new habit that you like!",
"notification.daily.briefing.evening.break.record" : "You reached a new personal record today, check it out!",
"notification.daily.briefing.evening.weekly.single.habit.completed" : "You have completed this week’s goal of {msg}. Sweet!",
"notification.habit.one.streak" : "If you could do this habit once, you can do it twice!",
"notification.habit.zero.streak.empty.checkin" : "This is a new habit. Do it to get the first streak!",
"notification.habit.last.failed" : "Last time you failed this habit. Better do it to get back on track!",
"notification.habit.last.skipped" : "Last time you skipped this habit. Better do it to resume your winning streak!",
"notification.habit.last.none" : "Last time you didn’t complete this habit. Do it to get back on track!",
"notification.timer.running.title" : "Časovač je spuštěn",
"notification.timer.running.body" : "Relácia %1@ sa skončí o %2@",
"notification.timer.completed.title" : "Relácia dokončená",
"notification.timer.completed.body" : "Vaša relace %1@ o %2@ byľa dokončena. Kliknete pro uložení.",
"notification.timer.cancelled.title" : "Relace vyřazena",
"notification.timer.cancelled.body" : "Vaše relace {msg} byla zrušena, protože jste na pozadí vymazali Habitify.",
"onboarding.introduce.title" : "Vítejte v Habitify!",
"onboarding.introduce.description" : "Start forming awesome habits to get that perfect daily routine you've been dreaming of.",
"onboarding.step.easily-access.title" : "Snadný přístup",
"onboarding.step.easily-access.description" : "You can access Habitify effortlessly \nthrough your iPhone, iPad, Apple Watch \nand even Today Widget.",
"onboarding.action.get-started" : "Začínáme",
"onboarding.introduce.continue" : "Začít prohlídku",
"onboarding.select.habit" : "Pick one habit to get started",
"onboarding.select.habit.assurance" : "No worries, you can change it later",
"onboarding.actions.action1" : "Great choice! Tap the tick button to mark the {msg} as completed",
"onboarding.actions.action2" : "Perfect! Want to see your progress?, tap the name of the habit",
"onboarding.stats.title.compact.height" : "Awesome! Scroll down to see more insightful graphs",
"onboarding.stats.title.regular.height" : "Great! Here is how well you have been doing recently",
"onboarding.stats.finish" : "Finish Tour",
"onboarding.tips.title" : "Skvělá práce!",
"onboarding.tips.description" : "A few tips for you to use Habitify more effectively!",
"onboarding.tips.skip" : "Přeskočit tento krok",
"onboarding.tips.swipe" : "Potáhněte, chcete-li zobrazit více",
"onboarding.tips.sync.title" : "Sign up to keep data synced and intact even after you reset or change device",
"onboarding.tips.sync.action" : "Registrovat",
"onboarding.tips.notification.title" : "Never forget to check off a pending habit with reminder",
"onboarding.tips.notification.action" : "Povolit upozornění",
"onboarding.tips.widget.title" : "Give yourself a quick boost with motivational quotes in Today Widget",
"onboarding.welcome.step1.title" : "Vítejte v Habitify!",
"onboarding.welcome.step1.subtitle" : "We believe the world is more beautiful as each person gets better. Yep, that’s you.",
"onboarding.welcome.step2.title" : "Form Sticky Habits",
"onboarding.welcome.step2.subtitle" : "Form all types of recurring habits and feel motivated every time your streaks go up.",
"onboarding.welcome.step3.title" : "Osvoboďte si svou mysl",
"onboarding.welcome.step3.subtitle" : "Go mind-free all day with daily briefings and timely reminders.",
"onboarding.welcome.step4.title" : "Zlepšete se každý den",
"onboarding.welcome.step4.subtitle" : "Track days that you missed or skipped, and make it work next time.",
"onboarding.welcome.sign.in" : "Máte již účet? {msg1}",
"onboarding.introduce.skip" : "Skip Tour",
"onboarding.tips.action" : "Vytvořte si svůj první zvyk",
"onboarding.pick.habit.title" : "Vyberte zvyk",
"onboarding.pick.habit.subtitle" : "4 out of 10 people have Read Book in their habit list.",
"onboarding.pick.habit.not.found" : "Custom Habit",
"onboarding.pick.frequency.title" : "Vyberte frekvenci",
"onboarding.pick.frequency.subtitle" : "Starting with 2-3 times per week raises your success rate considerably.",
"onboarding.pick.reminder.title" : "Vyberte čas",
"onboarding.pick.reminder.subtitle" : "You’ll get a reminder to do your habit at the chosen time.",
"onboarding.review.habit" : "Review Your Habit",
"onboarding.habit.review.title" : "Habit Review",
"onboarding.habit.review.subtitle" : "You’re going to {msg1} {msg2} at {msg3}. Tap any option below to change.",
"onboarding.save.habit" : "Uložit tento zvyk",
"onboarding.save.habit.title" : "Uložit Váš zvyk",
"onboarding.save.habit.subtitle" : "Create an account to save your habits. Everything can be restored at a tap.",
"onboarding.create.account" : "Vytvořit účet",
"onboarding.create.later" : "Do This Later",
"privacylock.enter.current.passcode" : "Zadejte aktuální přístupový kód",
"privacylock.enter.new.passcode" : "Zadejte nový přístupový kód",
"privacylock.re.enter.new.passcode" : "Zadejte znovu nový přístupový kód",
"privacylock.enter.passcode" : "Zadejte přístupový kód",
"privacylock.biometrics.fallback" : "Použití Habitify přístupový kód",
"privacylock.lock.instruction" : "Fingerprint or Passcode",
"privacylock.fingerprint.unlock" : "Unlock with Fingerprint",
"privacylock.cancel.setup.confirmation" : "You need to setup a passcode to enable Privacy Lock. Do you want to cancel?",
"privacylock.fingerprint.unlock.error.message" : "We didn't recognize your fingerprint. Please try again.",
"privacylock.passcode.unlock.error.message" : "It seems you entered an incorrect passcode. Please try again.",
"progress.empty.title" : "Váš pokrok v číslech",
"progress.empty.message" : "A clearer mind or a healthier body all began with one small habit.",
"progress.empty.secondary.see.other" : "Podívejte se na pokrok v demo verzii",
"progress.most.popular.title" : "Nejoblíbenější",
"progress.most.popular.subtitle" : "These habits are popular for a reason. They have changed lives!",
"progress.preview.checkin.time.title" : "Čas odbavení",
"progress.preview.checkin.time.subtitle" : "Find out unused hours to fill them up with stubborn habits",
"progress.preview.weekly.progress.title" : "Cíl Návyku",
"progress.preview.weekly.progress.subtitle" : "Check your daily and weekly goals to stay on track with your plan",
"progress.preview.completion.rate.title" : "Míra dokončení",
"progress.preview.completion.rate.subtitle" : "Monitor your overall performance by week or month",
"progress.preview.daily.performance.title" : "Denní výkonnost",
"progress.preview.daily.performance.subtitle" : "Find out the least active day to focus on",
"progress.preview.yearly.graph.title" : "Porovnání návyků",
"progress.preview.yearly.graph.subtitle" : "Compare and contrast your habits with monthly and yearly view options",
"progress.overall" : "Celkově",
"progress.notes" : "Poznámky",
"progress.based.on.completion.rate" : "Na základě míry dokončení",
"progress.screen.name" : "Průběh",
"progress.view.all" : "Zobrazit vše",
"progress.empty.habit.title" : "Ještě nemáte žádný zvyk.",
"progress.empty.habit.message" : "Let’s create the first one to see insightful charts",
"progress.checkin.time" : "Check-in Time",
"progress.today.habits" : "Dnešní návyk",
"progress.streaks" : "Streaks",
"progress.daily.performance" : "Denní výkonnost",
"progress.weekly.goal" : "Týdenní cíle",
"progress.empty.note.title" : "Zatím zde nejsou žádné poznámky!",
"progress.empty.note.message" : "You could use words like \"today\", \"yesterday\" or \"March 1\" to quickly add a note to that day.",
"progress.empty.note.placeholder" : "Zkusíme začít s \"včera\"?",
"progress.empty.note.web.message" : "Just type and hit send, like a chatting",
"progress.empty.note.web.message" : "Just type and hit send, like a chatting",
"progress.siri.shortcut" : "Skratka Siri",
"progress.siri.shortcut.message" : "Quickly mark this habit as complete with your own voice.",
"progress.weekly.goal.reached" : "Dosáhl jste tento týdenní cíl!",
"progress.weekly.goal.not.started" : "Zvítězit znamená začít.",
"progress.weekly.goal.half" : "Téměř sme tam, vydržte!",
"progress.streak.level.message.1" : "Začněte dnes, abyste měli první sérii",
"progress.streak.level.message.2" : "Use “skip” to protect your streak!",
"progress.streak.level.message.3" : "You’re rocking!",
"progress.streak.level.message.4" : "Zůstaly jen {num} dny!",
"progress.streak.level.message.5" : "Velké výhry začínají malými kroky",
"progress.streak.level.message.6" : "Jste nezadržitelný!",
"progress.streak.level.message.7" : "Vidíte? Dokážete to!",
"progress.streak.level.message.8" : "You made it to the first week! Congrats!",
"progress.streak.level.message.9" : "{num} days ago, you were 0.",
"progress.streak.level.message.10" : "Je to dlouhá cesta, ale nepřestávejte.",
"progress.streak.level.message.11" : "You tried so hard, and get so far.",
"progress.streak.level.message.12" : "Go. Go. Go.",
"progress.streak.level.message.13" : "Měli byste být na sebe hrdí!",
"progress.streak.level.message.14" : "You’re halfway! Keep it going!",
"progress.streak.level.message.15" : "{num} more to mastering this habit!",
"progress.streak.level.message.16" : "Less than a week left!",
"progress.streak.level.message.17" : "Look at how far you’ve gone!",
"progress.streak.level.message.18" : "This is insane!",
"progress.streak.level.message.19" : "How did you make it that far?",
"progress.streak.level.message.20" : "Just. One. Day. Left.",
"progress.streak.level.message.21" : "You have successfully formed this habit!",
"progress.streak.level.message.22" : "You can do this habit blindfolded!",
"progress.streak.level.message.23" : "9 weeks! Can you believe it?",
"progress.streak.level.message.24" : "You have done this habit for 3 months!",
"progress.today.message.empty.1" : "All it takes is a habit to go from 0 to 1.",
"progress.today.message.empty.2" : "We challenge you to do just one habit. Urine or you out?",
"progress.today.message.one.left.1" : "Just. One. More! Beat it!",
"progress.today.message.one.left.2" : "Ain’t no mountain high enough.",
"progress.today.message.completed.1" : "Awesome! You deserve a cup of positivitea!",
"progress.today.message.completed.2" : "Give yourself a big round of applause!",
"progress.today.message.completed.3" : "You've done all the habits today!",
"progress.today.message.one" : "Easy, right? How about one more?",
"progress.today.message.two.half.1" : "You are unstoppable!",
"progress.today.message.two.half.2" : "Slow progress > no progress.",
"progress.today.message.two.half.3" : "You are awesome!",
"progress.today.message.two.half.4" : "You’re rocking today, keep going!",
"progress.today.message.two.half.5" : "If you feel unwell, skip some habits. No judge.",
"progress.today.message.two.half.6" : "What doesn’t kill you make you a fighter!",
"progress.today.message.half.1" : "You’ve made it half-way. The rest is much easier.",
"progress.today.message.half.completed.1" : "Doing a habit is like fulfilling a promise to yourself.",
"progress.today.message.half.completed.2" : "Look in the mirror. That person deserves respect!",
"progress.today.message.half.completed.3" : "Star of the day: you!",
"progress.today.message.half.completed.4" : "Only a few left to cross off the list!",
"progress.today.message.half.completed.5" : "\"A warrior’s destiny is greater than his wounds\" - B. Burchard",
"progress.in.app.review.title" : "Enjoying Habitify?",
"progress.in.app.review.description" : "How would you rate your experience with the app so far?",
"progress.in.app.review.one.star" : "It seems we need to improve a lot. Would you please share your feedback?",
"progress.in.app.review.three.star" : "Thanks for rating! What should we do to earn the other 2 stars?",
"progress.in.app.review.four.star" : "Great! We're glad you enjoy it. Could you also write a review to support the devs?",
"progress.in.app.review.five.star" : "Awesome! Could you write a short review to help others find the app more easily?",
"progress.in.app.review.action.write.review" : "Write Review",
"progress.in.app.review.action.send.feedback" : "Send Feedback",
"settings.icloud.connected" : "Synchronizované s vaším iCloudovým účtem",
"settings.not.synced" : "Vaše údaje momentálně nejsou synchronizovány",
"settings.change.name" : "Změnit jméno",
"settings.translate" : "Přeložit Habitify",
"settings.change.name.placeholder" : "Níže zadejte své nové jméno",
"settings.knowledge.base" : "Vědomostní centrum",
"settings.changelogs" : "Seznam změn",
"settings.community" : "Komunita uživatelů",
"settings.app.badge" : "App Badge",
"settings.app.badge.time.of.day.explaination" : "The badge only shows habits in a specific period of the day (Morning, Afternoon, Evening)",
"settings.app.badge.all.explaination" : "The badge shows all habits in the day",
"settings.app.badge.time.of.day" : "Based on Time of Day",
"settings.app.badge.all.habit" : "All Habit Required",
"settings.sounds" : "Sounds",
"settings.sounds.reminder" : "Reminder Sound",
"settings.sounds.completion" : "Completion Sound",
"settings.subscribe.newsletter" : "Subscribe to Our Newsletter",
"settings.export.data" : "Export Data",
"settings.reorder.habit" : "Manage Habits",
"settings.in.app.sound" : "In App Sound",
"settings.notifications" : "Notifications",
"settings.upgrade" : "Upgrade to Premium",
"settings.account" : "Account",
"settings.follow.twitter" : "Follow us on Twitter",
"settings.follow.instagram" : "Follow us on Instagram",
"settings.screen.name" : "Settings",
"settings.first.day.of.week" : "First Day of the Week",
"settings.privacy.lock" : "Privacy Lock",
"settings.daily.reminder" : "Daily Reminder",
"settings.support" : "Chat with Our Support Team",
"settings.rate.on.appstore" : "Review Us on the App Store!",
"settings.spread.the.word" : "Spread the Word",
"settings.acknowledgements" : "Acknowledgements",
"settings.sign.out" : "Sign Out",
"settings.reset.habit.data" : "Reset Habit Data",
"settings.reset.habit.confirmation" : "Only progress and notes will be permanently deleted, while habit names are not. Do you want to continue?",
"settings.reset.habit.completed" : "All of your habit data has been reseted.",
"settings.delete.all.habit.data" : "Delete All Data",
"settings.delete.all.habit.confirmation" : "All habit names, progress and notes will be permanently deleted. Do you still want to continue?",
"settings.delete.all.habit.completed" : "All of your habit data has been reseted.",
"settings.sign.up.message" : "Link with Email or Facebook will keep your data backed up safely on our server.",
"settings.sign.up" : "​​Create New Account",
"settings.sign.in" : "Sign In with Existing Account",
"settings.account.linking" : "Account Linking",
"settings.account.message" : "Link with Email or Facebook will keep your data backed up safely on our server.",
"settings.unlink.facebook.confirmation" : "You won't be able to sign in with Facebook anymore. Do you want to continue?",
"settings.unlink.facebook.action" : "Unlink from Facebook",
"settings.unlink.email.confirmation" : "You won't be able to sign in with this email anymore. Do you want to continue?",
"settings.unlink.email.action" : "Unlink",
"settings.status.free" : "Free Member",
"settings.status.premium.life.time" : "Premium (Life-time)",
"settings.status.premium.expire.at" : "Premium ({msg})",
"settings.snooze.duration" : "Snooze Duration",
"settings.notification.sound" : "Notification Sound",
"settings.daily.breifing" : "Daily Briefing",
"settings.dailf.briefing.morning.description" : "We’ll notify how many habits you have and which habit to focus on at 7 AM everyday.",
"settings.dailf.briefing.evening.description" : "​​We'll summarize your day’s progress and new record.",
"settings.data.management" : "Manage Data",
"settings.no.email.provided" : "No Email Provided",
"settings.subscription.info" : "Subscription Info",
"settings.download.mac.app" : "Download Habitify for Mac",
"settings.privacy.lock.enabled" : "Privacy Lock Enabled",
"settings.unlock.with" : "Unlock with {msg}",
"settings.change.passcode" : "Change Passcode",
"settings.dark.mode" : "Dark Mode",
"settings.dark.mode.preview.title" : "Preview Only",
"settings.dark.mode.preview.message" : "Dark Mode is only available for Premium User, Habitify will reset to Light in the next app launch. Become Premium Member to keep it as default.",
"settings.dark.mode.upgrade.cta" : "About Premium",
"settings.newsletter.request.title" : "Be The First to Know",
"settings.newsletter.request.subtitle" : "Subscribe to our newsletter to get the updates to your email inbox...",
"settings.newsletter.request.later" : "Remind Me Later",
"settings.newsletter.acknowledment.title" : "Thank You",
"settings.newsletter.acknowledment.subtitle" : "You've been added to our mailing list and will be among the first to hear about new updates and special offers.",
"settings.no.account.connected" : "No Account Connected",
"settings.account.status.free" : "Status: Free",
"settings.account.status.pro.lifetime" : "Status: Premium (life-time)",
"settings.account.status.valid.until" : "Status: Premium (valid until {msg})",
"settings.social.share.content" : "Habitify is phenomenal for getting productive and staying on top of your daily habits! Worth a download!",
"settings.sign.out.confirmation" : "Are you sure you want to sign out?",
"settings.fingerprint.not.setup" : "To enable this feature, please add your fingerprint in the phone's settings first.",
"settings.general" : "Základní nastavení",
"settings.app.settings" : "Nastavení aplikace",
"settings.language" : "Jazyk",
"settings.payment" : "Platba",
"settings.new.password" : "Nové heslo",
"settings.re.enter.new.password" : "Zadejte znovu nové heslo",
"settings.current.password" : "Současné heslo",
"settings.current.plan" : "Váš aktuální plán",
"settings.change.plan" : "Změnit plán",
"settings.cancel.subscription" : "Zrušit předplatné",
"timegoal.picker.benefit" : "Pick a goal for {msg}. Then use the timer to track time spent on it.",
"timegoal.save.goal" : "Uložit cíl",
"timegoal.session.discard.title" : "Odstránit relaci",
"timegoal.session.discard.message" : "Váš současný pokrok na této relaci nebude uložen.",
"timegoal.session.completed" : "Relace dokončená",
"timegoal.session.completed.message" : "%1@ has been logged for %2@.",
"timegoal.log.session" : "Log Session",
"timegoal.view.sessions" : "​​View Sessions",
"timegoal.completion.time" : "Completion Time",
"timegoal.duration" : "Doba trvání",
"timegoal.duration.placeholder" : "Zadejte hodnotu",
"timegoal.time.spent" : "Strávený čas",
"timegoal.discarded.session" : "Odstránit relaci",
"timegoal.break.down" : "Break Down",
"timegoal.setup.suggestion.message" : "Create a goal to track how much time you want to spend on this habit.",
"timegoal.setup.suggestion.action" : "Create Goal",
"timegoal.longest.session" : "Longest Session",
"timegoal.custom.time.goal" : "Custom Time Goal",
"timegoal.setup.benefit" : "Time Goal helps you track your time spent on a habit. You can start the timer from notification or Journal screen.",
"timegoal.no.required" : "Dnes máte volno",
"timegoal.start.new.timer" : "Spustit nový časovač",
"timegoal.empty.session" : "No Session Logged",
"timegoal.timer.duration.instruction" : "Drag the ruler below to select session duration for {msg}.",
"upgrade.screen.name" : "Upgrade",
"upgrade.cannot-connect" : "Nelze se připojit k obchodu iTunes",
"upgrade.restore.failed.title" : "Restore Purchases Failed",
"upgrade.restore.failed.message" : "We're unable to restore your previous purchases. Please try again or contact our support team.",
"upgrade.restored.title" : "Nákupy obnoveny",
"upgrade.restored.message" : "Všechny předešlé nákupy byly obnoveny.",
"upgrade.prompt.habit.limited.title" : "Let's upgrade for more habits!",
"upgrade.prompt.habit.limited.message" : "Habitify Premium lets you add the 4th, 5th or even 100th habit anytime, plus multiple reminders to help you get things done before the day ends.",
"upgrade.prompt.reminder.limited.title" : "Let's upgrade for more reminders!",
"upgrade.prompt.reminder.limited.message" : "Habitify Premium lets you add multiple reminders per habit, plus unlimited habits to help you stay on track of everything in life.",
"upgrade.prompt.export.data.title" : "Let's upgrade to export data!",
"upgrade.prompt.export.data.message" : "Habitify Premium lets you export all habit names, statuses, date and notes for further (and better) analysis.",
"upgrade.prompt.cta" : "About Premium",
"upgrade.cta" : "Go Premium",
"upgrade.monthly.price.with" : "{msg}/mo",
"upgrade.restore.purchases" : "Obnovit nákupy",
"useractivities.completed.withName" : "{msg} dokončeno",
"useractivities.skipped.withName" : "{msg} vynecháno",
"useractivities.undone.withName" : "{msg} nedokončeno",
"useractivities.view.current.time.of.day" : "Aktuální návyky",
"useractivities.view.all" : "Všechny návyky",
"useractivities.add.note.for" : "Přidat poznámku pro {msg}",
"useractivities.view.progress" : "Zobrazit pokrok",
"useractivities.view.progress.of" : "Zobrazit {msg}",
"plurals.day.per.week" : "0 den za týden | {num} den za týden | {num} dní za týden",
"plurals.streak" : "0 Streak | {num} Streak | {num} Streaks",
"plurals.more" : "0 more | {num} more | {num} more",
"plurals.time.of.day.notification.group" : "no more habit in {msg} | {u1} more habit in {msg} | {u1} more habits in {msg}",
"plurals.interval.day" : "Every 0 day | Every {num} day | Every {num} days",
"plurals.streak.day" : "0 day streaks! | {num} day streaks! | {num} days streaks!",
"plurals.month" : "0 month | {num} month | {num} months",
"plurals.passed.week" : "Last 0 week | Last {num} week | Last {num} weeks",
"plurals.passed.days" : "Last 0 day | Last {num} day | Last {num} days",
"plurals.times" : "0 krát | {num} krát | {num} krát",
"plurals.streak.day.journal" : "0-day streak | {num}-day streak | {num}-day streak",
"plurals.habit.remaining" : "0 of 0 habit completed | {num} of {num1} habit completed | {num} of {num1} habits completed"