{
"authentication.error.network.title" : "Netzwerkfehler",
"authentication.error.unknown.title" : "Hoppla, da ist etwas schiefgelaufen!",
"authentication.error.authentication.email.existed.message" : "Diese E-Mail-Adresse ist bereits registriert. Bitte wähle eine der anderen Optionen.",
"authentication.error.authentication.wrong.email.format.message" : "Ungültiges E-Mail Format",
"authentication.error.authentication.wrong.email.or.password.message" : "E-Mail-Adresse oder Passwort ungültig",
"authentication.error.authentication.user.cancelled.facebook.message" : "Anmeldung abgebrochen",
"authentication.error.authentication.email.not.provided.facebook.message" : "Ihre E-Mail-Adresse ist nicht angegeben! Bitte melden Sie sich anders an",
"authentication.error.forgot.password.email.doesnt.exist.message" : "Ups! Diese E-Mail-Adresse ist nicht registriert.",
"authentication.sync-data-description" : "Erstelle ein Benutzerkonto, um alle deine Gewohnheiten zu speichern und zu synchronisieren!",
"authentication.connect-facebook" : "Mit Facebook verbinden",
"authentication.sign-up-email" : "Mit E-Mail registrieren",
"authentication.sign-in-email" : "Ich habe bereits ein Konto",
"authentication.skip" : "Überspringen",
"authentication.sign.up" : "Neues Benutzerkonto anlegen",
"authentication.agree.term" : "Mit der Registrierung stimmst du unserer Datenschutzerklärung zu.",
"authentication.forgot.password" : "Passwort vergessen?",
"authentication.forgot.password.title" : "Passwort zurücksetzen",
"authentication.forgot.password.sent.message" : "Wir haben dir gerade eine E-Mail gesendet! Klicke auf den Link, um dein Passwort zurückzusetzen.",
"authentication.reset.password" : "Passwort zurücksetzen",
"authentication.sign.in.title" : "Bei Habitify anmelden",
"authentication.sign.in.description" : "Melde dich an, um nahtlos zwischen mehreren Geräten zu synchronisieren.",
"authentication.sign.up.title" : "Neues Konto anlegen",
"authentication.sign.up.description" : "Erstelle ein neues Benutzerkonto oder registriere dich mit deinem Facebook-Zugang, um deine Daten zu sichern und nahtlos zwischen mehreren Geräten zu synchronisieren.",
"authentication.sign.in.with.facebook" : "Mit Facebook anmelden",
"authentication.sign.up.with.facebook" : "Mit Facebook registrieren",
"authentication.sync.title" : "Synchronisation über mehrere Geräte",
"authentication.sync.mobile.instruction" : "Um Daten auf iPhone, iPad und Apple Watch zu synchronisieren, gehe zu den Einstellungen und melde dich mit dem gleichen Konto an.",
"authentication.invalid.email.title" : "Falsche Email?",
"authentication.invalid.email.subtitle" : "{msg} ist eine falsche E-Mail. Bitte überprüfen Sie es erneut, da Sie es benötigen, um Kennwörter zurückzusetzen und später zu synchronisieren.",
"authentication.invalid.email.action.continue" : "Verwenden Sie diese E-Mail",
"common.retry" : "Versuch es nochmal",
"common.privacy.policy" : "Datenschutzerklärung",
"common.terms.of.use" : "AGB",
"common.contact.us" : "Kontakt",
"common.fail" : "Gescheitert",
"common.failed" : "Fehlgeschlagen",
"common.undo.fail" : "Fehlgeschlagen rückgängig",
"common.skip" : "Überspringen",
"common.skipped" : "Übersprungen",
"common.undo.skip" : "Rückgängig Überspringen",
"common.complete" : "Fertig",
"common.completed" : "Fertig",
"common.undo.complete" : "Rückgängig Fertig",
"common.monthly" : "Monatlich",
"common.yearly" : "Jährlich",
"common.discard" : "Verwerfen",
"common.archive" : "Archivieren",
"common.unarchive" : "Aus dem Archiv holen",
"common.archived" : "Archiviert",
"common.delete" : "Löschen",
"common.later" : "Später",
"common.content.default" : "Standard",
"common.empty.habit.general" : "Hier gibt es noch keine Gewohnheiten!",
"common.commit" : "Festlegen",
"common.cancel" : "Abbrechen",
"common.today" : "Heute",
"common.on" : "An",
"common.off" : "Aus",
"common.close" : "Schließen",
"common.save" : "Speichern",
"common.edit" : "Bearbeiten",
"common.prev" : "Zurück",
"common.next" : "Weiter",
"common.back" : "Zurück",
"common.done" : "Fertig",
"common.select" : "Auswählen",
"common.morning" : "Morgens",
"common.afternoon" : "Nachmittags",
"common.evening" : "Abends",
"common.anytime" : "Jederzeit",
"common.all.habit" : "Alle Gewohnheiten",
"common.current.streak" : "Aktuelle Serie",
"common.longest.streak" : "Längste Serie",
"common.completion.rate" : "Abschlussrate",
"common.total.completion" : "Insgesamt Abgeschlossen",
"common.all.time" : "Alle",
"common.weekends" : "Am Wochenende",
"common.everyday" : "Jeden Tag",
"common.weekdays" : "Wochentags",
"common.loading" : "Wird geladen",
"common.from.date" : "Von{msg}",
"common.add.note" : "Notiz hinzufügen",
"common.guest" : "Gast",
"common.pseudocode.email.placeholder" : "beispiel@web.de",
"common.subscribe" : "Abonnieren",
"common.full.name" : "Name",
"common.email" : "E-Mail",
"common.password" : "Passwort",
"common.sign.up" : "Registrieren",
"common.sign.in" : "Anmelden",
"common.show" : "Anzeigen",
"common.hide" : "Verbergen",
"common.see.more" : "Mehr anzeigen",
"common.not.enough.data" : "Nicht genug Informationen für ein Ranking",
"common.preferences" : "Präferenzen",
"common.view.note" : "Notiz ansehen",
"common.view.notes" : "Notizen anzeigen",
"common.delete.selected" : "Ausgewählte löschen",
"common.edit.note" : "Notiz bearbeiten",
"common.general" : "General",
"common.account" : "Account",
"common.custom" : "Benutzerdefiniert...",
"common.dismiss" : "Verwerfen",
"common.create.habit" : "Gewohnheit anlegen",
"common.this.week" : "Diese Woche",
"common.last.week" : "Letzte Woche",
"common.yesterday" : "Gestern",
"common.this.month" : "Dieser Monat",
"common.last.month" : "Letzter Monat",
"common.this.year" : "Dieses jahr",
"common.last.year" : "Letztes Jahr",
"common.weekly" : "Wöchentlich",
"common.average" : "Durchschnittlich",
"common.snooze" : "Stummschalten",
"common.camera" : "Kamera",
"common.other" : "Sonstiges",
"common.photo.library" : "Foto-Bibliothek",
"common.connect" : "Verbinden",
"common.connected" : "Verbunden",
"common.search" : "Suche",
"common.ok" : "OK",
"common.passcode" : "Passcode",
"common.pause" : "Anhalten",
"common.stop" : "Stopp",
"common.resume" : "Fortsetzen",
"common.time.goal" : "zeitliches Ziel",
"common.start.timer" : "Timer starten",
"common.time" : "Zeit",
"common.daily.average" : "Täglicher Durchschnitt",
"common.weekly.average" : "Wöchentlicher Durchschnitt",
"common.monthly.average" : "Monatlicher Durchschnitt",
"common.time.of.day" : "Tageszeit",
"common.start.of.day" : "Tagesanfang",
"common.start.of.day.description" : "Dies ist die Zeit an der dein Morgen beginnt und der Abend endet.",
"common.more" : "Mehr",
"common.profile.settings" : "Profil & Einstellungen",
"common.resources" : "Materialien",
"common.tips.tricks" : "Tipps & Tricks",
"common.tomorrow" : "Morgen",
"common.send" : "Senden",
"common.save.changes" : "Änderungen speichern",
"common.create.new.habit" : "Erstelle eine neue Angewohnheit",
"common.save.habit" : "Habit speichern",
"common.common.feature.restricted" : "Funktion für diese Demo nicht verfügbar",
"common.common.demo.info.title" : "Demo-Information",
"common.common.demo.info.message" : "Diese Version von Habitify wurde speziell für Demonstrationszwecke erstellt.\nAlle eingegebenen Daten werden gelöscht, wenn Sie die App beenden.",
"common.common.continue" : "Fortfahren",
"common.timer" : "Timer",
"common.time" : "Zeit",
"common.minute.short" : "Mins",
"edithabit.screen.name" : "Gewohnheit bearbeiten",
"edithabit.name" : "Name",
"edithabit.repeat" : "Wiederholen",
"edithabit.start.date" : "Anfangsdatum",
"edithabit.reminder" : "Erinnerungen",
"edithabit.add.reminder" : "Erinnerung hinzufügen",
"edithabit.daily" : "Täglich",
"edithabit.weekly" : "Wöchentlich",
"edithabit.interval" : "Intervall",
"edithabit.delete.habit" : "Diese Gewohnheit löschen",
"edithabit.delete.confirm.title" : "Bestätigung",
"edithabit.delete.confirm.message" : "Alle Daten werden unwiderruflich gelöscht. Möchtest du fortfahren?",
"edithabit.delete" : "Löschen",
"edithabit.archive.habit" : "Diese Gewohnheit archivieren",
"edithabit.unarchive.habit" : "Diese Gewohnheit nicht mehr archivieren",
"edithabit.time.of.day" : "Tageszeit",
"edithabit.copy.to.clipboard" : "In die Zwischenablage kopieren",
"edithabit.copied" : "Kopiert",
"edithabit.xcallback.read.more" : "Erfahre mehr über x-callback-urls",
"edithabit.reminder.example" : "Zum Beispiel: 9:00",
"edithabit.suggested" : "Empfohlen",
"edithabit.suggested.meditate" : "Meditieren",
"edithabit.suggested.run" : "Joggen",
"edithabit.suggested.core.training" : "Core Training",
"edithabit.suggested.read.book" : "Buch lesen",
"edithabit.suggested.learn.language" : "Eine Fremdsprache lernen",
"edithabit.suggested.cardio" : "Cardio-Training",
"edithabit.suggested.yoga" : "Yoga",
"edithabit.cancel.confirm.message" : "Alle nicht gespeicherten Daten gehen verloren. Wollen Sie fortfahren?",
"edithabit.delete.reminder" : "Diese Erinnerung löschen",
"edithabit.repeat.everyday" : "Jeden Tag wiederholen",
"edithabit.repeat.weekdays" : "An Wochentagen wiederholen",
"edithabit.repeat.weekend" : "Wochenende wiederholen",
"edithabit.repeat.specific.weekdays" : "Jeden {msg} wiederholen",
"edithabit.time.goal.disabled" : "Kein Zeitziel",
"edithabit.time.goal.enabled" : "Ziel {msg}",
"edithabit.time.of.day.any.time" : "Jederzeit machen",
"edithabit.time.of.day.specific" : "An {msg} machen",
"edithabit.start.date.from" : "Von {msg}",
"journal.empty.title" : "Der Anfang deines besseren Ichs!",
"journal.empty.message" : "Gewohnheiten sind wie Doministeine. Wird eine Gewohnheit geformt, folgen andere!",
"journal.empty.secondary.see.other" : "Sehe, an welchen Gewohnheiten andere arbeiten",
"journal.empty.in.specific.day.title" : "Oh, ein Tag ohne Gewohnheiten.",
"journal.empty.in.specific.day.message" : "Mach eine Pause und komme morgen frisch zurück!",
"journal.screen.name" : "Tagebuch",
"journal.dismiss" : "Verwerfen",
"journal.hide.completed" : "Erledigte ausblenden",
"journal.show.completed" : "Erledigte anzeigen",
"journal.date.progress.empty.habit" : "Fülle diese Leiste mit deiner ersten Gewohnheit",
"journal.date.progress.no.habit.in.day" : "Ein Tag ohne Gewohnheiten!",
"journal.date.progress.half" : "Du hast die Hälfte geschafft!",
"journal.date.progress.one.left" : "Nur noch 1 Gewohnheit! Halte durch!",
"journal.date.progress.one.completed" : "Alle Gewohnheiten sind geschafft!",
"journal.habit.message.failed" : "Das nächste Mal schaffst du es!",
"journal.habit.message.skipped" : "Wische nach links und notiere deinen Grund",
"journal.habit.message.empty.checkins" : "Heute abschließen, um die erste Serie zu starten",
"journal.not.visible.habit.start.date" : "{msg1} ist ab {msg2} sichtbar",
"journal.not.visible.habit.regularly" : "{msg1} ist ab {msg2} sichtbar",
"journal.not.visible.habit.time.of.day" : "{msg1} ist nicht in {msg2} sichtbar. Wechseln Sie zu Alle Gewohnheiten, um es zu sehen.",
"journal.new.habit" : "Neue Gewohnheit",
"manage.active.count" : "Aktiv ({num})",
"manage.archived.count" : "Archiviert ({num})",
"menubarapp.filter.by" : "Sortiere Gewohnheiten nach:",
"menubarapp.quit" : "Habitify Mini beenden",
"newupgrade.title" : "Hol dir Habitify Premium",
"newupgrade.package.popular" : "Beliebt",
"newupgrade.package.best.value" : "Bestes Angebot",
"newupgrade.package.life-time" : "Lebenszeit",
"newupgrade.purchase.terms" : "Dein iTunes-Konto wird bei der Bestätigung des Kaufes belastet. Das Abonnement verlängert sich automatisch. Bei der Verlängerung wird dein iTunes-Konto 24 Stunden vor dem Auslaufen des aktuellen Abonnements mit {msg} belastet. In den iTunes-Konto-Einstellungen kannst du das Abonnement verwalten und beenden. Mehr in unserer <a href='https://habitify.me/privacy-policy.html'>Datenschutzerklärung</a> und den <a href='https://habitify.me/terms-of-use.html'>Nutzungsbedingungen</a>",
"newupgrade.purchase.life.time.terms" : "Dein iTunes-Konto wird bei der Bestätigung des Kaufes mit {msg} belastet. Es handelt sich um eine Einmalzahlung. Hast du dieses Paket gekauft, erhältst du eine Premium-Mitgliedschaft auf Lebenszeit, auf allen Plattformen, ohne noch etwas anderes bezahlen zu müssen.",
"newupgrade.benefits.unlimited.habit.title" : "Unbegrenzte Anzahl Gewohnheiten",
"newupgrade.benefits.unlimited.habit.description" : "Werde ein besserer Mensch, indem du dir in verschiedensten Lebensbereichen gute Gewohnheiten aneignest.",
"newupgrade.benefits.skip.title" : "Überspringe die Gewohnheiten",
"newupgrade.benefits.skip.description" : "Erhalte den hart erarbeiteten und motivierenden Fortschritt, indem du eine Gewohnheit mal \"überspringst\".",
"newupgrade.benefits.archive.title" : "Gewohnheiten archivieren",
"newupgrade.benefits.archive.description" : "Halte deine Liste von Gewohnheiten sauber, indem du alte oder unerwünschte Gewohnheiten archivierst.",
"newupgrade.benefits.yearly.calendar.title" : "Jahreskalender",
"newupgrade.benefits.yearly.calendar.description" : "Erhalte einen Überblick über dein Wohlbefinden und deinen Fortschritt mit einer jährlichen Ansicht.",
"newupgrade.benefits.dark.mode.title" : "Dunkler Modus",
"newupgrade.benefits.dark.mode.description" : "Entspanne deine Augen wenn du in der Nacht deinen Fortschritt überprüfst.",
"newupgrade.benefits.export.data.title" : "Daten exportieren",
"newupgrade.benefits.export.data.description" : "Gewinne weitere Erkenntnisse durch das Exportieren deiner Daten und das Auswerten in anderen Analyse-Programmen.",
"newupgrade.benefits.privacy.lock.title" : "PIN-Schutz",
"newupgrade.benefits.privacy.lock.description" : "Sichere deine Daten mit einem Passwort und TouchID oder FaceID.",
"newupgrade.benefits.notes.title" : "Notizen",
"newupgrade.benefits.notes.description" : "Halte das Erreichte und deine Gedanken mit kleinen Notizen fest.",
"newupgrade.benefits.unlimited.reminder.title" : "Unbegrenzte Anzahl von Erinnerungen",
"newupgrade.benefits.unlimited.reminder.description" : "Lass dich regelmäßig an eine \"sture\" Gewohnheit erinnern. Mit unbegrenzter Anzahl von Erinnerungen.",
"notification.snoozed.for" : "Stummgeschalten für {msg}",
"notification.action.change.snooze.to" : "Schiebe {msg} auf",
"notification.daily.briefing.morning.default.title" : "Guten Morgen Habitify-er!",
"notification.daily.briefing.morning.default.message" : "Überprüfe deine Gewohnheiten und gehe sie dann eine nach der anderen an.",
"notification.daily.briefing.morning.title" : "Heutige Übersicht",
"notification.daily.briefing.morning.single" : "Deine einzige Gewohnheit für den Tag ist {msg1} um {msg2}.",
"notification.daily.briefing.morning.no.habit.in.day" : "Ein freier Tag ohne Gewohnheiten! Nimm dir etwas Zeit für dich!",
"notification.daily.briefing.morning.empty.habit.day.one.title" : "Unsere erste Gewohnheit für dich!",
"notification.daily.briefing.morning.empty.habit.day.one.message" : "Meditieren verbessert die Konzentrationsfähigkeit und Aufmerksamkeit - für einen produktiveren Tag. Los geht's!",
"notification.daily.briefing.morning.empty.habit.day.two.title" : "Unsere zweite Gewohnheit für dich!",
"notification.daily.briefing.morning.empty.habit.day.two.message" : "Morgengymnastik führt zu einem klareren Kopf und tieferem Schlaf. Lass uns diese Gewohnheit anlegen.",
"notification.daily.briefing.morning.empty.habit.fallback.title" : "Zeit für deine Morgenroutine!",
"notification.daily.briefing.morning.empty.habit.fallback.message" : "Eine gute Morgenroutine läßt dich den ganzen Tag produktiv fühlen. Erstelle deine erste!",
"notification.daily.briefing.evening.default.title" : "Wie läuft dein Tag, Habitify-er?",
"notification.daily.briefing.evening.default.message" : "Mach dir Notizen zu deinen Fortschritten, indem du nach links wischst. Das wird dich morgen motivieren!",
"notification.daily.briefing.evening.title" : "Heutiger Rückblick",
"notification.daily.briefing.evening.completed.all" : "Du hast heute alle Gewohnheiten erledigt. Hurra!",
"notification.daily.briefing.evening.completed.in.progress.2" : "Die heutige Auswertung ist fertig. Sieh dir an, wie gut du warst.",
"notification.daily.briefing.evening.empty.habit.day.one.title" : "Zeit für deine abendlichen Gewohnheiten!",
"notification.daily.briefing.evening.empty.habit.day.one.message" : "Meditieren und Lesen sorgen für einen tieferen Schlaf. Probier es aus für 5 Minuten.",
"notification.daily.briefing.evening.empty.habit.day.two.title" : "Zeit für deine abendlichen Gewohnheiten!",
"notification.daily.briefing.evening.empty.habit.day.two.message" : "Erfolgreiche Menschen schreiben oft ein Tagebuch um zu reflektieren und sich auf den nächsten Tag vorzubereiten. Hilf auch du dir damit.",
"notification.daily.briefing.evening.empty.habit.fallback.title" : "Zeit für deine Abendroutine!",
"notification.daily.briefing.evening.empty.habit.fallback.message" : "Meditiere. Dehne dich. Schreibe ein Tagebuch. Lies ein Buch. Erstelle eine neue Gewohnheit, die dir gefällt!",
"notification.daily.briefing.evening.break.record" : "Sie haben heute einen neuen persönlichen Rekord erreicht, schauen Sie sich das an!",
"notification.daily.briefing.evening.weekly.single.habit.completed" : "Sie haben das Ziel dieser Woche von {msg} erreicht. Süß!",
"notification.habit.one.streak" : "Wenn Sie diese Gewohnheit einmal tun können, können Sie es zweimal tun!",
"notification.habit.zero.streak.empty.checkin" : "Das ist eine neue Gewohnheit. Mach es mal, um die erste Strähne zu kriegen!",
"notification.habit.last.failed" : "Letztes Mal haben Sie diese Gewohnheit gescheitert. Besser tun Sie es noch mal, um wieder auf dem richtigen Weg zu sein!",
"notification.habit.last.skipped" : "Letztes Mal haben Sie diese Gewohnheit übersprungen. Besser tun Sie es, um ihre Glückssträhne wieder aufzunehmen!",
"notification.habit.last.none" : "Letztes Mal haben sie diese Gewohnheit nicht abgeschlossen. Tun Sie mal, um wieder auf dem richtigen Weg zu sein!",
"notification.timer.running.title" : "Timer läuft",
"notification.timer.running.body" : "%1@ Sitzung endet um %2@",
"notification.timer.completed.title" : "Sitzung abgeschlossen",
"notification.timer.completed.body" : "Deine %1@ Sitzung für %2@ wurde abgeschlossen. Klicken zum speichern.",
"notification.timer.cancelled.title" : "Sitzung verworfen",
"notification.timer.cancelled.body" : "Deine Sitzung für {msg} wurde verworfen, weil du Habitify im Hintergrund geleert hast.",
"onboarding.introduce.title" : "Willkommen bei Habitify!",
"onboarding.introduce.description" : "Beginne damit, tolle Gewohnheiten aufzubauen, um die perfekte Tagesroutine zu bekommen, von der du immer geträumt hast.",
"onboarding.step.easily-access.title" : "Schneller Zugang",
"onboarding.step.easily-access.description" : "Du hast mühelosen Zugang zu Gewohnheiten \nüber dein iPhone, iPad, deine Apple Watch \nund sogar über das 'Als Nächstes' Widget.",
"onboarding.action.get-started" : "Los geht's",
"onboarding.introduce.continue" : "Tour beginnen",
"onboarding.select.habit" : "Wähle eine Gewohnheit um zu starten",
"onboarding.select.habit.assurance" : "Keine Sorge, du kannst es später ändern!",
"onboarding.actions.action1" : "Gute Wahl! Drücke auf den Haken um {msg} als abgeschlossen zu markieren",
"onboarding.actions.action2" : "Perfekt! Du möchtest deinen Fortschritt einsehen? Tippe auf die Gewohnheit",
"onboarding.stats.title.compact.height" : "Super! Gehe nach unten um noch mehr Informationen zu erhalten",
"onboarding.stats.title.regular.height" : "Gut! Hier siehst du, wie gut du warst",
"onboarding.stats.finish" : "Tour beenden",
"onboarding.tips.title" : "Gut gemacht!",
"onboarding.tips.description" : "Ein paar Tipps um Habitify besser nutzen zu können!",
"onboarding.tips.skip" : "Diesen Schritt überspringen",
"onboarding.tips.swipe" : "Wische, um mehr zu sehen",
"onboarding.tips.sync.title" : "Melde dich an, um deine Daten zu sichern, selbst wenn du dein Handy wechselst",
"onboarding.tips.sync.action" : "Registrieren",
"onboarding.tips.notification.title" : "Vergiss mit einer Erinnerung nie, eine ausstehende Gewohnheit abzuhaken",
"onboarding.tips.notification.action" : "Benachrichtigungen aktivieren",
"onboarding.tips.widget.title" : "Motiviere dich mit einem Zitat am Tag",
"onboarding.welcome.step1.title" : "Willkommen bei Habitify",
"onboarding.welcome.step1.subtitle" : "Wir glauben, dass die Welt schöner ist, wenn jeder Mensch besser wird. Ja, das bist du.",
"onboarding.welcome.step2.title" : "Bilden Sie klebrige Gewohnheiten",
"onboarding.welcome.step2.subtitle" : "Bilden Sie alle Arten von wiederkehrenden Gewohnheiten und fühlen Sie sich jedes Mal motiviert, wenn Ihre Streifen steigen.",
"onboarding.welcome.step3.title" : "Befreie deinen Geist",
"onboarding.welcome.step3.subtitle" : "Entspannen Sie sich den ganzen Tag mit täglichen Briefings und rechtzeitigen Erinnerungen.",
"onboarding.welcome.step4.title" : "Jeden Tag verbessern",
"onboarding.welcome.step4.subtitle" : "Verfolgen Sie verpasste oder übersprungene Tage und sorgen Sie dafür, dass sie beim nächsten Mal funktionieren.",
"onboarding.welcome.sign.in" : "Hast du schon ein Konto? {msg1}",
"onboarding.introduce.skip" : "Tour überspringen",
"onboarding.tips.action" : "Erstelle deine erste Gewohnheit",
"onboarding.pick.habit.title" : "Wähle eine Gewohnheit",
"onboarding.pick.habit.subtitle" : "4 von 10 Personen haben Read Book in ihrer Gewohnheitsliste.",
"onboarding.pick.habit.not.found" : "Benutzerdefinierte Gewohnheit",
"onboarding.pick.frequency.title" : "Wählen Sie eine Frequenz",
"onboarding.pick.frequency.subtitle" : "Wenn Sie 2-3 Mal pro Woche beginnen, steigt Ihre Erfolgsquote erheblich.",
"onboarding.pick.reminder.title" : "Wähle eine Zeit",
"onboarding.pick.reminder.subtitle" : "Sie werden zum ausgewählten Zeitpunkt daran erinnert, Ihre Gewohnheit zu tun.",
"onboarding.review.habit" : "Überprüfen Sie Ihre Gewohnheit",
"onboarding.habit.review.title" : "Gewohnheitsüberprüfung",
"onboarding.habit.review.subtitle" : "Sie werden zu {msg1}{msg2} um {msg3} weitergeleitet. Tippen Sie auf eine der folgenden Optionen, um sie zu ändern.",
"onboarding.save.habit" : "Speichern Sie diese Gewohnheit",
"onboarding.save.habit.title" : "Speichern Sie Ihre Gewohnheit",
"onboarding.save.habit.subtitle" : "Erstellen Sie ein Konto, um Ihre Gewohnheiten zu speichern. Alles kann mit einem Fingertipp wiederhergestellt werden.",
"onboarding.create.account" : "Benutzerkonto anlegen",
"onboarding.create.later" : "Mach das später",
"privacylock.enter.current.passcode" : "Aktuelles Passwort eingeben",
"privacylock.enter.new.passcode" : "Neues Passwort eingeben",
"privacylock.re.enter.new.passcode" : "Neues Passwort erneut eingeben",
"privacylock.enter.passcode" : "Passwort eingeben",
"privacylock.biometrics.fallback" : "Habitify-Passwort nutzen",
"privacylock.lock.instruction" : "Fingerabdruck oder Passcode",
"privacylock.fingerprint.unlock" : "Mit Fingerabdruck entsperren",
"privacylock.cancel.setup.confirmation" : "Sie müssen ein Passwort einrichten, um Privacy Lock zu aktivieren. Möchten Sie stornieren?",
"privacylock.fingerprint.unlock.error.message" : "Wir haben Ihren Fingerabdruck nicht erkannt. Bitte versuche es erneut.",
"privacylock.passcode.unlock.error.message" : "Sie haben anscheinend ein falsches Passwort eingegeben. Bitte versuche es erneut.",
"progress.empty.title" : "Ihr Fortschritt in Zahlen",
"progress.empty.message" : "Ein klarerer Geist oder ein gesünderer Körper begannen alle mit einer kleinen Angewohnheit.",
"progress.empty.secondary.see.other" : "Siehe Demo-Fortschritt",
"progress.most.popular.title" : "Am beliebtesten",
"progress.most.popular.subtitle" : "Diese Gewohnheiten sind aus einem bestimmten Grund beliebt. Sie haben das Leben verändert!",
"progress.preview.checkin.time.title" : "Check-in Zeit",
"progress.preview.checkin.time.subtitle" : "Finden Sie unbenutzte Stunden heraus, um sie mit hartnäckigen Gewohnheiten aufzufüllen",
"progress.preview.weekly.progress.title" : "Ziel der Gewohnheit",
"progress.preview.weekly.progress.subtitle" : "Überprüfen Sie Ihre täglichen und wöchentlichen Ziele, um Ihren Plan einzuhalten",
"progress.preview.completion.rate.title" : "Abschlussrate",
"progress.preview.completion.rate.subtitle" : "Überwachen Sie Ihre Gesamtleistung nach Woche oder Monat",
"progress.preview.daily.performance.title" : "Tägliche Leistung",
"progress.preview.daily.performance.subtitle" : "Finden Sie heraus, auf welchen Tag Sie sich am wenigsten konzentrieren müssen",
"progress.preview.yearly.graph.title" : "Gewohnheitsvergleich",
"progress.preview.yearly.graph.subtitle" : "Vergleichen und kontrastieren Sie Ihre Gewohnheiten mit monatlichen und jährlichen Ansichtsoptionen",
"progress.overall" : "Gesamt",
"progress.notes" : "Notizen",
"progress.based.on.completion.rate" : "Basierend auf Häufigkeit der Erledigung",
"progress.screen.name" : "Fortschritt",
"progress.view.all" : "Alle ansehen",
"progress.empty.habit.title" : "Du hast noch keine Gewohnheit.",
"progress.empty.habit.message" : "Erstelle die erste um interessante Statistiken zu bekommen",
"progress.checkin.time" : "Abschlusszeit",
"progress.today.habits" : "Heutige Gewohnheiten",
"progress.streaks" : "Serien",
"progress.daily.performance" : "Tägliche Leistung",
"progress.weekly.goal" : "Wochenziel",
"progress.empty.note.title" : "Noch keine Notizen hier!",
"progress.empty.note.message" : "Du kannst Wörter wie \"heute\",\"gestern\" oder \"1. März\" benutzen um schnell eine Notiz für den Tag hinzuzufügen.",
"progress.empty.note.placeholder" : "Versuchen wir es mit \"gestern\"?",
"progress.empty.note.web.message" : "Schreibe einfach und drücke Senden, wie beim chatten",
"progress.empty.note.web.message" : "Schreibe einfach und drücke Senden, wie beim chatten",
"progress.siri.shortcut" : "Siri-Kurzbefehle",
"progress.siri.shortcut.message" : "Markiere eine Gewohnheit schnell als erledigt.",
"progress.weekly.goal.reached" : "Du hast das Wochenziel erreicht!",
"progress.weekly.goal.not.started" : "Nur wer anfängt kann gewinnen.",
"progress.weekly.goal.half" : "Fast geschafft, mach weiter so!",
"progress.streak.level.message.1" : "Fange heute an, um die erste Serie zu starten",
"progress.streak.level.message.2" : "Benutze \"Überspringen\" um deine Serie zu schützen!",
"progress.streak.level.message.3" : "Du bist spitze!",
"progress.streak.level.message.4" : "Nur noch {num} Tag/Tage!",
"progress.streak.level.message.5" : "In kleinen Schritten zum großen Ziel",
"progress.streak.level.message.6" : "Du bist unaufhaltbar!",
"progress.streak.level.message.7" : "Schau an, du kannst es doch!",
"progress.streak.level.message.8" : "Du hast es zur ersten Woche geschafft! Glückwunsch!",
"progress.streak.level.message.9" : "Vor {num} Tagen warst du bei 0.",
"progress.streak.level.message.10" : "Gib nicht auf! Du hast noch einiges vor dir.",
"progress.streak.level.message.11" : "Du hast dich so sehr bemüht und bist so weit gekommen.",
"progress.streak.level.message.12" : "Los. Los. Los.",
"progress.streak.level.message.13" : "Du kannst stolz auf dich sein!",
"progress.streak.level.message.14" : "Die Hälfte ist geschafft! Mach weiter so!",
"progress.streak.level.message.15" : "Noch {num} Tage um diese Angewohnheit zu meistern!",
"progress.streak.level.message.16" : "Weniger als eine Woche noch!",
"progress.streak.level.message.17" : "Sieh wie weit du gekommen bist!",
"progress.streak.level.message.18" : "Das ist der Wahnsinn!",
"progress.streak.level.message.19" : "Wie hast du es so weit geschafft?",
"progress.streak.level.message.20" : "Nur. Noch. Ein. Tag.",
"progress.streak.level.message.21" : "Du hast diese Angewohnheit erfolgreich geformt!",
"progress.streak.level.message.22" : "Diese Angewohnheit bekommst du mit Links hin!",
"progress.streak.level.message.23" : "9 Wochen! Kannst du das glauben?",
"progress.streak.level.message.24" : "Du hast diese Angewohnheit 3 Monate gemacht!",
"progress.today.message.empty.1" : "Es braucht nur eine Gewohnheit von 0 auf 1 zu wechseln.",
"progress.today.message.empty.2" : "Wir fordern dich heraus nur eine Gewohnheit zu machen. Pisst du dabei?",
"progress.today.message.one.left.1" : "Nur. Noch. Eine! Du schaffst es!",
"progress.today.message.one.left.2" : "Keine Anstrengung ist zu groß. Du schaffst es!",
"progress.today.message.completed.1" : "Ausgezeichnet! Du kannst stolz auf dich sein!",
"progress.today.message.completed.2" : "Du kannst dir auf die Schulter klopfen!",
"progress.today.message.completed.3" : "Du hast alle Gewohnheiten für heute erledigt!",
"progress.today.message.one" : "Einfach, nicht? Wie wäre es mit einer mehr?",
"progress.today.message.two.half.1" : "Du bist unaufhaltbar!",
"progress.today.message.two.half.2" : "Schleichender Fortschritt > kein Fortschritt.",
"progress.today.message.two.half.3" : "Du bist großartig!",
"progress.today.message.two.half.4" : "Du bist spitze heute, mach weiter so!",
"progress.today.message.two.half.5" : "Wenn du dich nicht wohl fühlst, benutze \"Überspringen\" um deine Serie zu schützen.",
"progress.today.message.two.half.6" : "Was dich nicht umbringt macht dich nur stärker!",
"progress.today.message.half.1" : "Du hast die Hälfte geschafft. Der Rest ist viel einfacher.",
"progress.today.message.half.completed.1" : "Eine Gewohnheit zu erledigen ist wie ein Versprechen einzuhalten.",
"progress.today.message.half.completed.2" : "Schau in den Spiegel. Diese Person verdient Respekt!",
"progress.today.message.half.completed.3" : "Superstart des Tages: du!",
"progress.today.message.half.completed.4" : "Nur noch ein paar Punkte auf der Liste!",
"progress.today.message.half.completed.5" : "\"Das Schicksal eines Kriegers ist größer als seine Wunden\" - B. Burchard",
"progress.in.app.review.title" : "Gefällt dir Habitify?",
"progress.in.app.review.description" : "Wie würdest du deine Erfahrungen mit der App bis jetzt bewerten?",
"progress.in.app.review.one.star" : "Es scheint, dass wir viel verbessern müssen. Würden Sie bitte Ihr Feedback teilen?",
"progress.in.app.review.three.star" : "Danke für die Bewertung! Was sollten wir tun, um die anderen 2 Sterne zu verdienen?",
"progress.in.app.review.four.star" : "Toll! Wir freuen uns, dass du es geniesst. Könntest du auch eine Bewertung schreiben, um die Entwickler zu unterstützen?",
"progress.in.app.review.five.star" : "Awesome! Könnten Sie eine kurze Überprüfung schreiben, um anderen zu helfen, die App einfacher zu finden?",
"progress.in.app.review.action.write.review" : "Bewertung schreiben",
"progress.in.app.review.action.send.feedback" : "Feedback senden",
"settings.icloud.connected" : "Verbunden mit deinem iCloud Account",
"settings.not.synced" : "Deine Daten werden momentan nicht synchronisiert",
"settings.change.name" : "Namen ändern",
"settings.translate" : "Habitify übersetzen",
"settings.change.name.placeholder" : "Gib einen neuen Namen ein",
"settings.knowledge.base" : "Wissensplattform",
"settings.changelogs" : "Änderungshistorie",
"settings.community" : "User-Community",
"settings.app.badge" : "App-Kennzeichen",
"settings.app.badge.time.of.day.explaination" : "Gewohnheiten werden je nach Tageszeit angezeigt (Morgens, Mittags, Abends)",
"settings.app.badge.all.explaination" : "Es werden alle Gewohnheiten des Tages angezeigt",
"settings.app.badge.time.of.day" : "Basierend auf der Tageszeit",
"settings.app.badge.all.habit" : "Alle Gewohnheiten berücksichtigen",
"settings.sounds" : "Töne",
"settings.sounds.reminder" : "Ton bei Erinnerungen",
"settings.sounds.completion" : "Erledigungs-Ton",
"settings.subscribe.newsletter" : "Abonniere unseren Newsletter",
"settings.export.data" : "Daten exportieren",
"settings.reorder.habit" : "Gewohnheiten verwalten",
"settings.in.app.sound" : "In-App-Töne",
"settings.notifications" : "Benachrichtigungen",
"settings.upgrade" : "Auf Premium upgraden",
"settings.account" : "Benutzerkonto",
"settings.follow.twitter" : "Folge uns auf Twitter",
"settings.follow.instagram" : "Folge uns auf Instagram",
"settings.screen.name" : "Einstellungen",
"settings.first.day.of.week" : "Wochenbeginn",
"settings.privacy.lock" : "PIN-Schutz",
"settings.daily.reminder" : "Tägliche Erinnerung",
"settings.support" : "Support-Chat",
"settings.rate.on.appstore" : "Bewerte uns im App Store!",
"settings.spread.the.word" : "Teile die App",
"settings.acknowledgements" : "Danksagungen",
"settings.sign.out" : "Abmelden",
"settings.reset.habit.data" : "Gewohnheitsdaten zurücksetzen",
"settings.reset.habit.confirmation" : "Nur dein Fortschritt und die Notizen werden endgültig gelöscht. Die Gewohnheiten bleiben bestehen. Ok?",
"settings.reset.habit.completed" : "Deine Gewohnheitsdaten wurden zurückgesetzt.",
"settings.delete.all.habit.data" : "Alle Daten löschen",
"settings.delete.all.habit.confirmation" : "Alle Gewohnheiten, dein Fortschritt und die Notizen werden endgültig gelöscht. Bist du sicher?",
"settings.delete.all.habit.completed" : "Deine Gewohnheitsdaten wurden gelöscht.",
"settings.sign.up.message" : "Melde dich mit E-Mail oder Facebook an, damit deine Daten auf unseren Servern gesichert werden können.",
"settings.sign.up" : "Neues Benutzerkonto erstellen",
"settings.sign.in" : "Mit bestehendem Benutzerkonto anmelden",
"settings.account.linking" : "Benutzerkonto verknüpfen",
"settings.account.message" : "Melde dich mit E-Mail oder Facebook an, damit deine Daten auf unseren Servern gesichert werden können.",
"settings.unlink.facebook.confirmation" : "Du wirst dich nicht mehr mit Facebook anmelden können. Willst du fortfahren?",
"settings.unlink.facebook.action" : "Verknüpfung mit Facebook aufheben",
"settings.unlink.email.confirmation" : "Du wirst dich nicht mehr mit dieser E-Mail-Adresse anmelden können. Willst du fortfahren?",
"settings.unlink.email.action" : "Verknüpfung aufheben",
"settings.status.free" : "Kostenloses Mitglied",
"settings.status.premium.life.time" : "Premium (Lebenszeit)",
"settings.status.premium.expire.at" : "Premium ({msg})",
"settings.snooze.duration" : "Stummschalt-Dauer",
"settings.notification.sound" : "Benachrichtigungstöne",
"settings.daily.breifing" : "Tägliche Übersicht",
"settings.dailf.briefing.morning.description" : "Wir benachrichtigen dich jeden Tag um 7 Uhr, wie viele Gewohnheiten du hast und auf welche du dich fokussieren solltest.",
"settings.dailf.briefing.evening.description" : "Wir werden den täglichen Fortschritt und neue Rekorde zusammenfassen.",
"settings.data.management" : "Daten verwalten",
"settings.no.email.provided" : "Keine E-Mail verfügbar",
"settings.subscription.info" : "Abo-Informationen",
"settings.download.mac.app" : "Habitify für Mac herunterladen",
"settings.privacy.lock.enabled" : "PIN-Schutz aktivieren",
"settings.unlock.with" : "Mit {msg} entsperren",
"settings.change.passcode" : "PIN ändern",
"settings.dark.mode" : "Dunkler Modus",
"settings.dark.mode.preview.title" : "Nur Vorschau",
"settings.dark.mode.preview.message" : "Der dunkle Modus ist nur für Pro-Benutzer verfügbar. Beim nächsten Start der App wird in den hellen Modus zurück gewechselt. Werde Pro-Benutzer, um den dunklen Modus zu behalten.",
"settings.dark.mode.upgrade.cta" : "Über Pro",
"settings.newsletter.request.title" : "Nichts verpassen",
"settings.newsletter.request.subtitle" : "Abonniere unseren Newsletter, um Neuigkeiten per E-Mail zu erhalten...",
"settings.newsletter.request.later" : "Später erinnern",
"settings.newsletter.acknowledment.title" : "Danke",
"settings.newsletter.acknowledment.subtitle" : "Du wurdest zu unserer Mailingliste hinzugefügt und wirst zu den Ersten gehören, die von Neuigkeiten und Sonderangeboten erfahren.",
"settings.no.account.connected" : "Kein Account verbunden",
"settings.account.status.free" : "Status: Kostenlos",
"settings.account.status.pro.lifetime" : "Status: Pro (auf Lebenszeit)",
"settings.account.status.valid.until" : "Status: Pro (bis {msg})",
"settings.social.share.content" : "Habitify ist perfekt, um produktiv zu werden und Herr deiner täglichen Gewohnheiten zu werden! Es ist einen Download wert!",
"settings.sign.out.confirmation" : "Möchten Sie sich wirklich abmelden?",
"settings.fingerprint.not.setup" : "Um diese Funktion zu aktivieren, fügen Sie bitte zuerst Ihren Fingerabdruck in den Einstellungen des Telefons hinzu.",
"settings.general" : "Allgemein",
"settings.app.settings" : "App Einstellungen",
"settings.language" : "Sprache",
"settings.payment" : "Zahlungsart",
"settings.new.password" : "Neues Passwort",
"settings.re.enter.new.password" : "Passwort erneut eingeben",
"settings.current.password" : "Momentanes Passwort",
"settings.current.plan" : "Dein momentanes Abo",
"settings.change.plan" : "Abo ändern",
"settings.cancel.subscription" : "Abo kündigen",
"timegoal.picker.benefit" : "Wähle ein Ziel für {msg}. Nutze dann den Timer, um die Zeit, die du damit verbringst, aufzuzeichnen.",
"timegoal.save.goal" : "Ziel speichern",
"timegoal.session.discard.title" : "Sitzung verwerfen",
"timegoal.session.discard.message" : "Dein aktueller Fortschritt in dieser Sitzung wird nicht gespeichert.",
"timegoal.session.completed" : "Sitzung abgeschlossen",
"timegoal.session.completed.message" : "%1@ wurden für %2@ gespeichert.",
"timegoal.log.session" : "Sitzung aufzeichnen",
"timegoal.view.sessions" : "Sitzungen ansehen",
"timegoal.completion.time" : "Benötigte Zeit",
"timegoal.duration" : "Dauer",
"timegoal.duration.placeholder" : "Wert eingeben",
"timegoal.time.spent" : "Verbrachte Zeit",
"timegoal.discarded.session" : "Verworfene Sitzungen",
"timegoal.break.down" : "Aufschlüsselung",
"timegoal.setup.suggestion.message" : "Erstelle ein Ziel, um zu verfolgen, wie viel Zeit du mit dieser Gewohnheit verbringen möchtest.",
"timegoal.setup.suggestion.action" : "Ziel erstellen",
"timegoal.longest.session" : "Längste Sitzung",
"timegoal.custom.time.goal" : "Personalisiertes Zeitziel",
"timegoal.setup.benefit" : "Zeitziel hilft beim Aufzeichnen der Zeit, die du für eine Gewohnheit aufbringst. Du kannst den Timer in der Benachrichtigung oder am Journal-Bildschirm starten.",
"timegoal.no.required" : "Du hast heute frei",
"timegoal.start.new.timer" : "Neuen Timer starten",
"timegoal.empty.session" : "Keine Sitzungen aufgezeichnet",
"timegoal.timer.duration.instruction" : "Ziehe am untenstehenden Regler, um die Dauer der Sitzung für {msg} festzulegen.",
"upgrade.screen.name" : "Upgrade",
"upgrade.cannot-connect" : "Kann nicht zum iTunes Store verbinden",
"upgrade.restore.failed.title" : "Wiederherstellen der Käufe fehlgeschlagen",
"upgrade.restore.failed.message" : "Wir können deine Käufe nicht wiederherstellen. Bitte versuche es erneut oder kontaktiere unseren Support.",
"upgrade.restored.title" : "Käufe wiederhergestellt.",
"upgrade.restored.message" : "Deine Käufe wurden wiederhergestellt.",
"upgrade.prompt.habit.limited.title" : "Mach ein Upgrade um mehr Gewohnheiten anzulegen!",
"upgrade.prompt.habit.limited.message" : "Habitify Premium läßt dich jederzeit eine 4., 5. oder sogar 100. Gewohnheit hinzufügen und auch mehrere Erinnerungen, um dir zu helfen alles zu erledigen bevor der Tag zu Ende ist.",
"upgrade.prompt.reminder.limited.title" : "Mach ein Upgrade um mehr Erinnerungen anzulegen!",
"upgrade.prompt.reminder.limited.message" : "Habitify Premium läßt dich mehrere Erinnerungen pro Gewohnheit hinzufügen und unendliche Gewohnheiten, damit du im Leben auf der richtigen Spur bleibst.",
"upgrade.prompt.export.data.title" : "Mach ein Upgrade um deine Daten zu exportieren!",
"upgrade.prompt.export.data.message" : "Habitify Premium läßt dich alle Gewohnheitsnamen, Status, Termine und Notizen exportieren für eine weitere (und bessere) Analyse.",
"upgrade.prompt.cta" : "Über Premium",
"upgrade.cta" : "Hol dir Premium",
"upgrade.monthly.price.with" : "{msg}/Monat",
"upgrade.restore.purchases" : "Käufe wiederherstellen",
"useractivities.completed.withName" : "{msg} erledigt",
"useractivities.skipped.withName" : "{msg} überspringen",
"useractivities.undone.withName" : "{msg} nicht erledigt",
"useractivities.view.current.time.of.day" : "Aktuelle Gewohnheiten",
"useractivities.view.all" : "Alle Gewohnheiten",
"useractivities.add.note.for" : "Notiz hinzufügen für {msg}",
"useractivities.view.progress" : "Fortschritt ansehen",
"useractivities.view.progress.of" : "{msg} anzeigen",
"plurals.day.per.week" : "0 Tag pro Woche | {num} Tag pro Woche | {num} Tage pro Woche",
"plurals.streak" : "0 Erfolgsserie | {num} Erfolgsserie | {num} Erfolgsserie",
"plurals.more" : "0 mehr | {num} mehr | {num} mehr",
"plurals.time.of.day.notification.group" : "Noch no Gewohnheit am {msg} | Noch {u1} Gewohnheit am {msg} | Noch {u1} Gewohnheiten am {msg}",
"plurals.interval.day" : "Jeden 0 Tag | Jeden {num} Tag | Alle {num} Tage",
"plurals.streak.day" : "0 Tag hintereinander! | {num} Tag hintereinander! | {num} Tage hintereinander!",
"plurals.month" : "0 Monat | {num} Monat | {num} Monate",
"plurals.passed.week" : "Letzte 0 Woche | Letzte {num} Woche | Letzte {num} Wochen",
"plurals.passed.days" : "Letzter 0 Tag | Letzter {num} Tag | Letzte {num} Tage",
"plurals.times" : "0 mal | {num} mal | {num} mal",
"plurals.streak.day.journal" : "0-Tagesserie | {num}-Tagesserie | {num}-Tage-Serie",
"plurals.habit.remaining" : "0 von 0 Gewohnheit abgeschlossen | {num} von {num1} Gewohnheit abgeschlossen | {num} von {num1} Gewohnheiten abgeschlossen",
"quote.widget.1.msg" : "First we make our habits, then our habits make us",
"quote.widget.1.auth" : "Charles C. Noble",
"quote.widget.2.msg" : "We are what we repeatedly do; excellence, then, is not an act but a habit",
"quote.widget.2.auth" : "Aristotle",
"quote.widget.3.msg" : "Character is habit long continued",
"quote.widget.3.auth" : "Greek",
"quote.widget.4.msg" : "There is no influence like the influence of habit",
"quote.widget.4.auth" : "Gilbert Parker",
"quote.widget.5.msg" : "Motivation is what gets you started. Habit is what keeps you going",
"quote.widget.5.auth" : "Jim Ryun",
"quote.widget.6.msg" : "Habit with it's iron sinews, clasps us and leads us day by day",
"quote.widget.6.auth" : "Alphonse de Lamartine",
"quote.widget.7.msg" : "Powerful indeed is the empire of habit",
"quote.widget.7.auth" : "Publilius Syrus",
"quote.widget.8.msg" : "Nothing is more powerful than custom or habit",
"quote.widget.8.auth" : "Ovid",
"quote.widget.9.msg" : "Winners make a habit of doing the things losers don't want to do",
"quote.widget.9.auth" : "Lucas Remmerswaal",
"quote.widget.10.msg" : "Great habits sharpen our thoughts and make us great",
"quote.widget.10.auth" : "Debasish Mridha",
"quote.widget.11.msg" : "You will never change your life until you change something you do daily",
"quote.widget.11.auth" : "John C. Maxwell",
"quote.widget.12.msg" : "Successful people are simply those with successful habits",
"quote.widget.12.auth" : "Brian Tracy",
"quote.widget.13.msg" : "Nothing is stronger than a habit",
"quote.widget.13.auth" : "Ovid",
"quote.widget.14.msg" : "Habit is the intersection of knowledge, skill and desire",
"quote.widget.14.auth" : "Stephen Covey",
"quote.widget.15.msg" : "Good habits are worth being fanatical about",
"quote.widget.15.auth" : "John Irving",
"quote.widget.16.msg" : "The best gifts anyone can give to themselve are good health habits",
"quote.widget.16.auth" : "Ellen J. Barrier",
"quote.widget.17.msg" : "Cultivate only the habits that you are willing should master you",
"quote.widget.17.auth" : "Elbert Hubbard",
"quote.widget.18.msg" : "The easier it is to do, the harder it is to change",
"quote.widget.18.auth" : "Eng’s Principle",
"quote.widget.19.msg" : "A year from now you may wish you had started today",
"quote.widget.19.auth" : "Karen Lamb",
"quote.widget.20.msg" : "Quality is not an act, it is a habit",
"quote.widget.20.auth" : "Aristotle",
"quote.widget.21.msg" : "Our character is basically a composite of our habits",
"quote.widget.21.auth" : "Stephen Covey",
"quote.widget.22.msg" : "A change in bad habits leads to a change in life",
"quote.widget.22.auth" : "Jenny Craig",
"quote.widget.23.msg" : "Chains of habit are too light to be felt until they are too heavy to be broken",
"quote.widget.23.auth" : "Warren Buffet",
"quote.widget.24.msg" : "Good habits formed at youth make all the difference",
"quote.widget.24.auth" : "Aristotle"
}