{
"authentication.error.network.title" : "Error de red",
"authentication.error.unknown.title" : "¡Oh, no! ¡Algo ha salido mal!",
"authentication.error.authentication.email.existed.message" : "¡Este email ya estás registrado! Por favor, pruebe con otra opción",
"authentication.error.authentication.wrong.email.format.message" : "Formato de email inválido",
"authentication.error.authentication.wrong.email.or.password.message" : "Dirección de email o contraseña inválidos",
"authentication.error.authentication.user.cancelled.facebook.message" : "Login cancelado",
"authentication.error.authentication.email.not.provided.facebook.message" : "¡Su dirección de email no ha sido proporcionada! Por favor, acceda de otra forma",
"authentication.error.forgot.password.email.doesnt.exist.message" : "¡Vaya! Este email no existe.",
"authentication.sync-data-description" : "¡Cree una cuenta para guardar y sincronizar todos sus hábitos!",
"authentication.connect-facebook" : "Conectar con Facebook",
"authentication.sign-up-email" : "Acceder con email",
"authentication.sign-in-email" : "Ya tengo una cuenta",
"authentication.skip" : "Omitir",
"authentication.sign.up" : "Crear una nueva cuenta",
"authentication.agree.term" : "Al suscribirse, acepta nuestra Política de Privacidad",
"authentication.forgot.password" : "¿Ha olvidado la contraseña?",
"authentication.forgot.password.title" : "Restablezca su contraseña",
"authentication.forgot.password.sent.message" : "¡Acabamos de enviarle un email! Haga clic en el enlace para restablecer su contraseña.",
"authentication.reset.password" : "Restablecer contraseña",
"authentication.sign.in.title" : "Registrarse a Habitify",
"authentication.sign.in.description" : "Iniciar sesión en tu cuenta para sincronizar con facilidad entre múltiples dispositivos. Si ya tienes una cuenta en Habitify iOS, iniciar sesión aquí.",
"authentication.sign.up.title" : "Crear cuenta nueva",
"authentication.sign.up.description" : "Crear una cuenta nueva o registrarse en Facebook para hacer una copia de seguridad de tus datos y sincronizar con facilidad entre múltiples dispositivos.",
"authentication.sign.in.with.facebook" : "Inicia Sesión con Facebook",
"authentication.sign.up.with.facebook" : "Regístrate con Facebook",
"authentication.sync.title" : "Sincronizar datos entre todos los aparatos",
"authentication.sync.mobile.instruction" : "Para sincronizar datos en Iphone, IPad y Apple Watch, ve a Ajustes e inicia sesión con la misma cuenta.",
"authentication.invalid.email.title" : "¿Correo electrónico incorrecto?",
"authentication.invalid.email.subtitle" : "{msg} no es un correo electrónico válido. Por favor, compruébalo ya que lo necesitarás para resetear tus contraseñas.",
"authentication.invalid.email.action.continue" : "Usar este email",
"common.retry" : "Inténtalo de nuevo",
"common.privacy.policy" : "Política de Privacidad",
"common.terms.of.use" : "Términos de Uso",
"common.contact.us" : "Contáctanos",
"common.fail" : "No cumplido",
"common.failed" : "Completado",
"common.undo.fail" : "Deshacer",
"common.skip" : "Omitir",
"common.skipped" : "Omitido",
"common.undo.skip" : "Deshacer omitir",
"common.complete" : "Completado",
"common.completed" : "¡Completado!",
"common.undo.complete" : "Deshacer completado",
"common.monthly" : "Mensualmente",
"common.yearly" : "Anualmente",
"common.discard" : "Descarte",
"common.archive" : "Archivar",
"common.unarchive" : "Desarchivar",
"common.archived" : "Archivado",
"common.delete" : "Borrar",
"common.later" : "Más tarde",
"common.content.default" : "Default",
"common.empty.habit.general" : "¡Todavía no hay hábitos aquí!",
"common.commit" : "Comprométase",
"common.cancel" : "Cancelar",
"common.today" : "Hoy",
"common.on" : "Encendido",
"common.off" : "Apagado",
"common.close" : "Cerrar",
"common.save" : "Guardar",
"common.edit" : "Editar",
"common.prev" : "Prev",
"common.next" : "Sig",
"common.back" : "Atrás",
"common.done" : "Hecho",
"common.select" : "Seleccionar",
"common.morning" : "Mañana",
"common.afternoon" : "Tarde",
"common.evening" : "Noche",
"common.anytime" : "En cualquier momento",
"common.all.habit" : "Todos los hábitos",
"common.current.streak" : "Racha actual",
"common.longest.streak" : "Racha más larga",
"common.completion.rate" : "Porcentaje de realización",
"common.total.completion" : "Realizaciones totales",
"common.all.time" : "Todas las fechas",
"common.weekends" : "Fines de semana",
"common.everyday" : "Todos los días",
"common.weekdays" : "Días entre semana",
"common.loading" : "Cargando",
"common.from.date" : "Desde {msg}",
"common.add.note" : "Añadir Nota",
"common.guest" : "Invitado",
"common.pseudocode.email.placeholder" : "ejemplo@gmail.com",
"common.subscribe" : "Suscríbase",
"common.full.name" : "Nombre",
"common.email" : "Correo electrónico",
"common.password" : "Contraseña",
"common.sign.up" : "Regístrate",
"common.sign.in" : "Inicia Sesión",
"common.show" : "Mostrar",
"common.hide" : "Ocultar",
"common.see.more" : "Ver más",
"common.not.enough.data" : "No hay suficiente información para establecer una clasificación",
"common.preferences" : "Preferencias",
"common.view.note" : "Ver Nota",
"common.view.notes" : "Ver notas",
"common.delete.selected" : "Borrar seleccionado",
"common.edit.note" : "Editar Nota",
"common.general" : "Général",
"common.account" : "Cuenta",
"common.custom" : "Personalizar",
"common.dismiss" : "Cancelar",
"common.create.habit" : "Crear hábito",
"common.this.week" : "Esta semana",
"common.last.week" : "Última semana",
"common.yesterday" : "Ayer",
"common.this.month" : "Este mes",
"common.last.month" : "Último mes",
"common.this.year" : "Este año",
"common.last.year" : "Último año",
"common.weekly" : "Semanal",
"common.average" : "Promedio",
"common.snooze" : "Posponer",
"common.camera" : "Cámara",
"common.other" : "Otro",
"common.photo.library" : "Galería de fotos",
"common.connect" : "Conectar",
"common.connected" : "Conectado",
"common.search" : "Buscar",
"common.ok" : "OK",
"common.passcode" : "Código",
"common.pause" : "Pausar",
"common.stop" : "Parar",
"common.resume" : "Reanudar",
"common.time.goal" : "Objetivo de tiempo",
"common.start.timer" : "Iniciar temporizador",
"common.time" : "Hora",
"common.daily.average" : "Promedio diario",
"common.weekly.average" : "Promedio semanal",
"common.monthly.average" : "Promedio mensual",
"common.time.of.day" : "Hora del día",
"common.start.of.day" : "Inicio del día",
"common.start.of.day.description" : "Esta es la hora a la que tu mañana empieza y tu tarde acaba.",
"common.more" : "Más",
"common.profile.settings" : "Configuración del perfil",
"common.resources" : "Recursos",
"common.tips.tricks" : "Consejos y trucos",
"common.tomorrow" : "Mañana",
"common.send" : "Enviar",
"common.save.changes" : "Guardar cambios",
"common.create.new.habit" : "Crear un nuevo hábito",
"common.save.habit" : "Guardar hábito",
"common.common.feature.restricted" : "Característica no habilitada en la demo",
"common.common.demo.info.title" : "Información de la demo",
"common.common.demo.info.message" : "Esta versión de Habitify se ha creado para fines de demostración.\nCualquier dato que introduzcas será borrado cuando salgas de la aplicación.",
"common.common.continue" : "Continuar",
"common.timer" : "Temporizador",
"common.time" : "Hora",
"common.minute.short" : "minutos",
"edithabit.screen.name" : "Editar hábito",
"edithabit.name" : "Nombre",
"edithabit.repeat" : "Repetir",
"edithabit.start.date" : "Fecha de inicio",
"edithabit.reminder" : "Recordatorio",
"edithabit.add.reminder" : "Añadir recordatorio",
"edithabit.daily" : "Diario",
"edithabit.weekly" : "Semanal",
"edithabit.interval" : "Intervalo",
"edithabit.delete.habit" : "Borrar este hábito",
"edithabit.delete.confirm.title" : "Confirmación",
"edithabit.delete.confirm.message" : "Todos los datos serán borrados permanentemente. ¿Aún así desea continuar?",
"edithabit.delete" : "Borrar",
"edithabit.archive.habit" : "Archivar este hábito",
"edithabit.unarchive.habit" : "Desarchivar este hábito",
"edithabit.time.of.day" : "Hora del día",
"edithabit.copy.to.clipboard" : "Copiar al portapapeles",
"edithabit.copied" : "Copiado",
"edithabit.xcallback.read.more" : "Leer más acerca de x-callback-url",
"edithabit.reminder.example" : "Ejemplo: 9:00",
"edithabit.suggested" : "Sugirió",
"edithabit.suggested.meditate" : "Meditar",
"edithabit.suggested.run" : "Correr",
"edithabit.suggested.core.training" : "Entrenamiento abdominal",
"edithabit.suggested.read.book" : "Leer un libro",
"edithabit.suggested.learn.language" : "Aprender un idioma",
"edithabit.suggested.cardio" : "Cardio",
"edithabit.suggested.yoga" : "Hacer yoga",
"edithabit.cancel.confirm.message" : "Se perderán todos los datos no guardados. ¿Deseas continuar?",
"edithabit.delete.reminder" : "Borrar recordatorio",
"edithabit.repeat.everyday" : "Repetir cada día",
"edithabit.repeat.weekdays" : "Repetir entre semana",
"edithabit.repeat.weekend" : "Repetir fines de semana",
"edithabit.repeat.specific.weekdays" : "Repetir cada {msg}",
"edithabit.time.goal.disabled" : "Sin objetivo de tiempo",
"edithabit.time.goal.enabled" : "Objetivo {msg}",
"edithabit.time.of.day.any.time" : "Hacer en cualquier momento",
"edithabit.time.of.day.specific" : "Hacer a las {msg}",
"edithabit.start.date.from" : "Desde {msg}",
"journal.empty.title" : "¡El comienzo de un tú mejor!",
"journal.empty.message" : "Los hábitos es como el dominó. Cuando empiezas, ¡el resto van solos!",
"journal.empty.secondary.see.other" : "Mira lo que están creando otros",
"journal.empty.in.specific.day.title" : "¡Vaya, un día sin hábitos",
"journal.empty.in.specific.day.message" : "¡Recarga energías y vuelve mañana!",
"journal.screen.name" : "Diario",
"journal.dismiss" : "Descartar",
"journal.hide.completed" : "Ocultar completados",
"journal.show.completed" : "Mostrar completados",
"journal.date.progress.empty.habit" : "Llena esta barra con tu primer hábito",
"journal.date.progress.no.habit.in.day" : "¡Día sin hábitos!",
"journal.date.progress.half" : "¡Estás a medio camino!",
"journal.date.progress.one.left" : "Sólo un hábito más. ¡Lucha!",
"journal.date.progress.one.completed" : "¡Se completaron todos los hábitos!",
"journal.habit.message.failed" : "¡Lo harás a la próxima!",
"journal.habit.message.skipped" : "Desliza a la izquierda para anotar tu motivo",
"journal.habit.message.empty.checkins" : "Complétalo hoy para empezar tu racha",
"journal.not.visible.habit.start.date" : "{msg1} será visible a partir de {msg2}",
"journal.not.visible.habit.regularly" : "{msg1} será visible a partir de {msg2}",
"journal.not.visible.habit.time.of.day" : "{msg1} no es visible durante {msg2}. Cambia a Todos los Hábitos para verlo.",
"journal.new.habit" : "Nuevo hábito",
"manage.active.count" : "Activos ({num})",
"manage.archived.count" : "Archivados ({num})",
"menubarapp.filter.by" : "Filtrar hábitos por:",
"menubarapp.quit" : "Cerrar Habitify Mini",
"newupgrade.title" : "Obtener Habitify Premium",
"newupgrade.package.popular" : "Popular",
"newupgrade.package.best.value" : "Recomendado",
"newupgrade.package.life-time" : "Para siempre",
"newupgrade.purchase.terms" : "Se realizará un cargo en tu cuenta de iTunes al cofirmar la compra. La suscripción se renovará automáticamente. Se te cobrará {msg} para la renovación 24 horas antes de que el período actual finalice. Puedes administrar y cancelar la suscripción en los ajustes de tu cuenta. Lee nuestra <a href='https://habitify.me/privacy-policy.html'>Política de Privacidad</a> y los <a href='https://habitify.me/terms-of-use.html'>Términos de Uso</a>",
"newupgrade.purchase.life.time.terms" : "El pago de {msg} se te cargará a tu cuenta de iTunes al confirmar la compra. Este es un pago único. Una vez comprado, tendrás la cuenta Premium para siempre, en todas las plataformas, sin tener que pagar nada más.",
"newupgrade.benefits.unlimited.habit.title" : "Hábitos ilimitados",
"newupgrade.benefits.unlimited.habit.description" : "Conviértete en una persona equilibrada creando buenos hábitos en más aspectos de tu vida.",
"newupgrade.benefits.skip.title" : "Sáltate tus hábitos",
"newupgrade.benefits.skip.description" : "Protege esa deslumbrante y motivante racha de duro trabajo \"saltándote\" tus hábitos.",
"newupgrade.benefits.archive.title" : "Archivar hábitos",
"newupgrade.benefits.archive.description" : "Mantén tu lista de hábitos limpia y clara archivando hábitos no deseados.",
"newupgrade.benefits.yearly.calendar.title" : "Calendario anual",
"newupgrade.benefits.yearly.calendar.description" : "Ten una vista general de tu bienestar y rendimiento viendo todo el año de golpe.",
"newupgrade.benefits.dark.mode.title" : "Modo oscuro",
"newupgrade.benefits.dark.mode.description" : "Descansa y cuida tu vista cuando compruebes tu progreso de noche.",
"newupgrade.benefits.export.data.title" : "Exportar datos",
"newupgrade.benefits.export.data.description" : "Descúbrete a ti mismo exportando tus datos a otras herramientas de análisis.",
"newupgrade.benefits.privacy.lock.title" : "Contraseña",
"newupgrade.benefits.privacy.lock.description" : "Asegura tus datos con contraseña, TouchID o FaceID.",
"newupgrade.benefits.notes.title" : "Notas en los hábitos",
"newupgrade.benefits.notes.description" : "Escribe rápidamente tus logros y pensamientos con notas.",
"newupgrade.benefits.unlimited.reminder.title" : "Recordatorios ilimitados",
"newupgrade.benefits.unlimited.reminder.description" : "Sé continuamente recordado para realizar esos hábitos costosos con recordatorios ilimitados.",
"notification.snoozed.for" : "Pospuesto {msg}",
"notification.action.change.snooze.to" : "Posponer {msg}",
"notification.daily.briefing.morning.default.title" : "¡Buenos días, Habitify-er!",
"notification.daily.briefing.morning.default.message" : "Echa un vistazo a tus hábitos para machacarlos de uno en uno.",
"notification.daily.briefing.morning.title" : "Resumen de hoy",
"notification.daily.briefing.morning.single" : "Tu único hábito de hoy es {msg1} en {msg2}.",
"notification.daily.briefing.morning.no.habit.in.day" : "¡Tienes un día libre de hábitos! ¡Disfruta ese tiempo para ti!",
"notification.daily.briefing.morning.empty.habit.day.one.title" : "¡Nuestro primer hábito para ti!",
"notification.daily.briefing.morning.empty.habit.day.one.message" : "Meditar mejora la atención y conciencia plena para un día más productivo. ¡Hagámoslo!",
"notification.daily.briefing.morning.empty.habit.day.two.title" : "¡Nuestro segundo hábito para ti!",
"notification.daily.briefing.morning.empty.habit.day.two.message" : "Los ejercicios matutinos llevan a una mente más clara y un sueño más profundo. Creemos un hábito hoy.",
"notification.daily.briefing.morning.empty.habit.fallback.title" : "¡Hora de tu rutina matutina!",
"notification.daily.briefing.morning.empty.habit.fallback.message" : "Una buena rutina matutina te hace sentir eficiente durate el día. ¡Creemos la primera!",
"notification.daily.briefing.evening.default.title" : "¿Cómo va tu día, Habitify-er?",
"notification.daily.briefing.evening.default.message" : "Toma notas de tus logros deslizando a la izquierda los hábitos. ¡Te motivarán al día siguiente!",
"notification.daily.briefing.evening.title" : "Resumen de hoy",
"notification.daily.briefing.evening.completed.all" : "¡Has completado todos los hábitos de hoy! ¡Hurra!",
"notification.daily.briefing.evening.completed.in.progress.2" : "El resumen de hoy está listo. Echa un vistazo a como estás rindiendo",
"notification.daily.briefing.evening.empty.habit.day.one.title" : "¡Hora de los hábitos de la tarde!",
"notification.daily.briefing.evening.empty.habit.day.one.message" : "Meditar y leer libros consiguen un sueño más profundo. Pruébalos tan solo 5 minutos.",
"notification.daily.briefing.evening.empty.habit.day.two.title" : "¡Hora de los hábitos de la tarde!",
"notification.daily.briefing.evening.empty.habit.day.two.message" : "La gente exitosa suele escribir diarios para prepararse para el siguiente día. Deja que eso te ayude a ti también.",
"notification.daily.briefing.evening.empty.habit.fallback.title" : "¡Hora de tu rutina de la tarde!",
"notification.daily.briefing.evening.empty.habit.fallback.message" : "Medita. Relájate. Escribe. Lee un libro. ¡Forma un nuevo hábito que te guste!",
"notification.daily.briefing.evening.break.record" : "¡Has alcanzado un nuevo récord personal hoy, échale un vistazo!",
"notification.daily.briefing.evening.weekly.single.habit.completed" : "Has completado el objetivo de {msg} de esta semana. ¡Chachi!",
"notification.habit.one.streak" : "¡Si pudiste hacer este hábito una vez, podrás dos!",
"notification.habit.zero.streak.empty.checkin" : "Este es un hábito nuevo. ¡Hazlo para conseguir tu primera racha!",
"notification.habit.last.failed" : "La útlima vez fallaste en este hábito. ¡Mejor que lo hagas para volver a buen puerto!",
"notification.habit.last.skipped" : "La útlima vez fallaste en este hábito. ¡Mejor que lo hagas para volver a tu racha ganadora!",
"notification.habit.last.none" : "La última vez que no completaste este hábito. ¡Hazlo para seguir con buen pie!",
"notification.timer.running.title" : "Temporizador en marcha",
"notification.timer.running.body" : "La sesión %1@ acabará a las %2@",
"notification.timer.completed.title" : "Sesión completada",
"notification.timer.completed.body" : "Tu sesión %1@ para %2@ se ha completado. Pulsa para guardar.",
"notification.timer.cancelled.title" : "Sesión descartada",
"notification.timer.cancelled.body" : "Tu sesión para {msg} se ha descartado porque has cerrado Habitify.",
"onboarding.introduce.title" : "¡Bienvenido a Habitify!",
"onboarding.introduce.description" : "Empiece a adoptar hábitos estupendos para conseguir la rutina diaria perfecta con la que siempre soñó.",
"onboarding.step.easily-access.title" : "Fácil acceso",
"onboarding.step.easily-access.description" : "Puede acceder a Habitificador sin esfuerzo \na través de su iPhone, iPad, Apple Watch \ne incluso su widget Hoy.",
"onboarding.action.get-started" : "Empezar",
"onboarding.introduce.continue" : "Iniciar Tour",
"onboarding.select.habit" : "Elige un hábito para empezar",
"onboarding.select.habit.assurance" : "No te preocupes, puedes cambiarlo más tarde",
"onboarding.actions.action1" : "¡Buena elección! Pulsa el tick para marcar {msg} como completado",
"onboarding.actions.action2" : "¡Perfecto! ¿Quieres ver tu progreso? Toca el nombre del hábito",
"onboarding.stats.title.compact.height" : "¡Genial! Desliza hacia abajo para ver más gráficos",
"onboarding.stats.title.regular.height" : "¡Perfecto! Aquí es donde ves lo bien que te ha ido",
"onboarding.stats.finish" : "Finalizar Tour",
"onboarding.tips.title" : "¡Bien hecho!",
"onboarding.tips.description" : "¡Unos cuantos consejos para que uses Habitify al máximo!",
"onboarding.tips.skip" : "Omitir este paso",
"onboarding.tips.swipe" : "Arrastre para ver más",
"onboarding.tips.sync.title" : "Crea una cuenta para mantener tus datos sincronizados incluso tras restablecer o cambiar de dispositivo",
"onboarding.tips.sync.action" : "Regístrate",
"onboarding.tips.notification.title" : "No se olvide nunca de marcar un hábito pendiente con un recordatorio",
"onboarding.tips.notification.action" : "Habilite las notificaciones",
"onboarding.tips.widget.title" : "Date un pequeño empujón con las frases motivadoras en el Widget de Hoy",
"onboarding.welcome.step1.title" : "Bienvenido a Habitify",
"onboarding.welcome.step1.subtitle" : "Creemos que el mundo se embellece cuando las personas embellecen. Sí, nos referimos a tí.",
"onboarding.welcome.step2.title" : "Crea hábitos fijos",
"onboarding.welcome.step2.subtitle" : "Crea hábitos recurrentes y motívate cada vez que mejoras tu racha.",
"onboarding.welcome.step3.title" : "Libera tu mente",
"onboarding.welcome.step3.subtitle" : "Desconecta, nosotros te recordaremos todo con resúmenes diarios y recordatorios.",
"onboarding.welcome.step4.title" : "Mejora cada día",
"onboarding.welcome.step4.subtitle" : "Haz un seguimiento de tus días perdidos y recupéralos más tarde.",
"onboarding.welcome.sign.in" : "¿Ya tienes una cuenta? {msg1}",
"onboarding.introduce.skip" : "Omitir Tour",
"onboarding.tips.action" : "Cree su primer hábito",
"onboarding.pick.habit.title" : "Elige un hábito",
"onboarding.pick.habit.subtitle" : "4 de cada 10 personas tienen Leer un Libro como su primer hábito.",
"onboarding.pick.habit.not.found" : "Hábito personalizado",
"onboarding.pick.frequency.title" : "Elige una frecuencia",
"onboarding.pick.frequency.subtitle" : "Empezar con 2 o 3 veces por semana incrementa tu éxito considerablemente.",
"onboarding.pick.reminder.title" : "Elige una hora",
"onboarding.pick.reminder.subtitle" : "Te recordaremos que hagas el hábito a la hora que elijas.",
"onboarding.review.habit" : "Comprueba tu hábito",
"onboarding.habit.review.title" : "Comprobar hábito",
"onboarding.habit.review.subtitle" : "Vas a {msg1} {msg2} a las{msg3}. Pulsa cualquier opción debajo para cambiarlo.",
"onboarding.save.habit" : "Guardar este hábito",
"onboarding.save.habit.title" : "Guarda tu hábito",
"onboarding.save.habit.subtitle" : "Crea una cuenta para guardar tus hábitos. Todo podrá recuperarse con un click.",
"onboarding.create.account" : "Crear una cuenta",
"onboarding.create.later" : "Hacer más tarde",
"privacylock.enter.current.passcode" : "Introduce la Contraseña Actual",
"privacylock.enter.new.passcode" : "Introduce la Nueva Contraseña",
"privacylock.re.enter.new.passcode" : "Introduce Nuevamente la Nueva Contraseña",
"privacylock.enter.passcode" : "Introduce la Contraseña",
"privacylock.biometrics.fallback" : "Introduce la Contraseña de Habitify",
"privacylock.lock.instruction" : "Huella o contraseña",
"privacylock.fingerprint.unlock" : "Desbloquear con huella",
"privacylock.cancel.setup.confirmation" : "Necesitar una contraseña para activar el bloqueo. ¿Quieres cancelar?",
"privacylock.fingerprint.unlock.error.message" : "No se ha reconocido tu huella. Vuélvelo a intentar.",
"privacylock.passcode.unlock.error.message" : "La contraseña introducida es incorrecta. Vuélvelo a intentar.",
"progress.empty.title" : "Tu progreso en números",
"progress.empty.message" : "Una mente libre y un cuerpo sano empiezan con un pequeño hábito.",
"progress.empty.secondary.see.other" : "Ver demo del progreso",
"progress.most.popular.title" : "Más populares",
"progress.most.popular.subtitle" : "Estos hábitos son populares por algo. ¡Han cambiado vidas!",
"progress.preview.checkin.time.title" : "Hora completado",
"progress.preview.checkin.time.subtitle" : "Encuentra horas libres para llenarlas con tus hábitos más difíciles",
"progress.preview.weekly.progress.title" : "Objetivo del hábito",
"progress.preview.weekly.progress.subtitle" : "Echa un vistazo a tus objetivos diarios y semanales para seguir encarrilado",
"progress.preview.completion.rate.title" : "Porcentaje de realización",
"progress.preview.completion.rate.subtitle" : "Monitorea tu rendimiento por semana o por mes",
"progress.preview.daily.performance.title" : "Rendimiento diario",
"progress.preview.daily.performance.subtitle" : "Encuentra tu día menos activo para centrarte en él",
"progress.preview.yearly.graph.title" : "Comparativa de hábitos",
"progress.preview.yearly.graph.subtitle" : "Compara y contrasta tus hábitos con vistas mensuales y anuales",
"progress.overall" : "Resumen",
"progress.notes" : "Notas",
"progress.based.on.completion.rate" : "En base al porcentaje de realización",
"progress.screen.name" : "Progreso",
"progress.view.all" : "Ver todo",
"progress.empty.habit.title" : "Aún no tienes ningún hábito...",
"progress.empty.habit.message" : "¡Crea el primero para ver gráficas con datos!",
"progress.checkin.time" : "Hora completado",
"progress.today.habits" : "Hábitos de hoy",
"progress.streaks" : "Rachas",
"progress.daily.performance" : "Rendimiento diario",
"progress.weekly.goal" : "Meta semanal",
"progress.empty.note.title" : "¡Aún no hay notas!",
"progress.empty.note.message" : "Puedes usar palabras como \"hoy\", \"ayer\" o \"1 de Marzo\" para añadir una nota rápidamente ese día.",
"progress.empty.note.placeholder" : "Prueba empezando con \"ayer\"..",
"progress.empty.note.web.message" : "Solo escribe y envíalo como cuando chateas",
"progress.empty.note.web.message" : "Solo escribe y envíalo como cuando chateas",
"progress.siri.shortcut" : "Atajo de Siri",
"progress.siri.shortcut.message" : "Marca rápidamente este hábito como completado con tu voz.",
"progress.weekly.goal.reached" : "¡Has alcanzado tu meta semanal!",
"progress.weekly.goal.not.started" : "Empezar es una victoria.",
"progress.weekly.goal.half" : "¡Ya casi está! ¡Vamos!",
"progress.streak.level.message.1" : "Empieza hoy para conseguir tu primera racha",
"progress.streak.level.message.2" : "Usa “omitir” para proteger tu racha",
"progress.streak.level.message.3" : "¡Vas genial!",
"progress.streak.level.message.4" : "¡Solo te quedan {num} días!",
"progress.streak.level.message.5" : "Pequeños pasos llevan a grandes victorias",
"progress.streak.level.message.6" : "¡Eres imparable!",
"progress.streak.level.message.7" : "¿Ves? ¡Tú puedes!",
"progress.streak.level.message.8" : "¡Has superado la primera semana! ¡Enhorabuena!",
"progress.streak.level.message.9" : "Hace {num} días llevabas 0 días.",
"progress.streak.level.message.10" : "El camino ha sido largo. ¡No te rindas!",
"progress.streak.level.message.11" : "Gracias a tu esfuerzo has llegado muy lejos.",
"progress.streak.level.message.12" : "¡Vamos, vamos, vamos!",
"progress.streak.level.message.13" : "Deberías estar orgulloso de ti mismo.",
"progress.streak.level.message.14" : "¡Has llegado al ecuador, sigue así!",
"progress.streak.level.message.15" : "¡{num} más para dominar este hábito!",
"progress.streak.level.message.16" : "¡Queda menos de una semana!",
"progress.streak.level.message.17" : "¡Mira lo lejos que has llegado!",
"progress.streak.level.message.18" : "¡Esto es increíble!!",
"progress.streak.level.message.19" : "¿Cómo has llegado tan lejos?",
"progress.streak.level.message.20" : "Solo. Queda. Un. Día.",
"progress.streak.level.message.21" : "¡Has conseguido adquirir este hábito!",
"progress.streak.level.message.22" : "¡Puedes hacer esto a ciegas!",
"progress.streak.level.message.23" : "¡9 semanas! ¿Te lo puedes creer?",
"progress.streak.level.message.24" : "¡Llevas 3 meses haciendo esto!",
"progress.today.message.empty.1" : "Lo más difícil es poner la primera piedra.",
"progress.today.message.empty.2" : "Te retamos a completar un hábito. ¿Te apuntas?",
"progress.today.message.one.left.1" : "Solo. Uno. Más. ¡Dale caña!",
"progress.today.message.one.left.2" : "No hay montañas lo suficientemente altas. ¡Tú puedes!",
"progress.today.message.completed.1" : "¡Excelente! ¡Enorgullécete de ti mismo",
"progress.today.message.completed.2" : "¡Date un gran aplauso!",
"progress.today.message.completed.3" : "¡Has completado todos los hábitos de hoy!",
"progress.today.message.one" : "Fácil, ¿verdad? ¿Qué te parece otro?",
"progress.today.message.two.half.1" : "¡Eres imparable!",
"progress.today.message.two.half.2" : "Progresar lento > no progresar.",
"progress.today.message.two.half.3" : "¡Eres magnífico!",
"progress.today.message.two.half.4" : "¡Lo estás dando todo hoy! ¡Sigue así!",
"progress.today.message.two.half.5" : "Si no te encuentras bien, usa “Saltar” para no perder tu racha.",
"progress.today.message.two.half.6" : "”Lo que no te mata te hace más fuerte”",
"progress.today.message.half.1" : "Has hecho la mitad. El resto es pan comido.",
"progress.today.message.half.completed.1" : "Completar un hábito es cumplir una promesa contigo mismo.",
"progress.today.message.half.completed.2" : "Mírate en el espejo. ¡Esa persona merece respeto!",
"progress.today.message.half.completed.3" : "Estrella del día: ¡tú!",
"progress.today.message.half.completed.4" : "¡Solo unos pocos más para completar la lista!",
"progress.today.message.half.completed.5" : "\"El destino de un guerrero es mayor que sus heridas\" - B. Burchard",
"progress.in.app.review.title" : "¿Disfrutando Habitify?",
"progress.in.app.review.description" : "¿Cómo valorarías tu experiencia con la app hasta ahora?",
"progress.in.app.review.one.star" : "Parece que tenemos que mejorar mucho. ¿Te importaría compartirnos tus comentarios?",
"progress.in.app.review.three.star" : "¡Gracias por la calificación! ¿Qué podemos hacer para ganarnos las otras 2 estrellas?",
"progress.in.app.review.four.star" : "¡Excelente! Nos alegra que te guste. ¿Te importaría escribir una reseña para apoyar a los desarrolladores?",
"progress.in.app.review.five.star" : "¡Genial! ¿Te importaría escribir una reseña para ayudar a otros a encontrar la aplicación más fácilmente?",
"progress.in.app.review.action.write.review" : "Escribir reseña",
"progress.in.app.review.action.send.feedback" : "Enviar comentarios",
"settings.icloud.connected" : "Sincronizado con tu cuenta de iCloud",
"settings.not.synced" : "Tus datos no están sincronizados",
"settings.change.name" : "Cambiar nombre",
"settings.translate" : "Traducir Habitify",
"settings.change.name.placeholder" : "Introduce el nuevo nombre",
"settings.knowledge.base" : "Sé un pro en Habitify",
"settings.changelogs" : "Lista de cambios",
"settings.community" : "Únete a la comunidad",
"settings.app.badge" : "Insignia de la aplicación",
"settings.app.badge.time.of.day.explaination" : "La placa solo muestra hábitos de un periodo específico del día (mañana, tarde, noche)",
"settings.app.badge.all.explaination" : "La placa muestra todos los hábitos del día",
"settings.app.badge.time.of.day" : "Según la hora del día",
"settings.app.badge.all.habit" : "Todos los hábitos obligatorios",
"settings.sounds" : "Sonidos",
"settings.sounds.reminder" : "Sonido del recordatorio",
"settings.sounds.completion" : "Sonido al completar",
"settings.subscribe.newsletter" : "Suscríbete a nuestro boletín",
"settings.export.data" : "Exportar datos",
"settings.reorder.habit" : "Gestionar hábitos",
"settings.in.app.sound" : "Sonidos de la app",
"settings.notifications" : "Notificaciones",
"settings.upgrade" : "Actualizar a Premium",
"settings.account" : "Cuenta",
"settings.follow.twitter" : "Síguenos en Twitter",
"settings.follow.instagram" : "Síguenos en Instagram",
"settings.screen.name" : "Configuración",
"settings.first.day.of.week" : "Primer día de la semana",
"settings.privacy.lock" : "Cierre de privacidad",
"settings.daily.reminder" : "Recordatorio diario",
"settings.support" : "Atención al cliente",
"settings.rate.on.appstore" : "¡Valórenos en la App Store!",
"settings.spread.the.word" : "Comparte la app",
"settings.acknowledgements" : "Reconocimientos",
"settings.sign.out" : "Salir",
"settings.reset.habit.data" : "Restablecer datos de hábitos",
"settings.reset.habit.confirmation" : "Sólo el progreso y las notas serán permanentemente eliminadas, los hábitos no. ¿Quieres continuar?",
"settings.reset.habit.completed" : "Todos los datos de los hábitos han sido restablecidos.",
"settings.delete.all.habit.data" : "Borrar todos los datos",
"settings.delete.all.habit.confirmation" : "Todos los hábitos, progreso y notas será permanentemente eliminado. ¿Quieres continuar?",
"settings.delete.all.habit.completed" : "Todos los datos de los hábitos se han restablecido.",
"settings.sign.up.message" : "Vincular con correo o Facebook mantendrá una copia segura de tus datos en nuestro servidor.",
"settings.sign.up" : "Crear cuenta",
"settings.sign.in" : "Entrar con cuenta existente",
"settings.account.linking" : "Vínculos de la cuenta",
"settings.account.message" : "Vincular con correo o Facebook mantendrá una copia segura de tus datos en nuestro servidor.",
"settings.unlink.facebook.confirmation" : "Ya no podrás iniciar sesión con Facebook. ¿Quieres continuar?",
"settings.unlink.facebook.action" : "Desvincular de Facebook",
"settings.unlink.email.confirmation" : "Ya no podrás entrar con este correo. ¿Quieres continuar?",
"settings.unlink.email.action" : "Desvincular",
"settings.status.free" : "Cuenta gratuita",
"settings.status.premium.life.time" : "Premium (para siempre)",
"settings.status.premium.expire.at" : "Premium ({msg})",
"settings.snooze.duration" : "Duración del posponer",
"settings.notification.sound" : "Sonido de notificación",
"settings.daily.breifing" : "Resumen diario",
"settings.dailf.briefing.morning.description" : "Te notificaremos cuántos hábitos tienes y en qué hábito concentrarse a las 7 de la mañana cada día.",
"settings.dailf.briefing.evening.description" : "Resumiremos el progreso del día en cada registro.",
"settings.data.management" : "Gestionar datos",
"settings.no.email.provided" : "No se ha proporcionado un email",
"settings.subscription.info" : "Información de suscripción",
"settings.download.mac.app" : "Descargar Habitify para Mac",
"settings.privacy.lock.enabled" : "Cerradura de seguridad activada",
"settings.unlock.with" : "Desbloquea con {msg}",
"settings.change.passcode" : "Cambiar contraseña",
"settings.dark.mode" : "Modo Oscuro",
"settings.dark.mode.preview.title" : "Solo Vista Previa",
"settings.dark.mode.preview.message" : "El Modo Oscuro solo está disponible para Usuarios Premium, Habitify se restablecerá a Luz en el próximo lanzamiento de la aplicación. Conviértete en un Miembro Premium para mantenerlo como predeterminado.",
"settings.dark.mode.upgrade.cta" : "Sobre Pro",
"settings.newsletter.request.title" : "Sea el primero en enterarse",
"settings.newsletter.request.subtitle" : "Suscríbase a nuestra lista de correo para recibir actualizaciones en la bandeja de entrada de su email...",
"settings.newsletter.request.later" : "Recordármelo más tarde",
"settings.newsletter.acknowledment.title" : "Gracias",
"settings.newsletter.acknowledment.subtitle" : "Ha sido añadido a nuestra lista de correo y estará entre los primeros en enterarse de las nuevas actualizaciones y ofertas especiales.",
"settings.no.account.connected" : "Sin conectar una cuenta",
"settings.account.status.free" : "Estado: gratis",
"settings.account.status.pro.lifetime" : "Estado: Pro (para siempre)",
"settings.account.status.valid.until" : "Estado: Pro (válido hasta el {msg})",
"settings.social.share.content" : "¡Habitificador es estupendo para llegar a ser más productivo y estar al tanto de sus hábitos diarios! ¡Merece la pena descargarlo!",
"settings.sign.out.confirmation" : "¿Estás seguro de que quieres cerrar sesión?",
"settings.fingerprint.not.setup" : "Para activar esta función, añade primero tu huella en los ajustes del teléfono.",
"settings.general" : "General",
"settings.app.settings" : "Configuración de la aplicación",
"settings.language" : "Idioma",
"settings.payment" : "Pago",
"settings.new.password" : "Contraseña nueva",
"settings.re.enter.new.password" : "Repetir contraseña nueva",
"settings.current.password" : "Contraseña actual",
"settings.current.plan" : "Su plan actual",
"settings.change.plan" : "Cambiar de plan",
"settings.cancel.subscription" : "Cancelar suscripción",
"timegoal.picker.benefit" : "Escoge un objetivo para {msg}. Luego usa un temporizador para llevar cuenta del tiempo que le has dedicado.",
"timegoal.save.goal" : "Guardar objetivo",
"timegoal.session.discard.title" : "Descartar sesión",
"timegoal.session.discard.message" : "No se guardará el progreso actual de esta sesión.",
"timegoal.session.completed" : "Sesión completada",
"timegoal.session.completed.message" : "%1@ han sido registrados para %2@.",
"timegoal.log.session" : "Guardar sesión",
"timegoal.view.sessions" : "Ver sesiones",
"timegoal.completion.time" : "Tiempo de finalización",
"timegoal.duration" : "Duración",
"timegoal.duration.placeholder" : "Introducir valor",
"timegoal.time.spent" : "Tiempo usado",
"timegoal.discarded.session" : "Sesiones descartadas",
"timegoal.break.down" : "Análisis",
"timegoal.setup.suggestion.message" : "Crea un objetivo para definir cuánto tiempo quieres usar en este hábito.",
"timegoal.setup.suggestion.action" : "Crear objetivo",
"timegoal.longest.session" : "Sesión más larga",
"timegoal.custom.time.goal" : "Objetivo de tiempo personalizado",
"timegoal.setup.benefit" : "Los objetivos de tiempo te ayudan a controlar el tiempo empleado en cada hábito. Puedes empezar el temporizador desde las notificaciones o desde la pantalla del diario.",
"timegoal.no.required" : "Hoy estás libre",
"timegoal.start.new.timer" : "Iniciar nuevo temporizador",
"timegoal.empty.session" : "Sin sesiones guardadas",
"timegoal.timer.duration.instruction" : "Arrastra el indicador de debajo para seleccionar cuánto durará la sesión para {msg}.",
"upgrade.screen.name" : "Actualizar",
"upgrade.cannot-connect" : "No se puede conectar a la tienda de iTunes",
"upgrade.restore.failed.title" : "Restaurar compras falló",
"upgrade.restore.failed.message" : "No podemos restaurar tus compras previas. Por favor inténtalo de nuevo o contacta con soporte.",
"upgrade.restored.title" : "Compras restauradas",
"upgrade.restored.message" : "Tus productos anteriormente comprados han sido restaurados.",
"upgrade.prompt.habit.limited.title" : "¡Actualicemos para más hábitos!",
"upgrade.prompt.habit.limited.message" : "Habitify Premium te permite añadir el cuarto, quinto o centésimo hábito en cualquier momento, además de múltiples recordatorios para ayudarte a alcanzar tus objetivos antes de que acabe el día.",
"upgrade.prompt.reminder.limited.title" : "¡Actualicemos para más recordatorios!",
"upgrade.prompt.reminder.limited.message" : "Habitify Premium te permite añadir múltiples recordatorios para cada hábito, además de hábitos ilimitados para no olvidarte nada.",
"upgrade.prompt.export.data.title" : "¡Actualicemos para exportar tus datos!",
"upgrade.prompt.export.data.message" : "Habitify Premium te permite exportar los nombres, estados, fechas y notas de todos tus hábitos para un mayor (y mejor) análisis.",
"upgrade.prompt.cta" : "Sobre Pro",
"upgrade.cta" : "Mejorar a Pro",
"upgrade.monthly.price.with" : "{msg}/mes",
"upgrade.restore.purchases" : "Restaurar compras",
"useractivities.completed.withName" : "{msg} completado",
"useractivities.skipped.withName" : "{msg} omitido",
"useractivities.undone.withName" : "{msg} sin hacer",
"useractivities.view.current.time.of.day" : "Hábitos actuales",
"useractivities.view.all" : "Todos mis hábitos",
"useractivities.add.note.for" : "Añade una nota para {msg}",
"useractivities.view.progress" : "Ver progreso",
"useractivities.view.progress.of" : "Ver {msg}",
"plurals.day.per.week" : "0 día por semana | {num} día por semana | {num} días por semana",
"plurals.streak" : "Racha 0 día | Racha {num} día | Racha {num} días",
"plurals.more" : "0 más | {num} más | {num} más",
"plurals.time.of.day.notification.group" : "no hábito más en {msg} | {u1} hábito más en {msg} | {u1} hábitos más en {msg}",
"plurals.interval.day" : "Cada 0 día | Cada {num} día | Cada {num} días",
"plurals.streak.day" : "¡Racha de 0 día! | ¡Racha de {num} día! | ¡Racha de {num} días!",
"plurals.month" : "0 mes | {num} mes | {num} meses",
"plurals.passed.week" : "Últimas 0 semanas | Últimas {num} semanas | Últimas {num} semanas",
"plurals.passed.days" : "Último día | Último día | Últimos {num} días",
"plurals.times" : "0 vez | {num} vez | {num} veces",
"plurals.streak.day.journal" : "Racha de 0 día | Racha de {num} día | Racha de {num} días",
"plurals.habit.remaining" : "0 de 0 hábito completado | {num} de {num1} hábito completado | {num} de {num1} hábitos completados",
"quote.widget.1.msg" : "First we make our habits, then our habits make us",
"quote.widget.1.auth" : "Charles C. Noble",
"quote.widget.2.msg" : "We are what we repeatedly do; excellence, then, is not an act but a habit",
"quote.widget.2.auth" : "Aristotle",
"quote.widget.3.msg" : "Character is habit long continued",
"quote.widget.3.auth" : "Greek",
"quote.widget.4.msg" : "There is no influence like the influence of habit",
"quote.widget.4.auth" : "Gilbert Parker",
"quote.widget.5.msg" : "Motivation is what gets you started. Habit is what keeps you going",
"quote.widget.5.auth" : "Jim Ryun",
"quote.widget.6.msg" : "Habit with it's iron sinews, clasps us and leads us day by day",
"quote.widget.6.auth" : "Alphonse de Lamartine",
"quote.widget.7.msg" : "Powerful indeed is the empire of habit",
"quote.widget.7.auth" : "Publilius Syrus",
"quote.widget.8.msg" : "Nothing is more powerful than custom or habit",
"quote.widget.8.auth" : "Ovid",
"quote.widget.9.msg" : "Winners make a habit of doing the things losers don't want to do",
"quote.widget.9.auth" : "Lucas Remmerswaal",
"quote.widget.10.msg" : "Great habits sharpen our thoughts and make us great",
"quote.widget.10.auth" : "Debasish Mridha",
"quote.widget.11.msg" : "You will never change your life until you change something you do daily",
"quote.widget.11.auth" : "John C. Maxwell",
"quote.widget.12.msg" : "Successful people are simply those with successful habits",
"quote.widget.12.auth" : "Brian Tracy",
"quote.widget.13.msg" : "Nothing is stronger than a habit",
"quote.widget.13.auth" : "Ovid",
"quote.widget.14.msg" : "Habit is the intersection of knowledge, skill and desire",
"quote.widget.14.auth" : "Stephen Covey",
"quote.widget.15.msg" : "Good habits are worth being fanatical about",
"quote.widget.15.auth" : "John Irving",
"quote.widget.16.msg" : "The best gifts anyone can give to themselve are good health habits",
"quote.widget.16.auth" : "Ellen J. Barrier",
"quote.widget.17.msg" : "Cultivate only the habits that you are willing should master you",
"quote.widget.17.auth" : "Elbert Hubbard",
"quote.widget.18.msg" : "The easier it is to do, the harder it is to change",
"quote.widget.18.auth" : "Eng’s Principle",
"quote.widget.19.msg" : "A year from now you may wish you had started today",
"quote.widget.19.auth" : "Karen Lamb",
"quote.widget.20.msg" : "Quality is not an act, it is a habit",
"quote.widget.20.auth" : "Aristotle",
"quote.widget.21.msg" : "Our character is basically a composite of our habits",
"quote.widget.21.auth" : "Stephen Covey",
"quote.widget.22.msg" : "A change in bad habits leads to a change in life",
"quote.widget.22.auth" : "Jenny Craig",
"quote.widget.23.msg" : "Chains of habit are too light to be felt until they are too heavy to be broken",
"quote.widget.23.auth" : "Warren Buffet",
"quote.widget.24.msg" : "Good habits formed at youth make all the difference",
"quote.widget.24.auth" : "Aristotle"
}