{
"authentication.error.network.title" : "Eroare de Rețea",
"authentication.error.unknown.title" : "Oh nu! Ceva nu a mers bine!",
"authentication.error.authentication.email.existed.message" : "Acest e-mail este deja înregistrată! Vă rugăm să încercaţi o altă opţiune",
"authentication.error.authentication.wrong.email.format.message" : "Format de email invalid",
"authentication.error.authentication.wrong.email.or.password.message" : "Adresă de e-mail sau parolă invalidă",
"authentication.error.authentication.user.cancelled.facebook.message" : "Conectare Anulată",
"authentication.error.authentication.email.not.provided.facebook.message" : "Adresa ta de email nu este oferit! Vă rugăm conectaţi-vă cu un mod diferit",
"authentication.error.forgot.password.email.doesnt.exist.message" : "Ups! Nu există acest e-mail.",
"authentication.sync-data-description" : "Creaţi un cont pentru a salva şi sincroniza toate obiceiurile tale!",
"authentication.connect-facebook" : "Conectați-vă cu Facebook",
"authentication.sign-up-email" : "Înregistrează-te cu E-mail",
"authentication.sign-in-email" : "Am deja un cont",
"authentication.skip" : "Treci peste",
"authentication.sign.up" : "Crează un Cont",
"authentication.agree.term" : "Prin înregistrare, acceptaţi Politica de Confidenţialitate",
"authentication.forgot.password" : "Parolă Uitată?",
"authentication.forgot.password.title" : "Resetează-ţi parola",
"authentication.forgot.password.sent.message" : "Tocmai ți-am trimis un e-mail! Faceţi clic pe link pentru a reseta parola.",
"authentication.reset.password" : "Resetare Parolă",
"authentication.sign.in.title" : "Conectaţi-vă la Habitify",
"authentication.sign.in.description" : "Autentificați-vă cu contul vostru pentru a sincroniza perfect între cele mai multe dispozitive. În cazul în care ați avut deja un cont în Habitify iOS, conectaţi-vă aici.",
"authentication.sign.up.title" : "Creează un cont nou",
"authentication.sign.up.description" : "Crează un cont nou sau autentificații-vă cu Facebook pentru ați rezerva datele şi sincronizează perfect între cele mai multe dispozitive.",
"authentication.sign.in.with.facebook" : "Autentificare prin Facebook",
"authentication.sign.up.with.facebook" : "Înregistrați-vă cu Facebook",
"authentication.sync.title" : "Sincronizare la toate dispozitivele",
"authentication.sync.mobile.instruction" : "Pentru a sincroniza datele de pe iPhone, iPad și Apple Watch, duceți-vă la Setări și autentificați-vă cu același cont.",
"authentication.invalid.email.title" : "Email incorect?",
"authentication.invalid.email.subtitle" : "{msg} este un email incorect. Va rugam sa verificați încă o dată dacă vreți sa vă resetați parolele și sa le sincronizați mai târziu.",
"authentication.invalid.email.action.continue" : "Folosiți Acest Email",
"common.retry" : "Încearcă din nou",
"common.privacy.policy" : "Politica de confidenţialitate",
"common.terms.of.use" : "Termeni de utilizare",
"common.contact.us" : "Contactează-ne",
"common.fail" : "Eşuare",
"common.failed" : "Eșuat",
"common.undo.fail" : "Anulare eșuat",
"common.skip" : "Treci peste",
"common.skipped" : "Sarit",
"common.undo.skip" : "Anulare sarire",
"common.complete" : "Finalizare",
"common.completed" : "Finalizat",
"common.undo.complete" : "Anulare finalizare",
"common.monthly" : "Lunar",
"common.yearly" : "Anual",
"common.discard" : "Renunță",
"common.archive" : "Arhiveaza",
"common.unarchive" : "Dezarhivează",
"common.archived" : "Arhivat",
"common.delete" : "Șterge",
"common.later" : "Mai târziu",
"common.content.default" : "Predefinit",
"common.empty.habit.general" : "Nici Un Obicei Aici Încă!",
"common.commit" : "Consemnare",
"common.cancel" : "Revocare",
"common.today" : "Astăzi",
"common.on" : "Activ",
"common.off" : "Dezactivat",
"common.close" : "Închide",
"common.save" : "Salvează",
"common.edit" : "Modifica",
"common.prev" : "Anterior",
"common.next" : "Următorul",
"common.back" : "Înapoi",
"common.done" : "Realizat",
"common.select" : "Selectare",
"common.morning" : "Dimineata",
"common.afternoon" : "Dupa-amiaza",
"common.evening" : "Seara",
"common.anytime" : "Oricând",
"common.all.habit" : "Toate obiceiurile",
"common.current.streak" : "Numărul curent de reușite succesive",
"common.longest.streak" : "Cel mai lung șir de reușite",
"common.completion.rate" : "Rata de finalizare",
"common.total.completion" : "Total finalizate",
"common.all.time" : "De la început",
"common.weekends" : "Weekenduri",
"common.everyday" : "Zilnic",
"common.weekdays" : "Zile lucrătoare",
"common.loading" : "Se încarcă",
"common.from.date" : "Incepand cu data de {msg}",
"common.add.note" : "Adaugă o notă",
"common.guest" : "Vizitator neinregistrat",
"common.pseudocode.email.placeholder" : "exemplu@Gmail.com",
"common.subscribe" : "Abonați-vă",
"common.full.name" : "Nume",
"common.email" : "Email",
"common.password" : "Parolă",
"common.sign.up" : "Înregistrați-vă",
"common.sign.in" : "Autentificați-vă",
"common.show" : "Arată",
"common.hide" : "Ascunde",
"common.see.more" : "Vezi mai multe",
"common.not.enough.data" : "Nu sunt suficiente informaţii pentru clasament",
"common.preferences" : "Preferințe",
"common.view.note" : "Vezi Nota",
"common.view.notes" : "Vezi Notele",
"common.delete.selected" : "Șterge-ți cele selectate",
"common.edit.note" : "Editare Notă",
"common.general" : "General",
"common.account" : "Cont",
"common.custom" : "Personalizează...",
"common.dismiss" : "Renunțați",
"common.create.habit" : "Creează obicei",
"common.this.week" : "Săptămâna aceasta",
"common.last.week" : "Săptămâna Trecută",
"common.yesterday" : "Ieri",
"common.this.month" : "Luna Aceasta",
"common.last.month" : "Ultima Lună",
"common.this.year" : "Acest An",
"common.last.year" : "Ultimul an",
"common.weekly" : "Săptămânal",
"common.average" : "Medie",
"common.snooze" : "Amânați",
"common.camera" : "Camera",
"common.other" : "Alte",
"common.photo.library" : "Galerie Foto",
"common.connect" : "Conectare",
"common.connected" : "Conectat",
"common.search" : "Caută",
"common.ok" : "OK",
"common.passcode" : "Cod de acces",
"common.pause" : "Pauză",
"common.stop" : "Stop",
"common.resume" : "Reluați",
"common.time.goal" : "Timp țintă",
"common.start.timer" : "Start cronometru",
"common.time" : "Timp",
"common.daily.average" : "Media zilnică",
"common.weekly.average" : "Media săptămânală",
"common.monthly.average" : "Media lunară",
"common.time.of.day" : "Timpul zilei",
"common.start.of.day" : "Începutul zilei",
"common.start.of.day.description" : "Acesta este timpul cand începe dimineața și se termină seara.",
"common.more" : "Mai mult",
"common.profile.settings" : "Setări profil",
"common.resources" : "Resurse",
"common.tips.tricks" : "Sfaturi și trucuri",
"common.tomorrow" : "Mâine",
"common.send" : "Trimiteţi",
"common.save.changes" : "Salvează modificările",
"common.create.new.habit" : "Crează un nou obicei",
"common.save.habit" : "Salvează Obiceiul",
"common.common.feature.restricted" : "Caracteristica nu este activată în această variantă demo",
"common.common.demo.info.title" : "Informație Demo",
"common.common.demo.info.message" : "Această versiune Habitify a fost creată special pentru demonstrații. Toate datele pe care le-ați introdus vor fi șterse când veți părăsi aplicația.",
"common.common.continue" : "Continuare",
"common.timer" : "Temporizator",
"common.time" : "Timp",
"common.minute.short" : "min.",
"edithabit.screen.name" : "Editează obiceiul",
"edithabit.name" : "Nume",
"edithabit.repeat" : "Repetați",
"edithabit.start.date" : "Dată de început",
"edithabit.reminder" : "Alerte",
"edithabit.add.reminder" : "Adaugă Alarmă",
"edithabit.daily" : "Zilnic",
"edithabit.weekly" : "Săptămânal",
"edithabit.interval" : "Interval",
"edithabit.delete.habit" : "Șterge-ți Acest Obicei",
"edithabit.delete.confirm.title" : "Confirmare",
"edithabit.delete.confirm.message" : "Toate datele for fii șterse permanent. Doriți să continuați?",
"edithabit.delete" : "Ştergeţi",
"edithabit.archive.habit" : "Arhivați Acest Obicei",
"edithabit.unarchive.habit" : "Dez-Arhivați Acest Obicei",
"edithabit.time.of.day" : "Timp din Zi",
"edithabit.copy.to.clipboard" : "Copiază în Cliplanșetă",
"edithabit.copied" : "Copiat",
"edithabit.xcallback.read.more" : "Citiți mai multe despre x-callback-url",
"edithabit.reminder.example" : "exemplu: 9:00",
"edithabit.suggested" : "Sugerat",
"edithabit.suggested.meditate" : "Meditați",
"edithabit.suggested.run" : "Alergați",
"edithabit.suggested.core.training" : "Antrenament de Bază",
"edithabit.suggested.read.book" : "Citește o Carte",
"edithabit.suggested.learn.language" : "Învață o limbă străină",
"edithabit.suggested.cardio" : "Cardio",
"edithabit.suggested.yoga" : "Faceți Yoga",
"edithabit.cancel.confirm.message" : "Toate datele care nu au fost salvate se vor pierde. Dorești să continui?",
"edithabit.delete.reminder" : "Șterge această alertă",
"edithabit.repeat.everyday" : "Repetă zilnic",
"edithabit.repeat.weekdays" : "Repetă în timpul săptămânii",
"edithabit.repeat.weekend" : "Repetă în weekend",
"edithabit.repeat.specific.weekdays" : "Repetă în fiecare {msg}",
"edithabit.time.goal.disabled" : "Fără obiectiv temporal",
"edithabit.time.goal.enabled" : "Obiectiv {msg}",
"edithabit.time.of.day.any.time" : "Efectuează oricând",
"edithabit.time.of.day.specific" : "Efectuează {msg}",
"edithabit.start.date.from" : "Începând cu {msg}",
"journal.empty.title" : "Începutul unei bune persoane (tu)!",
"journal.empty.message" : "Obiceiurile sunt ca domino. Unul s-a format, celelalte for urma!",
"journal.empty.secondary.see.other" : "Vedeți Ce Formează Alții",
"journal.empty.in.specific.day.title" : "O Zi Plăcuta cu Nici un Obicei",
"journal.empty.in.specific.day.message" : "Relaxaţi-vă şi bucuraţi-vă de ziua asta!",
"journal.screen.name" : "Jurnal",
"journal.dismiss" : "Renunțați",
"journal.hide.completed" : "Ascunde cele Completate",
"journal.show.completed" : "Arată doar pe cele Complete",
"journal.date.progress.empty.habit" : "Umple aceasta bară cu primul tău obicei",
"journal.date.progress.no.habit.in.day" : "Este o zi fără obiceiuri!",
"journal.date.progress.half" : "Tu ești aproape de mijloc!",
"journal.date.progress.one.left" : "Doar un obicei rămas. Luptă!",
"journal.date.progress.one.completed" : "Toate obiceiurile sunt finalizate!",
"journal.habit.message.failed" : "O vei face data viitoare!",
"journal.habit.message.skipped" : "Glisați în stânga pentru ați spune motivul",
"journal.habit.message.empty.checkins" : "Finalizati astăzi pentru a avea primul combo",
"journal.not.visible.habit.start.date" : "{msg1} va fi vizibil pe {msg2}",
"journal.not.visible.habit.regularly" : "{msg1} va fi vizibil pe {msg2}",
"journal.not.visible.habit.time.of.day" : "{msg1} nu va fi vizibil pe {msg2}. Schimbați pe ''Toate Obiceiurile'' pentru al vedea.",
"journal.new.habit" : "Obicei nou",
"manage.active.count" : "Active ({num})",
"manage.archived.count" : "Arhivate ({num})",
"menubarapp.filter.by" : "Filtrează Obiceiurile pe:",
"menubarapp.quit" : "Renunță la Habitify Mini",
"newupgrade.title" : "I-a Habitify Premium",
"newupgrade.package.popular" : "Popular",
"newupgrade.package.best.value" : "Cel mai bun Preț",
"newupgrade.package.life-time" : "Durata de viaţă",
"newupgrade.purchase.terms" : "Contul iTunes va fi perceput la confirmare de cumpărare. Abonamentul va fi reînnoit automat. Contul va fi perceput {msg} pentru reînnoire în termen de 24 de ore înainte de terminarea perioada curentă. Aveți posibilitatea să gestionați abonament & turn-off în Setările Contului. Citiți <a href='https://habitify.me/privacy-policy.html'>Politica de Confidențialitate</a> și <a href='https://habitify.me/terms-of-use.html'>Termeni de Utilizare</a>",
"newupgrade.purchase.life.time.terms" : "La contul de iTunes la confirmare de cumpărare, se va percepe plata {msg}. Aceasta este plata unica. Odată ce ați achiziționat acest pachet, veți avea dreptul de membru Premium pentru totdeauna, pe toate platformele, fără să plătești nimic altceva.",
"newupgrade.benefits.unlimited.habit.title" : "Obicei Nelimitat",
"newupgrade.benefits.unlimited.habit.description" : "Slăbește prin formarea obiceiurilor bune în cele mai multe locuri din viața ta.",
"newupgrade.benefits.skip.title" : "Sari Peste Obiceiurile Tale",
"newupgrade.benefits.skip.description" : "Protejează acest combo orbitor și motivațional prin \"trecerea peste\" a obiceiul.",
"newupgrade.benefits.archive.title" : "Arhivați Obiceiurile",
"newupgrade.benefits.archive.description" : "Menţine lista de obicei curată și concentrează-te prin arhivarea obiceiurile nedorite.",
"newupgrade.benefits.yearly.calendar.title" : "Calendar Anual",
"newupgrade.benefits.yearly.calendar.description" : "Primește o imagine de ansamblu a bunăstării și a performanței tale cu o opțiune de vizualizare anuală.",
"newupgrade.benefits.dark.mode.title" : "Mod de Noapte",
"newupgrade.benefits.dark.mode.description" : "Ţine-ţi ochii relaxați atunci când verificați progresul tău la noapte.",
"newupgrade.benefits.export.data.title" : "Export-ea-ză Datele",
"newupgrade.benefits.export.data.description" : "Descoperiti noi perspective despre tine exportând datele la alte unelte de analiză.",
"newupgrade.benefits.privacy.lock.title" : "Politica de Confidențialitate",
"newupgrade.benefits.privacy.lock.description" : "Asigură datele cu o parolă și TouchID sau FaceID.",
"newupgrade.benefits.notes.title" : "Notițe cu Obicei",
"newupgrade.benefits.notes.description" : "Repede înregistra-ți realizările și gândurile cu notițe cu stil-messenger.",
"newupgrade.benefits.unlimited.reminder.title" : "Alarme Nelimitate",
"newupgrade.benefits.unlimited.reminder.description" : "De ai fi reamintit în mod repetat să faci un obicei \"încăpățânat\" cu alarme nelimitate.",
"notification.snoozed.for" : "Amânat pentru {msg}",
"notification.action.change.snooze.to" : "Amână {msg}",
"notification.daily.briefing.morning.default.title" : "Buna dimineața Habitify-torule!",
"notification.daily.briefing.morning.default.message" : "Verificați obiceiurile tale pentru ale zdrobi unul câte unul.",
"notification.daily.briefing.morning.title" : "Informația de Azi",
"notification.daily.briefing.morning.single" : "Singurul obicei de azi este {msg1} la {msg2}.",
"notification.daily.briefing.morning.no.habit.in.day" : "Ai o zi liberă cu nici un obicei! Bucurați-vă de timp!",
"notification.daily.briefing.morning.empty.habit.day.one.title" : "Primul nostru obicei pentru tine!",
"notification.daily.briefing.morning.empty.habit.day.one.message" : "Meditarea îmbunătățește concentrarea și atenția pentru o zi mai productive. Hai să o facem!",
"notification.daily.briefing.morning.empty.habit.day.two.title" : "Al doilea obicei pentru tine!",
"notification.daily.briefing.morning.empty.habit.day.two.message" : "Exerciții de dimineață duce la o minte mai clară și un somn adânc. Hai să creăm un obicei astăzi.",
"notification.daily.briefing.morning.empty.habit.fallback.title" : "E timpul pentru rutina de dimineață!",
"notification.daily.briefing.morning.empty.habit.fallback.message" : "O bună rutină dimineața te face să te simți productiv toată ziua. Hai să creăm prima!",
"notification.daily.briefing.evening.default.title" : "Cum iți e ziua Habitify-torule?",
"notification.daily.briefing.evening.default.message" : "Observa-ți realizările dumneavoastră prin glisarea în stânga pe fiecare obicei. Vă va motiva mâine!",
"notification.daily.briefing.evening.title" : "Revizuiți Astăzi",
"notification.daily.briefing.evening.completed.all" : "Ați finalizat toate obiceiurile pentru astăzi! Ura!",
"notification.daily.briefing.evening.completed.in.progress.2" : "Raportul de astăzi este gata pentru tine. Să vedem cât de bine performanți",
"notification.daily.briefing.evening.empty.habit.day.one.title" : "Timp pentru obiceiurile de seară!",
"notification.daily.briefing.evening.empty.habit.day.one.message" : "Meditarea și cititul cărții face un somn mai profund. Încercați-le pentru doar 5 minute.",
"notification.daily.briefing.evening.empty.habit.day.two.title" : "Timp pentru obiceiurile de seară!",
"notification.daily.briefing.evening.empty.habit.day.two.message" : "Oamenii de succes de multe ori scriu jurnale pentru a reflecta și să se pregătească pentru următoarea zi. Lasă-l sa te ajute și pe tine.",
"notification.daily.briefing.evening.empty.habit.fallback.title" : "E timpul pentru rutina de seară!",
"notification.daily.briefing.evening.empty.habit.fallback.message" : "Meditează. Întinde-te. Incepe un jurnal. Citește o carte. Hai sa formăm un obicei nou care vă va place!",
"notification.daily.briefing.evening.break.record" : "Ai atins un nou record personal astăzi, verifică-l!",
"notification.daily.briefing.evening.weekly.single.habit.completed" : "Ai terminat obiectivul {msg} al acestei săptămâni. Super!",
"notification.habit.one.streak" : "Dacă ai putut face acest obicei o dată, îl poți face de două ori!",
"notification.habit.zero.streak.empty.checkin" : "Acesta este un obicei nou. Fă-l pentru a obţine prima serie!",
"notification.habit.last.failed" : "Ultima dată nu ai reuşit acest obicei. Mai bine fă-l să te întorci pe drumul cel bun!",
"notification.habit.last.skipped" : "Ultima dată nu ai reuşit acest obicei. Mai bine fă-l să rezumi seria de reușite!",
"notification.habit.last.none" : "Ultima dată când nu ai terminat acest obicei. Fă-l, să te întorc pe drumul cel bun!",
"notification.timer.running.title" : "Timpul trece",
"notification.timer.running.body" : "Sesiunea %1@ se va încheia la %2@",
"notification.timer.completed.title" : "Sesiune încheiată",
"notification.timer.completed.body" : "Sesiunea %1@ pentru %2@ s-a încheiat. Apasă pentru salvare.",
"notification.timer.cancelled.title" : "Sesiune eliminată",
"notification.timer.cancelled.body" : "Sesiunea ta pentru {msg} a fost eliminată deoarece ai golit Habitify în fundal.",
"onboarding.introduce.title" : "Bine ați venit la Habitify!",
"onboarding.introduce.description" : "Începe formarea obiceiurilor minunate pentru a obţine o rutină de zi perfectă pe care ați visat.",
"onboarding.step.easily-access.title" : "Acces Facil",
"onboarding.step.easily-access.description" : "Puteţi accesa Habitify efort \nprin iPhone, iPad, Apple Watch \nşi chiar Widget-ul de Astăzi.",
"onboarding.action.get-started" : "Să începem",
"onboarding.introduce.continue" : "Începe Turul",
"onboarding.select.habit" : "Alege un obicei de a începe",
"onboarding.select.habit.assurance" : "Nu vă faceţi griji, puteţi schimba mai târziu",
"onboarding.actions.action1" : "Alegere excelentă! Apăsaţi butonul de a bifa pentru a marca {msg} ca terminat",
"onboarding.actions.action2" : "Perfect! Vreți să vedeți procesul dvs?, atingeți numele obiceiul",
"onboarding.stats.title.compact.height" : "Nemaipomenit! Derulaţi în jos pentru a vedea cele mai multe grafi-curi profunde",
"onboarding.stats.title.regular.height" : "Minunat! Iată cât de bine ați făcut recent",
"onboarding.stats.finish" : "Termină turul",
"onboarding.tips.title" : "Bine Lucrat!",
"onboarding.tips.description" : "Câteva sfaturi pentru a utiliza Habitify mai eficient!",
"onboarding.tips.skip" : "Săriți peste acest pas",
"onboarding.tips.swipe" : "Glisați pentru A vedea mai multe",
"onboarding.tips.sync.title" : "Înscrieţi-vă pentru a păstra datele sincronizate și intacte chiar și după ce resetați sau schimbați aparatul",
"onboarding.tips.sync.action" : "Înregistrați-vă",
"onboarding.tips.notification.title" : "Nu uitaţi să verificaţi un obicei în aşteptare cu alerta",
"onboarding.tips.notification.action" : "Activează Notificările",
"onboarding.tips.widget.title" : "Dați-vă un impuls rapid, cu citate motivaționale în Widgetul de Azi",
"onboarding.welcome.step1.title" : "Bine ați venit la Habitify",
"onboarding.welcome.step1.subtitle" : "Credem că lumea este mai frumoasă atunci când ne îmbunătățim obiceiurile. Da, e vorba de tine.",
"onboarding.welcome.step2.title" : "Creează-ți obiceiuri sticky",
"onboarding.welcome.step2.subtitle" : "Formează-ți tot felul de obiceiuri periodice și fii motivat de fiecare dată când dungile tale cresc.",
"onboarding.welcome.step3.title" : "Reeliberați mintea",
"onboarding.welcome.step3.subtitle" : "Du-te minte toată ziua cu informări zilnice și alarme în timp util.",
"onboarding.welcome.step4.title" : "Îmbunătăţiţ în Fiecare Zi",
"onboarding.welcome.step4.subtitle" : "Monitorizează zilele pe care le-ai pierdut sau peste care ai sărit și descurcă-te mai bine pe viitor.",
"onboarding.welcome.sign.in" : "Ai deja un cont? {msg1}",
"onboarding.introduce.skip" : "Săriți peste Tur",
"onboarding.tips.action" : "Creați-vă Primul Obicei",
"onboarding.pick.habit.title" : "Alege un Obicei",
"onboarding.pick.habit.subtitle" : "4 din 10 persoane au inclus Read Book în lista lor de obiceiuri.",
"onboarding.pick.habit.not.found" : "Obicei Personalizat",
"onboarding.pick.frequency.title" : "Alege o Frecvență",
"onboarding.pick.frequency.subtitle" : "Începând de 2-3 ori pe săptămâna creste rata de succes considerabil.",
"onboarding.pick.reminder.title" : "Alege o Oră",
"onboarding.pick.reminder.subtitle" : "Vei fi notificat pentru a-ți executa obiceiul la ora selectată de tine.",
"onboarding.review.habit" : "Verifică-ți obiceiul",
"onboarding.habit.review.title" : "Verificare obicei",
"onboarding.habit.review.subtitle" : "Vei {msg1} {msg2} la {msg3}. Apasă pe oricare dintre opțiunile de mai jos pentru a modifica acest lucru.",
"onboarding.save.habit" : "Salvează Acest Obicei",
"onboarding.save.habit.title" : "Salvează-ți Obiceiul",
"onboarding.save.habit.subtitle" : "Creează un cont pentru ați salva obiceiurile. Totul este restaurat cu o singura apăsare.",
"onboarding.create.account" : "Creează un cont",
"onboarding.create.later" : "Faceți Acesta Mai Târziu",
"privacylock.enter.current.passcode" : "Introduceţi Parola Curentă",
"privacylock.enter.new.passcode" : "Introduceți o parolă nouã",
"privacylock.re.enter.new.passcode" : "Re-introduceți o parolă nouã",
"privacylock.enter.passcode" : "Introduceţi Parola",
"privacylock.biometrics.fallback" : "Utilizarea Parolei Habitify",
"privacylock.lock.instruction" : "Amprentă sau Cod de acces",
"privacylock.fingerprint.unlock" : "Deblochează cu Amprentă",
"privacylock.cancel.setup.confirmation" : "Trebuie să setezi un cod de acces pentru a activa Privacy Lock. Dorești să anulezi?",
"privacylock.fingerprint.unlock.error.message" : "Amprenta ta nu a fost recunoscută. Te rugăm să încerci din nou.",
"privacylock.passcode.unlock.error.message" : "Se pare că ai introdus un cod de acces incorect. Te rugăm să încerci din nou.",
"progress.empty.title" : "Progresul tău în cifre",
"progress.empty.message" : "O minte mai limpede și un corp mai sănătos încep cu un mic obicei.",
"progress.empty.secondary.see.other" : "Urmărește un demo cu progresul",
"progress.most.popular.title" : "Cele mai populare",
"progress.most.popular.subtitle" : "Aceste obiceiuri sunt populare pentru un motiv anume. Acestea au schimbat vieți!",
"progress.preview.checkin.time.title" : "Ora de logare",
"progress.preview.checkin.time.subtitle" : "Află care sunt orele neutilizate pentru a le completa cu obiceiuri mai dificile",
"progress.preview.weekly.progress.title" : "Scopul obiceiului",
"progress.preview.weekly.progress.subtitle" : "Verifică-ți scopurile zilnice și săptămânale pentru ca planul tău să meargă așa cum trebuie",
"progress.preview.completion.rate.title" : "Rată de completare",
"progress.preview.completion.rate.subtitle" : "Monitorizează-ți randamentul total pe săptămână sau lună",
"progress.preview.daily.performance.title" : "Performanțe zilnice",
"progress.preview.daily.performance.subtitle" : "Află care este ziua cea mai puțin activă pentru a te focusa pe aceasta",
"progress.preview.yearly.graph.title" : "Comparare obiceiuri",
"progress.preview.yearly.graph.subtitle" : "Compară-ți și verifică-ți obiceiurile cu opțiuni de vizualizare lunare și anuale",
"progress.overall" : "Total",
"progress.notes" : "Notițe",
"progress.based.on.completion.rate" : "Pe baza ratei de finalizare",
"progress.screen.name" : "Progres",
"progress.view.all" : "Vezi toate",
"progress.empty.habit.title" : "Nu aveți nici un obicei încă.",
"progress.empty.habit.message" : "Să creăm prima pentru a vedea diagrame perspicace",
"progress.checkin.time" : "Tipul de Verificare",
"progress.today.habits" : "Obiceiurile de Azi",
"progress.streaks" : "Zile consecutive",
"progress.daily.performance" : "Performanța zilnică",
"progress.weekly.goal" : "Scopul săptămânal",
"progress.empty.note.title" : "Încă nu sunt notițe!",
"progress.empty.note.message" : "Ai putea folosi cuvinte ca \"azi\", \"ieri\" sau \"1 martie\" pentru a adăuga rapid o notița pentru acea zi.",
"progress.empty.note.placeholder" : "Hai sa încercam începând cu \"ieri\"?",
"progress.empty.note.web.message" : "Scrie și apasă trimite, ca în mesagerie",
"progress.empty.note.web.message" : "Scrie și apasă trimite, ca în mesagerie",
"progress.siri.shortcut" : "Scurtătura pentru Siri",
"progress.siri.shortcut.message" : "Marchează rapid acest obicei ca fiind complet cu propria voce.",
"progress.weekly.goal.reached" : "Ai atins acest obiectiv săptămânal!",
"progress.weekly.goal.not.started" : "Pentru a câştiga este de a începe.",
"progress.weekly.goal.half" : "Aproape acolo, păstrează-l!",
"progress.streak.level.message.1" : "Începe azi să aveți o primă linie",
"progress.streak.level.message.2" : "Utilizarea \"Treci peste\" pentru ați proteja combo-ul!",
"progress.streak.level.message.3" : "Tu ești bestial!",
"progress.streak.level.message.4" : "Doar {num} zile rămase!",
"progress.streak.level.message.5" : "Victorii mari încep cu pași mici",
"progress.streak.level.message.6" : "Ești de neoprit!",
"progress.streak.level.message.7" : "Vedeți? Puteţi face acest lucru!",
"progress.streak.level.message.8" : "Ai făcut-o până la prima săptămână! Felicitări!",
"progress.streak.level.message.9" : "{num} zile în urmă, aţi fost 0.",
"progress.streak.level.message.10" : "Este un drum lung aici, nu renunța.",
"progress.streak.level.message.11" : "Aţi încercat atât de greu, și să obțineți până în prezent.",
"progress.streak.level.message.12" : "Du-te. Du-te. Du-te.",
"progress.streak.level.message.13" : "Ar trebui să fii mândru de tine!",
"progress.streak.level.message.14" : "Ești la jumătate! Nu te opri!",
"progress.streak.level.message.15" : "{num} mai mult pentru a stăpâni acest obicei!",
"progress.streak.level.message.16" : "Mai puțin de o săptămână rămasă!",
"progress.streak.level.message.17" : "Uitați-vă la cât de departe ați plecat!",
"progress.streak.level.message.18" : "Aceasta este o nebunie!",
"progress.streak.level.message.19" : "Cum ați ajuns așa de departe?",
"progress.streak.level.message.20" : "Doar. O. Zi. Rămasă.",
"progress.streak.level.message.21" : "Ați format cu succes acest obicei!",
"progress.streak.level.message.22" : "Puteţi face acest obicei legat la ochi!",
"progress.streak.level.message.23" : "9 săptămâni! Iți vine să crezi?",
"progress.streak.level.message.24" : "Aţi făcut acest obicei pentru 3 luni!",
"progress.today.message.empty.1" : "Tot ce trebuie este un obicei de a merge de la 0 la 1.",
"progress.today.message.empty.2" : "Vă provocăm să faceți doar un obicei. Intri sau afară?",
"progress.today.message.one.left.1" : "Doar. Unul. Mai mult! Cară-te!",
"progress.today.message.one.left.2" : "Nu este un munte destul de mare.",
"progress.today.message.completed.1" : "Nemaipomenit! Meriți o ceașcă de pozitivitate!",
"progress.today.message.completed.2" : "Dă-ţi o rundă mare de aplauze!",
"progress.today.message.completed.3" : "Aţi făcut toate obiceiurile de azi!",
"progress.today.message.one" : "Uşor, nu-i așa? Ce zici de încă unul?",
"progress.today.message.two.half.1" : "Ești de neoprit!",
"progress.today.message.two.half.2" : "Progres lent > fără progres.",
"progress.today.message.two.half.3" : "Ești minunat!",
"progress.today.message.two.half.4" : "Ești tare, continuă!",
"progress.today.message.two.half.5" : "Dacă vă simțiți rău, sari peste unele obiceiuri. Fără judecări.",
"progress.today.message.two.half.6" : "Ceea ce nu te ucide te face un luptător!",
"progress.today.message.half.1" : "Ați făcut pe jumătate. Restul este mai simplu.",
"progress.today.message.half.completed.1" : "Făcând un obicei este ca îndeplinirea a unei promisiune ale tale.",
"progress.today.message.half.completed.2" : "Uită-te în oglindă. Acea persoană merită respect!",
"progress.today.message.half.completed.3" : "Steaua pentru astăzi: tu!",
"progress.today.message.half.completed.4" : "Doar câteva au rămas pentru a trece pe lista!",
"progress.today.message.half.completed.5" : "\"Destinul unui războinic este mai mare decât rănile lui\" - B. Buchard",
"progress.in.app.review.title" : "Vă place Bolt?",
"progress.in.app.review.description" : "Cum vați evalua până în prezent experienţa dvs. cu aplicaţia?",
"progress.in.app.review.one.star" : "Se pare că trebuie să îmbunătăţim foarte mult. Puteți să trimite-ți feedback-ul?",
"progress.in.app.review.three.star" : "Multumesc pentru evaluare! Ce trebuie să facem pentru a câştiga cele 2 stele?",
"progress.in.app.review.four.star" : "Minunat! Suntem bucuroşi că vă place. Ai putea, de asemenea, scrie un comentariu pentru a sprijini dezvoltatori?",
"progress.in.app.review.five.star" : "Nemaipomenit! Ai putea scrie o scurtă revizuire pentru a ajuta pe alţii să găsească aplicația mai uşor?",
"progress.in.app.review.action.write.review" : "Scrie o recenzie",
"progress.in.app.review.action.send.feedback" : "Trimite Feedback",
"settings.icloud.connected" : "Sincronizate cu cont dvs. de iCloud",
"settings.not.synced" : "Datele dumneavoastră nu sunt sincronizate încă",
"settings.change.name" : "Schimbă Numele",
"settings.translate" : "Traduce Habitify",
"settings.change.name.placeholder" : "Introduceți numele tău nou mai jos",
"settings.knowledge.base" : "Centrul Cunoștinței",
"settings.changelogs" : "Istoric modificări",
"settings.community" : "Comunitatea Utilizatorilor",
"settings.app.badge" : "Insigne de pe Aplicatie",
"settings.app.badge.time.of.day.explaination" : "Insigna arată doar obiceiurile într-o anumită perioadă a zilei (Dimineața, După-amiază, seara)",
"settings.app.badge.all.explaination" : "Insigna arată toate obiceiurile ale zilelor",
"settings.app.badge.time.of.day" : "Bazat pe Timpul Zilei",
"settings.app.badge.all.habit" : "Toate Obiceiurile Necesare",
"settings.sounds" : "Sunete",
"settings.sounds.reminder" : "Sunete pentru Atenționării",
"settings.sounds.completion" : "Sunete pentru Finalizare",
"settings.subscribe.newsletter" : "Abonează-te la Newsletter nostru",
"settings.export.data" : "Exportă Date",
"settings.reorder.habit" : "Gestionează Obiceiurile",
"settings.in.app.sound" : "În Aplicația de Sunet",
"settings.notifications" : "Notificări",
"settings.upgrade" : "Actualizați la Premium",
"settings.account" : "Cont",
"settings.follow.twitter" : "Urmărește-ne pe Twitter",
"settings.follow.instagram" : "Urmați-ne pe Instagram",
"settings.screen.name" : "Setări",
"settings.first.day.of.week" : "Prima zi a săptămâni",
"settings.privacy.lock" : "Privacy Lock",
"settings.daily.reminder" : "Alarmă Zilnică",
"settings.support" : "Discută cu Echipa Noastră de Asistenţă",
"settings.rate.on.appstore" : "Evaluează-ne pe App Store!",
"settings.spread.the.word" : "Distribuiți aplicația",
"settings.acknowledgements" : "Conștientizări",
"settings.sign.out" : "Deconectare",
"settings.reset.habit.data" : "Datele de Obicei de Resetare",
"settings.reset.habit.confirmation" : "Numai progresele și notițele vor fi șterse definitiv, în timp ce numele obiceiurilor nu sunt. Doriți să continuați?",
"settings.reset.habit.completed" : "Toate datele tale au fost resetate.",
"settings.delete.all.habit.data" : "Ștergeți Toate Datele",
"settings.delete.all.habit.confirmation" : "Toate denumirile obiceiurilor, progresele și notițele vor fi șterse definitiv. Încă vreți să continuați?",
"settings.delete.all.habit.completed" : "Toate datele tale au fost resetate.",
"settings.sign.up.message" : "Conectarea cu Email sau Facebook va păstrează datele dvs. în siguranță pe serverul nostru.",
"settings.sign.up" : "Creează un Cont Nou",
"settings.sign.in" : "Autentifică-te cu un Cont Existent",
"settings.account.linking" : "Contul Conectat",
"settings.account.message" : "Conectarea cu Email sau Facebook va păstrează datele dvs. în siguranță pe serverul nostru.",
"settings.unlink.facebook.confirmation" : "Nu veți mai putea să vă conectați cu Facebook. Doriți să continuați?",
"settings.unlink.facebook.action" : "Dezactivează link-ul la Facebook",
"settings.unlink.email.confirmation" : "Nu veți mai putea să vă conectați cu acest email. Doriți să continuați?",
"settings.unlink.email.action" : "Detașați",
"settings.status.free" : "Membru Gratis",
"settings.status.premium.life.time" : "Durata de viață a versiuni PRO",
"settings.status.premium.expire.at" : "PRO până la {msg}",
"settings.snooze.duration" : "Amănează Durația",
"settings.notification.sound" : "Sunete pentru Notificări",
"settings.daily.breifing" : "Informația Zilnică",
"settings.dailf.briefing.morning.description" : "Vom notifica cât de multe obiceiuri aveți și în ce obișnuiți să vă concentrați la ora 7 dimineața în fiecare zi.",
"settings.dailf.briefing.evening.description" : "Vom rezuma progresul zilei și înregistrarea nouă.",
"settings.data.management" : "Gestionează Datele",
"settings.no.email.provided" : "Nu a fost Furnizat un Email",
"settings.subscription.info" : "Informații pentru Abonament",
"settings.download.mac.app" : "Descarcă Habitify pentru Mac",
"settings.privacy.lock.enabled" : "Privacy Lock Activat",
"settings.unlock.with" : "Deblocare cu {msg}",
"settings.change.passcode" : "Schimba parola",
"settings.dark.mode" : "Mod de noapte",
"settings.dark.mode.preview.title" : "Doar Examinare",
"settings.dark.mode.preview.message" : "Modul de Noapte este disponibil numai pentru utilizatori Pro, Habitify va reseta Lumină în viitoarea lansare a aplicatiei. Deveniți Membru Pro să-l păstrați în mod implicit.",
"settings.dark.mode.upgrade.cta" : "Despre Pro",
"settings.newsletter.request.title" : "Fii primul care să ştie",
"settings.newsletter.request.subtitle" : "Abonează-te la Newsletter pentru a primi actualizări la email-ul tău...",
"settings.newsletter.request.later" : "Amintește-mi mai târziu",
"settings.newsletter.acknowledment.title" : "Vă mulțumim",
"settings.newsletter.acknowledment.subtitle" : "Te-am adaugat la lista noastră de mail și va fi printre primii care să audă despre noile actualizări și oferte speciale.",
"settings.no.account.connected" : "Nici un cont conectat",
"settings.account.status.free" : "Stare: Liber",
"settings.account.status.pro.lifetime" : "Stare: Pro (toată viața)",
"settings.account.status.valid.until" : "Stare: Pro (valabil până la {msg})",
"settings.social.share.content" : "Habitify este fenomenal pentru obținerea productivități și a sta pe partea de sus a obiceiurile zilnice! Merită o descărcare!",
"settings.sign.out.confirmation" : "Ești sigur că vrei să te deloghezi?",
"settings.fingerprint.not.setup" : "Pentru a activa această funcție, te rugăm ca mai întâi să-ți introduci amprenta în setările telefonului.",
"settings.general" : "General",
"settings.app.settings" : "Setările aplicației",
"settings.language" : "Limbă",
"settings.payment" : "Plată",
"settings.new.password" : "Parolă nouă",
"settings.re.enter.new.password" : "Reintrodu parola nouă",
"settings.current.password" : "Parola actuală",
"settings.current.plan" : "Planul tău de plată actual",
"settings.change.plan" : "Modifică planul",
"settings.cancel.subscription" : "Anulează abonamentul",
"timegoal.picker.benefit" : "Selectează un obiectiv pentru {msg}. Apoi utilizează cronometrul pentru a contoriza timpul petrecut cu acesta.",
"timegoal.save.goal" : "Salvează obiectiv",
"timegoal.session.discard.title" : "Renunță la sesiune",
"timegoal.session.discard.message" : "Progresul făcut în această sesiune nu va fi salvat.",
"timegoal.session.completed" : "Sesiune încheiată",
"timegoal.session.completed.message" : "A fost înregistrat %1@ pentru %2@.",
"timegoal.log.session" : "Înregistrează sesiune",
"timegoal.view.sessions" : "Vizualizează sesiuni",
"timegoal.completion.time" : "Data finalizării",
"timegoal.duration" : "Durata",
"timegoal.duration.placeholder" : "Introdu o valoare",
"timegoal.time.spent" : "Timpul petrecut",
"timegoal.discarded.session" : "Sesiuni eliminate",
"timegoal.break.down" : "Descompune",
"timegoal.setup.suggestion.message" : "Creează un obiectiv pentru a urmări cât timp dorești să consumi cu acest obicei.",
"timegoal.setup.suggestion.action" : "Creează obiectiv",
"timegoal.longest.session" : "Cea mai lungă sesiune",
"timegoal.custom.time.goal" : "Obiectiv de timp personalizat",
"timegoal.setup.benefit" : "Obiectivul de timp te ajută să urmărești cât timp consumi cu un obicei. Poți porni cronometrul din alerte sau din ecranul Jurnal.",
"timegoal.no.required" : "Astăzi ești liber",
"timegoal.start.new.timer" : "Pornește cronometru nou",
"timegoal.empty.session" : "Nicio sesiune înregistrată",
"timegoal.timer.duration.instruction" : "Glisează bara de mai jos pentru a selecta durata sesiunii {msg}.",
"upgrade.screen.name" : "Avansați",
"upgrade.cannot-connect" : "Conectarea cu Magazinul iTunes nu este posibilă",
"upgrade.restore.failed.title" : "Restabiliți Cumpărăturile Eșuate",
"upgrade.restore.failed.message" : "Suntem în imposibilitatea de a restabili achizițiile anterioare. Vă rugăm să încercați din nou sau contactaţi echipa noastră de asistenţă.",
"upgrade.restored.title" : "Cumpărări Restaurate",
"upgrade.restored.message" : "Produsele cumpărate anterior au fost restaurate.",
"upgrade.prompt.habit.limited.title" : "Sa avansăm pentru mai multe obiceiuri!",
"upgrade.prompt.habit.limited.message" : "Habitify Premium vă va permite să adaugați al 4-lea, 5-lea sau chiar 100-lea obicei oricând, plus mai multe alarme pentru a vă ajuta să luați lucrurile înainte ca ziua sa se termine.",
"upgrade.prompt.reminder.limited.title" : "Sa avansăm pentru mai multe alarme!",
"upgrade.prompt.reminder.limited.message" : "Habitify Premium vă va permite să adaugați mai multe alarme pe obicei, plus obiceiuri nelimitate pentru a vă ajuta să stați pe pistă pentru totul în viată.",
"upgrade.prompt.export.data.title" : "Să actualizam datele exportate!",
"upgrade.prompt.export.data.message" : "Habitify Premium vă va permite să exportați toate numele de obiceiuri, statusuri, date și notițe (și mai bine) pentru analizele suplimentare.",
"upgrade.prompt.cta" : "Despre Premium",
"upgrade.cta" : "Actualizare la versiunea Premium",
"upgrade.monthly.price.with" : "{msg}/ps",
"upgrade.restore.purchases" : "Restabiliţi Cumpărăturile",
"useractivities.completed.withName" : "{msg} este gata",
"useractivities.skipped.withName" : "{msg} este ocolit",
"useractivities.undone.withName" : "{msg} a fost anulat(ă)",
"useractivities.view.current.time.of.day" : "Obiceiurile Curente",
"useractivities.view.all" : "Toate Obiceiurile",
"useractivities.add.note.for" : "Adaugă notă pentru {msg}",
"useractivities.view.progress" : "Vezi Procesul",
"useractivities.view.progress.of" : "Vedeți {msg}",
"plurals.day.per.week" : "0 zi pe săptămână | {num} zi pe săptămână | {num} zile pe săptămână",
"plurals.streak" : "0 Combo | {num} Combo | {num} Combo-uri",
"plurals.more" : "încă 0 | încă {num} | încă {num}",
"plurals.time.of.day.notification.group" : "no obicei rămas în {msg} | {u1} obicei rămas în {msg} | {u1} obiceiuri rămase în {msg}",
"plurals.interval.day" : "Zilnic | Zilnic | La fiecare {num} zile",
"plurals.streak.day" : "0 zi combo! | {num} zi combo! | {num} zile combo!",
"plurals.month" : "0 lună | {num} lună | {num} luni",
"plurals.passed.week" : "Ultima săptămâna | Ultima săptămâna | Ultimele {num} săptămâni",
"plurals.passed.days" : "Ultima zi | Ultima zi | Ultimele {num} zile",
"plurals.times" : "0 dată | {num} dată | de {num} ori",
"plurals.streak.day.journal" : "0 zi combo | {num} zi combo | {num} zile combo",
"plurals.habit.remaining" : "0 din 0 obicei completat | {num} din {num1} obicei completat | {num} din {num1} obiceiuri completate",
"quote.widget.1.msg" : "First we make our habits, then our habits make us",
"quote.widget.1.auth" : "Charles C. Noble",
"quote.widget.2.msg" : "We are what we repeatedly do; excellence, then, is not an act but a habit",
"quote.widget.2.auth" : "Aristotle",
"quote.widget.3.msg" : "Character is habit long continued",
"quote.widget.3.auth" : "Greek",
"quote.widget.4.msg" : "There is no influence like the influence of habit",
"quote.widget.4.auth" : "Gilbert Parker",
"quote.widget.5.msg" : "Motivation is what gets you started. Habit is what keeps you going",
"quote.widget.5.auth" : "Jim Ryun",
"quote.widget.6.msg" : "Habit with it's iron sinews, clasps us and leads us day by day",
"quote.widget.6.auth" : "Alphonse de Lamartine",
"quote.widget.7.msg" : "Powerful indeed is the empire of habit",
"quote.widget.7.auth" : "Publilius Syrus",
"quote.widget.8.msg" : "Nothing is more powerful than custom or habit",
"quote.widget.8.auth" : "Ovid",
"quote.widget.9.msg" : "Winners make a habit of doing the things losers don't want to do",
"quote.widget.9.auth" : "Lucas Remmerswaal",
"quote.widget.10.msg" : "Great habits sharpen our thoughts and make us great",
"quote.widget.10.auth" : "Debasish Mridha",
"quote.widget.11.msg" : "You will never change your life until you change something you do daily",
"quote.widget.11.auth" : "John C. Maxwell",
"quote.widget.12.msg" : "Successful people are simply those with successful habits",
"quote.widget.12.auth" : "Brian Tracy",
"quote.widget.13.msg" : "Nothing is stronger than a habit",
"quote.widget.13.auth" : "Ovid",
"quote.widget.14.msg" : "Habit is the intersection of knowledge, skill and desire",
"quote.widget.14.auth" : "Stephen Covey",
"quote.widget.15.msg" : "Good habits are worth being fanatical about",
"quote.widget.15.auth" : "John Irving",
"quote.widget.16.msg" : "The best gifts anyone can give to themselve are good health habits",
"quote.widget.16.auth" : "Ellen J. Barrier",
"quote.widget.17.msg" : "Cultivate only the habits that you are willing should master you",
"quote.widget.17.auth" : "Elbert Hubbard",
"quote.widget.18.msg" : "The easier it is to do, the harder it is to change",
"quote.widget.18.auth" : "Eng’s Principle",
"quote.widget.19.msg" : "A year from now you may wish you had started today",
"quote.widget.19.auth" : "Karen Lamb",
"quote.widget.20.msg" : "Quality is not an act, it is a habit",
"quote.widget.20.auth" : "Aristotle",
"quote.widget.21.msg" : "Our character is basically a composite of our habits",
"quote.widget.21.auth" : "Stephen Covey",
"quote.widget.22.msg" : "A change in bad habits leads to a change in life",
"quote.widget.22.auth" : "Jenny Craig",
"quote.widget.23.msg" : "Chains of habit are too light to be felt until they are too heavy to be broken",
"quote.widget.23.auth" : "Warren Buffet",
"quote.widget.24.msg" : "Good habits formed at youth make all the difference",
"quote.widget.24.auth" : "Aristotle"
}