{
"authentication.error.network.title" : "Ağ Hatası",
"authentication.error.unknown.title" : "Bir hata oluştu!",
"authentication.error.authentication.email.existed.message" : "Bu e-posta zaten kayıtlı. Lütfen başka bir seçeneği deneyin.",
"authentication.error.authentication.wrong.email.format.message" : "Geçersiz e-posta",
"authentication.error.authentication.wrong.email.or.password.message" : "Geçersiz e-posta veya şifre",
"authentication.error.authentication.user.cancelled.facebook.message" : "Giriş iptal edildi",
"authentication.error.authentication.email.not.provided.facebook.message" : "E-posta adresiniz mevcut değil. Lütfen başka bir yöntemle giriş yapın",
"authentication.error.forgot.password.email.doesnt.exist.message" : "Aman! Bu e-posta adresi sistemimizde yok.",
"authentication.sync-data-description" : "Alışkanlıklarınızı kaydetmek ve eşitlemek için hesap oluşturun!",
"authentication.connect-facebook" : "Facebook ile bağlan",
"authentication.sign-up-email" : "E-posta ile Kaydol",
"authentication.sign-in-email" : "Zaten hesabım var",
"authentication.skip" : "Atla",
"authentication.sign.up" : "Kaydol",
"authentication.agree.term" : "Kaydolarak Gizlilik Politikamızı kabul etmiş olursunuz",
"authentication.forgot.password" : "Şifrenizi mi unuttunuz?",
"authentication.forgot.password.title" : "Şifrenizi yenileyin",
"authentication.forgot.password.sent.message" : "E-postanız gönderildi. Şifrenizi yenilemek için lütfen bağlantıya tıkayın.",
"authentication.reset.password" : "Şifreni Yenile",
"authentication.sign.in.title" : "Habitify'a giriş yap",
"authentication.sign.in.description" : "Birden çok aygıtınız arasında eşitlemek için hesabınızı kullanarak oturum açın. Zaten bir Habitify IOS hesabınız varsa, buradan giriş yapın.",
"authentication.sign.up.title" : "Kaydol",
"authentication.sign.up.description" : "Cihazlarınız arasında eşitleme yapabilmek için yeni bir hesap oluşturun veya Facebook ile giriş yapın.",
"authentication.sign.in.with.facebook" : "Facebook ile bağlan",
"authentication.sign.up.with.facebook" : "Facebook ile kaydol",
"authentication.sync.title" : "Cihazlar arasında eşitleme",
"authentication.sync.mobile.instruction" : "iPhone, iPad ve Apple Watch ile eşitleme yapmak için, ayarlara gidin ve aynı hesap ile giriş yapın.",
"authentication.invalid.email.title" : "Hatalı e-posta?",
"authentication.invalid.email.subtitle" : "{msg} hatalı bir e-posta. Senkronizasyon için lütfen tekrar kontrol edin veya şifrenizi yenileyin.",
"authentication.invalid.email.action.continue" : "Bu E-postayı Kullan",
"common.retry" : "Tekrar Deneyin",
"common.privacy.policy" : "Gizlilik Politikası",
"common.terms.of.use" : "Kullanım Şartları",
"common.contact.us" : "Bize Ulaşın",
"common.fail" : "Tamamlanmadı",
"common.failed" : "Tamamlanmadı",
"common.undo.fail" : "Geri al: tamamlanmadı",
"common.skip" : "Atla",
"common.skipped" : "Atlandı",
"common.undo.skip" : "Atlamayı geri al",
"common.complete" : "Tamamlandı",
"common.completed" : "Tamamlandı",
"common.undo.complete" : "Geri alma tamamlandı",
"common.monthly" : "Aylık",
"common.yearly" : "Yıllık",
"common.discard" : "Yok Say",
"common.archive" : "Arşivle",
"common.unarchive" : "Arşivden çıkar",
"common.archived" : "Arşivlendi",
"common.delete" : "Sil",
"common.later" : "Daha Sonra",
"common.content.default" : "Varsayılan",
"common.empty.habit.general" : "Hiçbir Alışkanlık Yok!",
"common.commit" : "Değişiklikleri Kaydet",
"common.cancel" : "İptal",
"common.today" : "Bugün",
"common.on" : "Açık",
"common.off" : "Kapalı",
"common.close" : "Kapat",
"common.save" : "Kaydet",
"common.edit" : "Düzenle",
"common.prev" : "Önceki",
"common.next" : "Sonraki",
"common.back" : "Geri",
"common.done" : "Tamamlandı",
"common.select" : "Seç",
"common.morning" : "Sabah",
"common.afternoon" : "Öğleden Sonra",
"common.evening" : "Akşam",
"common.anytime" : "Herhangi bir zaman",
"common.all.habit" : "Tüm Alışkanlıklar",
"common.current.streak" : "Şuanki Seri",
"common.longest.streak" : "En Uzun Seri",
"common.completion.rate" : "Tamamlama Oranı",
"common.total.completion" : "Toplam Tamamlama",
"common.all.time" : "Tüm Zamanlar",
"common.weekends" : "Hafta sonları",
"common.everyday" : "Her gün",
"common.weekdays" : "Hafta içi",
"common.loading" : "Yükleniyor",
"common.from.date" : "{msg} ' dan",
"common.add.note" : "Not Ekle",
"common.guest" : "Konuk",
"common.pseudocode.email.placeholder" : "example@gmail.com",
"common.subscribe" : "Abone Ol",
"common.full.name" : "İsim",
"common.email" : "E-mail",
"common.password" : "Şifre",
"common.sign.up" : "Kaydol",
"common.sign.in" : "Giriş Yap",
"common.show" : "Göster",
"common.hide" : "Gizle",
"common.see.more" : "Daha Fazlası",
"common.not.enough.data" : "Sıralayacak kadar bilgiye sahip değiliz",
"common.preferences" : "Tercihler",
"common.view.note" : "Notu Görüntüle",
"common.view.notes" : "Notları Görüntüle",
"common.delete.selected" : "Seçilenleri Sil",
"common.edit.note" : "Notu Düzenle",
"common.general" : "Genel",
"common.account" : "Hesap",
"common.custom" : "Özel...",
"common.dismiss" : "Yoksay",
"common.create.habit" : "Alışkanlık Oluştur",
"common.this.week" : "Bu Hafta",
"common.last.week" : "Geçen Hafta",
"common.yesterday" : "Dün",
"common.this.month" : "Bu Ay",
"common.last.month" : "Geçen Ay",
"common.this.year" : "Bu Yıl",
"common.last.year" : "Geçen Yıl",
"common.weekly" : "Haftalık",
"common.average" : "Ortalama",
"common.snooze" : "Ertele",
"common.camera" : "Kamera",
"common.other" : "Diğer",
"common.photo.library" : "Fotoğraf Arşivi",
"common.connect" : "Bağlan",
"common.connected" : "Bağlandı",
"common.search" : "Ara",
"common.ok" : "OK",
"common.passcode" : "Şifre",
"common.pause" : "Duraklat",
"common.stop" : "Durdur",
"common.resume" : "Devam Et",
"common.time.goal" : "Zaman Hedefi",
"common.start.timer" : "Zamanlayıcıyı Başlat",
"common.time" : "Zaman",
"common.daily.average" : "Günlük Ortalama",
"common.weekly.average" : "Haftalık Ortalama",
"common.monthly.average" : "Aylık Ortalama",
"common.time.of.day" : "Şu Vakitte",
"common.start.of.day" : "Başlangıç Günü",
"common.start.of.day.description" : "Bu, sabahın başlangıç ve akşamın bitiş vaktidir.",
"common.more" : "Daha Fazla",
"common.profile.settings" : "Profil & Ayarlar",
"common.resources" : "Kaynaklar",
"common.tips.tricks" : "İpuçları",
"common.tomorrow" : "Yarın",
"common.send" : "Gönder",
"common.save.changes" : "Değişiklikleri Kaydet",
"common.create.new.habit" : "Yeni Bir Alışkanlık Oluştur",
"common.save.habit" : "Alışkanlığı Kaydet",
"common.common.feature.restricted" : "Özellik bu demo için geçerli değildir.",
"common.common.demo.info.title" : "Demo Bilgilendirmesi",
"common.common.demo.info.message" : "Habitify’ın bu versiyonu demo amaçlı oluşturuldu.\nUygulamaya girmiş olduğunuz veriler siz uygulamadan çıktıktan sonra silinecektir.",
"common.common.continue" : "Devam",
"common.timer" : "Zamanlayıcı",
"common.time" : "Zaman",
"common.minute.short" : "dakika",
"edithabit.screen.name" : "Alışkanlığı Düzenle",
"edithabit.name" : "Alışkanlık Adı",
"edithabit.repeat" : "Tekrar",
"edithabit.start.date" : "Başlangıç tarihi",
"edithabit.reminder" : "Hatırlatıcılar",
"edithabit.add.reminder" : "Hatırlatıcı Ekle",
"edithabit.daily" : "Günlük",
"edithabit.weekly" : "Haftalık",
"edithabit.interval" : "Aralık",
"edithabit.delete.habit" : "Bu Alışkanlığı Sil",
"edithabit.delete.confirm.title" : "Onay",
"edithabit.delete.confirm.message" : "Tüm veriler kalıcı olarak silinecek. Devam etmek istiyor musunuz?",
"edithabit.delete" : "Sil",
"edithabit.archive.habit" : "Bu Alışkanlığı Arşivle",
"edithabit.unarchive.habit" : "Bu Alışkanlığı Arşivden Çıkar",
"edithabit.time.of.day" : "Şu Vakitte",
"edithabit.copy.to.clipboard" : "Panoya Kopyala",
"edithabit.copied" : "Kopyalandı",
"edithabit.xcallback.read.more" : "X-callback-url hakkında",
"edithabit.reminder.example" : "örneğin: 9:00",
"edithabit.suggested" : "Önerilen",
"edithabit.suggested.meditate" : "Meditasyon",
"edithabit.suggested.run" : "Koş",
"edithabit.suggested.core.training" : "Egzersiz",
"edithabit.suggested.read.book" : "Kitap Oku",
"edithabit.suggested.learn.language" : "Yabancı bir dil öğren",
"edithabit.suggested.cardio" : "Kardiyo",
"edithabit.suggested.yoga" : "Yoga Yap",
"edithabit.cancel.confirm.message" : "Kaydedilmeyen tüm veriler gidecektir. Devam etmek istiyor musunuz?",
"edithabit.delete.reminder" : "Bu Hatırlatıcıyı Sil",
"edithabit.repeat.everyday" : "Her gün tekrarla",
"edithabit.repeat.weekdays" : "Hafta içleri tekrarla",
"edithabit.repeat.weekend" : "Haftasonları tekrarla",
"edithabit.repeat.specific.weekdays" : "Her {msg} tekrarla",
"edithabit.time.goal.disabled" : "Zaman hedefi yok",
"edithabit.time.goal.enabled" : "Hedef {msg}",
"edithabit.time.of.day.any.time" : "Herhangi bir zaman yap",
"edithabit.time.of.day.specific" : "{msg} yap",
"edithabit.start.date.from" : "{msg} den",
"journal.empty.title" : "Daha İyi Bir Sen için İlk Adım!",
"journal.empty.message" : "Alışkanlıklar domino taşları gibidir. Bir kez başlarsanız eminiz ki devamı gelecektir!",
"journal.empty.secondary.see.other" : "Başkalarının Ne Oluşturduklarına Bakalım",
"journal.empty.in.specific.day.title" : "Alışkanlığın Olmadığı Hoş Bir Gün",
"journal.empty.in.specific.day.message" : "Rahatla ve günün tadını çıkar!",
"journal.screen.name" : "Günlük",
"journal.dismiss" : "Yoksay",
"journal.hide.completed" : "Tamamlananları Gizle",
"journal.show.completed" : "Tamamlananları Göster",
"journal.date.progress.empty.habit" : "Bu çubuğu ilk alışkanlığınızla doldurun",
"journal.date.progress.no.habit.in.day" : "Alışkanlık-sız gün!",
"journal.date.progress.half" : "Yolu yarıladın!",
"journal.date.progress.one.left" : "Sadece 1 alışkanlık kaldı. Devam edelim!",
"journal.date.progress.one.completed" : "Tüm alışkanlıklar tamamlandı!",
"journal.habit.message.failed" : "Bir sonraki sefer halledeceksin!",
"journal.habit.message.skipped" : "Sebebini not almak için sola kaydırın",
"journal.habit.message.empty.checkins" : "İlk seriyi oluşturmak için bugünden başlayın",
"journal.not.visible.habit.start.date" : "{msg1} şu günden itibaren görünecek:{msg2}",
"journal.not.visible.habit.regularly" : "{msg1} şu günden itibaren görünecek: {msg2}",
"journal.not.visible.habit.time.of.day" : "{msg1} {msg2} görünür değil. Görmek için Tüm Alışkanlıklar’a tıklayın.",
"journal.new.habit" : "Yeni Alışkanlık",
"manage.active.count" : "Aktif ({num})",
"manage.archived.count" : "Arşivlendi ({num})",
"menubarapp.filter.by" : "Alışkanlıkları Şuna Göre Filtrele:",
"menubarapp.quit" : "Habitify Mini'yi Kapat",
"newupgrade.title" : "Habitify Premium’a yükselt",
"newupgrade.package.popular" : "Popüler",
"newupgrade.package.best.value" : "En İyi Fiyat",
"newupgrade.package.life-time" : "Ömür boyu",
"newupgrade.purchase.terms" : "Satın alma işleminizi onayladığınızda, abonelik ücreti iTunes hesabınıza yansıtılacaktır.\nMevcut abonelik döneminizin sona ermesinden en az 24 saat önce otomatik yenileme özelliğini kapatmazsanız, mevcut abonelik döneminizin bitiminde aboneliğiniz {msg} olarak yenilenecektir. \nSatın alma işleminden sonra istediğiniz zaman Apple Id Hesap Ayarlarınız kısmından otomatik yenilemeyi kapatabilirsiniz. Daha fazlası için <a href='https://habitify.me/privacy-policy.html'> Gizlilik Politikası</a>ve<a href='https://habitify.me/terms-of-use.html'> Kullanım Şartları</a>'na göz atın",
"newupgrade.purchase.life.time.terms" : "Ödemeyi {msg} onayladığınız takdirde iTunes hesabınıza tahsil edilecektir. Bu tek seferlik bir ödeme. Bir kez bu paketi satın alınca, Premium olacaksınız ve başka bir şey ödemek zorunda kalmadan tüm platformlarda sonsuza kadar bu böyle devam edecek.",
"newupgrade.benefits.unlimited.habit.title" : "Sınırsız Alışkanlık",
"newupgrade.benefits.unlimited.habit.description" : "Hayatınızdaki bir çok alan için iyi alışkanlıklar edinerek, çok yönlü biri olun.",
"newupgrade.benefits.skip.title" : "Alışkanlıklarınızı Atlayın",
"newupgrade.benefits.skip.description" : "Göz kamaştırıcı serinizi korumak için \"atla\" butonunu kullanın.",
"newupgrade.benefits.archive.title" : "Alışkanlıkları arşivle",
"newupgrade.benefits.archive.description" : "İstenmeyen alışkanlıkları arşivleyerek listenizi daha düzeli kılın.",
"newupgrade.benefits.yearly.calendar.title" : "Yıllık Takvim",
"newupgrade.benefits.yearly.calendar.description" : "Yıllık görünüm ile ne kadar yol kaydettiğine bir göz at.",
"newupgrade.benefits.dark.mode.title" : "Karanlık Mod",
"newupgrade.benefits.dark.mode.description" : "İlerlemenizi geceleyin kontrol ederken gözlerinizi rahatlatın.",
"newupgrade.benefits.export.data.title" : "Verileri Dışarı Aktar",
"newupgrade.benefits.export.data.description" : "Verilerinizi dışarı aktarıp analiz edebilirsiniz. Böylece gelişiminizi daha iyi kavrayabilirsiniz.",
"newupgrade.benefits.privacy.lock.title" : "Gizlilik Kilidi",
"newupgrade.benefits.privacy.lock.description" : "Verilerinizi Parola, TouchID veya FaceID ile güvende tutun.",
"newupgrade.benefits.notes.title" : "Alışkanlık Notları",
"newupgrade.benefits.notes.description" : "Başarımlarınızı ve düşüncelerinizi sanki sadece mesajlaşıyormuş gibi kolayca kaydedin.",
"newupgrade.benefits.unlimited.reminder.title" : "Sınırsız Hatırlatıcı",
"newupgrade.benefits.unlimited.reminder.description" : "Bir alışkanlıkta \"inatçı\" olmak için sınırsız hatırlatıcı oluşturun.",
"notification.snoozed.for" : "{msg} ertelendi",
"notification.action.change.snooze.to" : "Ertele {msg}",
"notification.daily.briefing.morning.default.title" : "Günaydın, Habitify dostu!",
"notification.daily.briefing.morning.default.message" : "Teker teker tamamlamak için alışkanlıklarınızı kontrol edin.",
"notification.daily.briefing.morning.title" : "Gün Özeti",
"notification.daily.briefing.morning.single" : "Bugün için tek alışkanlığınız {msg1}. Ve zamanı da {msg2}.",
"notification.daily.briefing.morning.no.habit.in.day" : "Hiçbir alışkanlığınızın olmadığı serbest bir gününüz var! Kendinize ayırdığınız zamanın tadını çıkarın!",
"notification.daily.briefing.morning.empty.habit.day.one.title" : "Senin için ilk alışkanlığımız!",
"notification.daily.briefing.morning.empty.habit.day.one.message" : "Meditasyon odaklanmayı ve dikkati artırarak daha üretici bir gün geçirmenizi sağlar. Hadi yapalım!",
"notification.daily.briefing.morning.empty.habit.day.two.title" : "Senin için ikinci alışkanlığımız!",
"notification.daily.briefing.morning.empty.habit.day.two.message" : "Sabah alışkanlıkları daha temiz bir zihne ve derin bir uykuya yol açar. Hadi bu alışkanlığını bugün oluşturalım.",
"notification.daily.briefing.morning.empty.habit.fallback.title" : "Sabah rutini zamanı!",
"notification.daily.briefing.morning.empty.habit.fallback.message" : "İyi bir sabah rutini ile gün boyu daha üretken hissedin. Hadi ilkini oluşturalım!",
"notification.daily.briefing.evening.default.title" : "Habitify’lı günün nasıldı?",
"notification.daily.briefing.evening.default.message" : "Yeteneklerini sola kaydırarak başarımlarını not al. Yarın motive olmanı sağlayacaklardır!",
"notification.daily.briefing.evening.title" : "Bugünün Özeti",
"notification.daily.briefing.evening.completed.all" : "Bugünün tüm alışkanlıklarını tamamladın! Yaşasın!",
"notification.daily.briefing.evening.completed.in.progress.2" : "Bugünkü raporun hazır. Hadi performansının ne kadar iyi olduğunu görelim",
"notification.daily.briefing.evening.empty.habit.day.one.title" : "Akşam alışkanlıklarının vakti geldi!",
"notification.daily.briefing.evening.empty.habit.day.one.message" : "Meditasyon ve Kitap Okumak daha derin bir uyku sağlar. Sadece 5 dakikalığına bunları deneyebilirsin.",
"notification.daily.briefing.evening.empty.habit.day.two.title" : "Akşam alışkanları vakti!",
"notification.daily.briefing.evening.empty.habit.day.two.message" : "Başarılı insanlar yarına aksettirmek ve hazırlanmak için günlükler yazar. Hadi sen de bundan faydalanmayı dene.",
"notification.daily.briefing.evening.empty.habit.fallback.title" : "Akşam rutini zamanı!",
"notification.daily.briefing.evening.empty.habit.fallback.message" : "Meditasyon yap. Esne. Günlük tut. Kitap oku. Hadi hoşuna giden bir alışkanlık oluştur!",
"notification.daily.briefing.evening.break.record" : "Bugün yeni bir rekora imza attın, gel bir kontrol et!",
"notification.daily.briefing.evening.weekly.single.habit.completed" : "Bu haftadaki {msg} hedefine ulaştın. Mükemmel!",
"notification.habit.one.streak" : "Bir kez yapabiliyorsan, ikinci kez de yapabilirsin!",
"notification.habit.zero.streak.empty.checkin" : "Bu yeni bir alışkanlık. Her güzel şeyin bir başlangıcı olmalı!",
"notification.habit.last.failed" : "Sanki en son bu alışkanlığı başaramamıştın. Ama bir sonraki sefere başarabileceğine eminiz!",
"notification.habit.last.skipped" : "Sanki en son bu alışkanlığı atlamıştınız. Serinize devam etmek için alışkanlığınıza devam edin!",
"notification.habit.last.none" : "En son bu alışkanlığı tamamlamamıştınız. Bence artık piste dönmenin vakti geldi!",
"notification.timer.running.title" : "Sayaç Çalışıyor",
"notification.timer.running.body" : "%1@ oturum %2@'de bitecek",
"notification.timer.completed.title" : "Oturum Tamamlandı",
"notification.timer.completed.body" : "%2@ için %1@ oturum tamamlandı. Kaydetmek için dokunun.",
"notification.timer.cancelled.title" : "Oturum Kaydedilmedi",
"notification.timer.cancelled.body" : "{msg} için olan oturumunuz kaydedilmedi çünkü Habitify'ı arkaplandan kapattınız.",
"onboarding.introduce.title" : "Habitify'a Hoşgeldiniz!",
"onboarding.introduce.description" : "Hayalini kurduğun harika günlük rutinler için düzenli alışkanlıklar oluşturmakla işe başla.",
"onboarding.step.easily-access.title" : "Kolay Erişim",
"onboarding.step.easily-access.description" : "Habitify'a iPhone, iPad ve Apple Watch'unuzu kullanarak kolaylıkla erişin.",
"onboarding.action.get-started" : "Başlarken",
"onboarding.introduce.continue" : "Tura Başla",
"onboarding.select.habit" : "Başlamak için bir alışkanlık seçin",
"onboarding.select.habit.assurance" : "Endişeye gerek yok, daha sonra dilediğiniz gibi değiştirebilirsiniz",
"onboarding.actions.action1" : "Harika seçim! {msg} alışkanlığını tamamlanmış olarak işaretlemek için tik butonuna tıkla",
"onboarding.actions.action2" : "Harika! İlerlemeni görmek ister misin, o zaman alışkanlığın ismine tıkla",
"onboarding.stats.title.compact.height" : "Mükemmel! Daha detaylı grafikler için aşağı kaydırın",
"onboarding.stats.title.regular.height" : "Harika! İşte son günlerde ne kadar iyi olduğun",
"onboarding.stats.finish" : "Turu Bitir",
"onboarding.tips.title" : "Bravo!",
"onboarding.tips.description" : "İşte Habitify'ı daha etkili kullanmanız için birkaç ipucu!",
"onboarding.tips.skip" : "Bu Adımı Atla",
"onboarding.tips.swipe" : "Daha Fazlasını Görmek için Kaydırın",
"onboarding.tips.sync.title" : "Verilerinizi eşitlemek, cihazınızı değiştirseniz bile onlara ulaşmak için kaydolun.",
"onboarding.tips.sync.action" : "Kaydol",
"onboarding.tips.notification.title" : "Hatırlatıcılar ile alışkanlıklarınızı tamamlamayı asla unutmazsınız",
"onboarding.tips.notification.action" : "Bildirimleri Etkinleştirin",
"onboarding.tips.widget.title" : "Özlü Sözler Widget'ı ile çalışmalarını hızlandır",
"onboarding.welcome.step1.title" : "Habitify’a hoşgeldiniz",
"onboarding.welcome.step1.subtitle" : "Her bir insanın daha iyiye gitmesi ile Dünya’nın daha güzel bir yere dönüşeceğine inanıyoruz. Evet, bu sensin.",
"onboarding.welcome.step2.title" : "Yeni Alışkanlıklar Edinin",
"onboarding.welcome.step2.subtitle" : "Tekrar eden alışkanlıklar oluşturun ve serilerinizi arttırarak kendinizi motive edin.",
"onboarding.welcome.step3.title" : "Zihnini rahatlat",
"onboarding.welcome.step3.subtitle" : "Günlük hatırlatmalar ve bildirimler ile zihninizi boşaltın.",
"onboarding.welcome.step4.title" : "Günden Güne Güç Kazan",
"onboarding.welcome.step4.subtitle" : "Unuttuğunuz veya anladığınız günleri takip edin, bir sonraki sefere tamamlamaya çalışın.",
"onboarding.welcome.sign.in" : "Hesabınız var mı? {msg1}",
"onboarding.introduce.skip" : "Turu Atla",
"onboarding.tips.action" : "İlk Alışkanlığınızı Oluşturun",
"onboarding.pick.habit.title" : "Bir Alışkanlık Seç",
"onboarding.pick.habit.subtitle" : "Her 10 kişiden 4’ünün listesinde Kitap Oku yer alıyor,.",
"onboarding.pick.habit.not.found" : "Özel Alışkanlık",
"onboarding.pick.frequency.title" : "Bir Sıklık Seç",
"onboarding.pick.frequency.subtitle" : "Haftada 2-3 kez ile başlamak başarını önemli ölçüde etkiler.",
"onboarding.pick.reminder.title" : "Zaman Seç",
"onboarding.pick.reminder.subtitle" : "Alışkanlığınızı tamamlamanız için seçtiğiniz zamanlarda size bildirim yollayacağız.",
"onboarding.review.habit" : "Alışkanlığını Gözden Geçir",
"onboarding.habit.review.title" : "Alışkanlık Değerlendirmesi",
"onboarding.habit.review.subtitle" : "Haftada {msg2} defa, {msg3} saatte {msg1} yapacaksın. Değiştirmek için aşağıdaki seçeneklere tıklayın.",
"onboarding.save.habit" : "Bu Alışkanlığı Kaydet",
"onboarding.save.habit.title" : "Alışkanlığını Kaydet",
"onboarding.save.habit.subtitle" : "Alışkanlıklarını kaydetmek için hesap oluştur. Bu sayede her şey tek bir dokunuşla geri getirilebilir.",
"onboarding.create.account" : "Hesap Oluştur",
"onboarding.create.later" : "Bunu Daha Sonra Yap",
"privacylock.enter.current.passcode" : "Eski parolanızı girin",
"privacylock.enter.new.passcode" : "Yeni parolanızı girin",
"privacylock.re.enter.new.passcode" : "Yeni parolanızı tekrar girin",
"privacylock.enter.passcode" : "Parolayı girin",
"privacylock.biometrics.fallback" : "Parola Kullan",
"privacylock.lock.instruction" : "Parmak İzi veya Parola",
"privacylock.fingerprint.unlock" : "Parmak İzi ile Kilidi Aç",
"privacylock.cancel.setup.confirmation" : "Gizlilik Kilidini aktifleştirmek için bir parola oluşturmalısınız. İptal etmek istiyor musunuz?",
"privacylock.fingerprint.unlock.error.message" : "Parmak izinizi tanıyamadık. Lütfen tekrar deneyin.",
"privacylock.passcode.unlock.error.message" : "Yanlış parola. Lütfen tekrar deneyin.",
"progress.empty.title" : "Numaralarla İlerleme Durumunuz",
"progress.empty.message" : "Daha berrak bir zihin ve daha sağlıklı bir vücut küçük bir alışkanlıkla başlar.",
"progress.empty.secondary.see.other" : "Demo İlerlemeye Bak",
"progress.most.popular.title" : "En Popüler",
"progress.most.popular.subtitle" : "Bu alışkanlıklar niçin mi popüler? Çünkü hayatları değiştirdiler!",
"progress.preview.checkin.time.title" : "Kontrol Zamanı",
"progress.preview.checkin.time.subtitle" : "Kullanılmayan saatleri yeni alışkanlıklar ile kıymetlendirin",
"progress.preview.weekly.progress.title" : "Alışkanlığın Hedefi",
"progress.preview.weekly.progress.subtitle" : "Planınıza uymak için günlük ve haftalık hedeflerinizi kontrol edin",
"progress.preview.completion.rate.title" : "Tamamlama Oranı",
"progress.preview.completion.rate.subtitle" : "Aylık veya yıllık olarak genel performansınıza göz atın",
"progress.preview.daily.performance.title" : "Günlük Performans",
"progress.preview.daily.performance.subtitle" : "En az aktif olduğunuz günü bulun",
"progress.preview.yearly.graph.title" : "Alışkanlık Karşılaştırması",
"progress.preview.yearly.graph.subtitle" : "Alışkanlıklarınızı günlük ve yıllık seçenekler ile karşılaştırın",
"progress.overall" : "Genel",
"progress.notes" : "Notlar",
"progress.based.on.completion.rate" : "Tamamlanma Oranına Göre",
"progress.screen.name" : "İlerleme",
"progress.view.all" : "Tümünü Görüntüle",
"progress.empty.habit.title" : "Henüz alışkanlığınız bulunmamaktadır.",
"progress.empty.habit.message" : "Haydi, anlaşılır tablolar için ilkini oluştur",
"progress.checkin.time" : "Giriş Zamanı",
"progress.today.habits" : "Bugünün Alışkanlıkları",
"progress.streaks" : "Seriler",
"progress.daily.performance" : "Günlük Performans",
"progress.weekly.goal" : "Haftalık Hedef",
"progress.empty.note.title" : "Henüz notunuz yok!",
"progress.empty.note.message" : "Not eklemek istediğiniz gün için \"bugün\", \"dün\", \"1 Mart\" gibi ifadeler kullanabilirsiniz.",
"progress.empty.note.placeholder" : "Hadi notuna \"dün\" yazarak başla.",
"progress.empty.note.web.message" : "Sadece yaz ve gönder, samimi bir arkadaşınla konuşurmuşçasına",
"progress.empty.note.web.message" : "Sadece yaz ve gönder, samimi bir arkadaşınla konuşurmuşçasına",
"progress.siri.shortcut" : "Siri Kısayolları",
"progress.siri.shortcut.message" : "Sadece sesinizi kullanarak alışkanlıklarınızı tamamlandı olarak işaretleyin.",
"progress.weekly.goal.reached" : "Bu haftaki hedefinize ulaştınız!",
"progress.weekly.goal.not.started" : "Başlamak kazanmanın yarısıdır.",
"progress.weekly.goal.half" : "Neredeyse tamam, devam et!",
"progress.streak.level.message.1" : "Seri oluşturmak için bugünden başla",
"progress.streak.level.message.2" : "Serini korumak için \"atla\"yı kullan!",
"progress.streak.level.message.3" : "Yakıyorson!",
"progress.streak.level.message.4" : "Sadece {num} gün kaldı!",
"progress.streak.level.message.5" : "Büyük başarılar küçük adımlar ile elde edilir",
"progress.streak.level.message.6" : "Durdurulamazsınız!",
"progress.streak.level.message.7" : "İşte gördünüz mü? Başarabilirsiniz!",
"progress.streak.level.message.8" : "İlk haftayı geçtin! Tebrikler!",
"progress.streak.level.message.9" : "{num} gün önce, işin başındaydınız.",
"progress.streak.level.message.10" : "Buraya kadar çok iyi geldin, sakın pes etme.",
"progress.streak.level.message.11" : "Çok yoruldun, ama buna değer.",
"progress.streak.level.message.12" : "Devam. Devam. Devam.",
"progress.streak.level.message.13" : "Kendinle gurur duymalısın!",
"progress.streak.level.message.14" : "Yarısına geldiniz! Devam edin!",
"progress.streak.level.message.15" : "Ustalaşmak için {num} gün kaldı!",
"progress.streak.level.message.16" : "Bir haftadan az kaldı!",
"progress.streak.level.message.17" : "Ne kadar ilerlediğine bir bak istersen!",
"progress.streak.level.message.18" : "Bu harika!",
"progress.streak.level.message.19" : "Bu kadarını nasıl başardın?",
"progress.streak.level.message.20" : "Sadece. Bir. Gün. Kaldı.",
"progress.streak.level.message.21" : "Bu alışkanlığı başarıyla oluşturdun!",
"progress.streak.level.message.22" : "Bu alışkanlığı gözü kapalı bile yapabilirsin!",
"progress.streak.level.message.23" : "9 hafta! İnanılır gibi değil!",
"progress.streak.level.message.24" : "Bu alışkanlığı 3 aydır tamamlıyorsun!",
"progress.today.message.empty.1" : "Yapacağın şey 0’dan 1’e kadar saymak gibi.",
"progress.today.message.empty.2" : "Sadece tek bir alışkanlık için sizinle bahse girmek istiyoruz. Var mısınız yok musunuz?",
"progress.today.message.one.left.1" : "Sadece. Bir. Tane!",
"progress.today.message.one.left.2" : "Hiç bir dağ aşılamayacak kadar yüksek değildir.",
"progress.today.message.completed.1" : "Harikasın! Bizi şaşırtmaya devam et lütfen!",
"progress.today.message.completed.2" : "Şimdi kuvvetli bir alkışı hak ettiniz!",
"progress.today.message.completed.3" : "Bugünkü tüm alışkanlıklar tamamlandı!",
"progress.today.message.one" : "Çok kolay, değil mi? Yenisine ne dersin?",
"progress.today.message.two.half.1" : "Kesinlikle durdurulamazsınız!",
"progress.today.message.two.half.2" : "Az da olsa ilerleme > yerinde sayma.",
"progress.today.message.two.half.3" : "Harikasınız!",
"progress.today.message.two.half.4" : "Bugün de yakıyorsun ortalığı, böyle devam et!",
"progress.today.message.two.half.5" : "Kendinizi iyi hissetemiyorsan atla'ya tıklayın. Kimse size karışamaz.",
"progress.today.message.two.half.6" : "Seni öldürmeyen şey, seni savaşçı yapar!",
"progress.today.message.half.1" : "Yarısı halloldu. Kalanı daha kolay.",
"progress.today.message.half.completed.1" : "Bir alışkanlık edinmek kendinize verdiğiniz sözü tutmak gibidir.",
"progress.today.message.half.completed.2" : "Aynaya bak. Bu kişi saygı değer biri!",
"progress.today.message.half.completed.3" : "Günün yıldızı: Siz!",
"progress.today.message.half.completed.4" : "Listeni tamamlamana çok az kaldı!",
"progress.today.message.half.completed.5" : "“Hiçbir zorluk seni yolundan alıkoymamalı” -O. Peduk",
"progress.in.app.review.title" : "Habitify hoşunuza gitti mi?",
"progress.in.app.review.description" : "Uygulamamızı nasıl değerlendirirsiniz?",
"progress.in.app.review.one.star" : "Görünen o ki gitmemiz gereken çok yol var. Bizimle görüşlerinizi paylaşabilir misiniz?",
"progress.in.app.review.three.star" : "Oylama için teşekkürler! Diğer 2 yıldızı almak için başka neler yapmalıyız?",
"progress.in.app.review.four.star" : "Harika! Sevdiğinize sevindik. Bize destek olmak için yorum yapabilir misiniz?",
"progress.in.app.review.five.star" : "Harika! Uygulamamızın daha çok insana ulaşması için kısa bir değerlendirme yazar mısınız?",
"progress.in.app.review.action.write.review" : "Görüş Bildir",
"progress.in.app.review.action.send.feedback" : "Geri Bildirim Gönder",
"settings.icloud.connected" : "iCloud hesabınızla eşitlendi",
"settings.not.synced" : "Verileriniz henüz eşitlenmedi",
"settings.change.name" : "Adı Değiştir",
"settings.translate" : "Habitify’ı tercüme et",
"settings.change.name.placeholder" : "Yeni adınızı girin",
"settings.knowledge.base" : "Bilgi Merkezi",
"settings.changelogs" : "Değişiklikler",
"settings.community" : "Kullanıcı Topluluğu",
"settings.app.badge" : "Uygulama Rozeti",
"settings.app.badge.time.of.day.explaination" : "Rozet sadece günün belirli bir zamanındaki (Sabah, Öğleden Sonra, Akşam) alışkanlıkları gösterir.",
"settings.app.badge.all.explaination" : "Rozet günün tüm alışkanlıklarını gösterir.",
"settings.app.badge.time.of.day" : "Vakte göre alışkanlık sayısı",
"settings.app.badge.all.habit" : "Tamamlanması gereken alışkanlıkların sayısı",
"settings.sounds" : "Sesler",
"settings.sounds.reminder" : "Hatırlatıcı Sesi",
"settings.sounds.completion" : "Tamamlama Sesi",
"settings.subscribe.newsletter" : "Bültenimize Abone Olun",
"settings.export.data" : "Verileri Dışa Aktar",
"settings.reorder.habit" : "Alışkanlıkları yönet",
"settings.in.app.sound" : "Uygulama İçi Sesler",
"settings.notifications" : "Bildirimler",
"settings.upgrade" : "Premium'a Yükselt",
"settings.account" : "Hesap",
"settings.follow.twitter" : "Bizi Twitter'da takip edin",
"settings.follow.instagram" : "Bizi Instagram’da takip edin",
"settings.screen.name" : "Ayarlar",
"settings.first.day.of.week" : "Haftanın İlk Günü",
"settings.privacy.lock" : "Parola Kilidi",
"settings.daily.reminder" : "Günlük Hatırlatma",
"settings.support" : "Destek Ekibi ile İletişime Geç",
"settings.rate.on.appstore" : "App Store'da bize puan verin!",
"settings.spread.the.word" : "Uygulamayı Paylaş",
"settings.acknowledgements" : "Yasal",
"settings.sign.out" : "Oturumu Kapat",
"settings.reset.habit.data" : "Alışkanlık Verisini Sıfırla",
"settings.reset.habit.confirmation" : "Alışkanlık adları korunurken, ilerleme ve notlar kalıcı olarak silinecek. Devam etmek istiyor musunuz?",
"settings.reset.habit.completed" : "Tüm alışkanlık verileriniz sıfırlandı.",
"settings.delete.all.habit.data" : "Tüm Veriyi Sil",
"settings.delete.all.habit.confirmation" : "Tüm alışkanlık isimleriyle beraber, ilerlemeler ve notlar da kalıcı olarak silinicek. Hala devam etmek istiyor musunuz?",
"settings.delete.all.habit.completed" : "Tüm alışkanlık verileriniz sıfırlandı.",
"settings.sign.up.message" : "Hesabınızı Email ya da Facebook ile bağlamanız durumunda bütün verileriniz korunaklı olarak sunucularımızda yedeklenecek.",
"settings.sign.up" : "Yeni Hesap Oluştur",
"settings.sign.in" : "Mevcut bir hesap ile oturum aç",
"settings.account.linking" : "Hesap Bağlama",
"settings.account.message" : "Hesabınızı Email ya da Facebook ile bağlamanız durumunda bütün verileriniz korunaklı olarak sunucularımızda yedeklenecek.",
"settings.unlink.facebook.confirmation" : "Artık Facebook ile giriş yapmanız mümkün olmayacak. Devam etmek istiyor musunuz?",
"settings.unlink.facebook.action" : "Facebook bağlantısını kaldır",
"settings.unlink.email.confirmation" : "Artık bu email ile giriş yapmanız mümkün olmayacak. Devam etmek istiyor musunuz?",
"settings.unlink.email.action" : "Bağlantıyı kaldır",
"settings.status.free" : "Ücretsiz Üye",
"settings.status.premium.life.time" : "Premium (Ömür boyu)",
"settings.status.premium.expire.at" : "Premium ({msg})",
"settings.snooze.duration" : "Erteleme Süresi",
"settings.notification.sound" : "Bildirim Sesi",
"settings.daily.breifing" : "Günlük Özet",
"settings.dailf.briefing.morning.description" : "Her sabah saat 7’de kaç tane alışkanlığın olduğunu ve hangi alışkanlığa odaklanman gerektiğini sana bildireceğiz.",
"settings.dailf.briefing.evening.description" : "Günlük ilerlemeni ve yeni rekorunu özetleyeceğiz.",
"settings.data.management" : "Veriyi Yönet",
"settings.no.email.provided" : "E-posta Sağlanmadı",
"settings.subscription.info" : "Abonelik Bilgileri",
"settings.download.mac.app" : "Mac için Habitify'ı İndirin",
"settings.privacy.lock.enabled" : "Parolayı Aç",
"settings.unlock.with" : "{msg} ile kilidi aç",
"settings.change.passcode" : "Şifreyi Değiştir",
"settings.dark.mode" : "Karanlık Mod",
"settings.dark.mode.preview.title" : "Yalnızca Önizleme",
"settings.dark.mode.preview.message" : "Gece Modu sadece Pro kullanıcılar içindir. Uygulamaya bir sonraki girişinizde Gece Modu kapatılacaktır. Gece Modu'nu varsayılan olarak ayarlamak için Pro Üye olun.",
"settings.dark.mode.upgrade.cta" : "Pro Hakkında",
"settings.newsletter.request.title" : "İlk Bilen Sen Ol",
"settings.newsletter.request.subtitle" : "Güncellemeleri e-mail ile almak için bültenimize abone olun...",
"settings.newsletter.request.later" : "Daha Sonra Anımsat",
"settings.newsletter.acknowledment.title" : "Teşekkürler",
"settings.newsletter.acknowledment.subtitle" : "Mail listemize ekledik, haberlerimizi ve özel tekliflerimizi ilk duyanlardan olacaksınız.",
"settings.no.account.connected" : "Bağlanılmış Hesap Yok",
"settings.account.status.free" : "Durum: Ücretsiz",
"settings.account.status.pro.lifetime" : "Durum: Pro (ömür boyu)",
"settings.account.status.valid.until" : "Durum: Pro ({msg} 'e kadar)",
"settings.social.share.content" : "Habitify, günlük alışkanlıklarınızın üstesinden gelmek için harika bir yardımcı! İndirmeye değer!",
"settings.sign.out.confirmation" : "Oturumunuzu kapatmak istediğinize emin misiniz?",
"settings.fingerprint.not.setup" : "Bu özelliği aktifleştirmek için lütfen telefonunuzun ayarlarından parmak izinizi ekleyin.",
"settings.general" : "Genel",
"settings.app.settings" : "Uygulama Ayarları",
"settings.language" : "Dil",
"settings.payment" : "Ödeme",
"settings.new.password" : "Yeni Parola",
"settings.re.enter.new.password" : "Yeni parolayı tekrar girin",
"settings.current.password" : "Mevcut Parola",
"settings.current.plan" : "Mevcut planınız",
"settings.change.plan" : "Planı değiştir",
"settings.cancel.subscription" : "Aboneliği İptal Et",
"timegoal.picker.benefit" : "{msg} için bir hedef seç. Daha sonra onun için geçirdiğin zamanı kontrol et.",
"timegoal.save.goal" : "Hedefi Kaydet",
"timegoal.session.discard.title" : "Oturumu At",
"timegoal.session.discard.message" : "Bu oturum için mevcut ilerlemeniz kaydedilmeyecek.",
"timegoal.session.completed" : "Oturum Tamamlandı",
"timegoal.session.completed.message" : "%1@, %2@ olarak giriş yapıldı.",
"timegoal.log.session" : "Oturum Kaydı",
"timegoal.view.sessions" : "Oturumlara Göz At",
"timegoal.completion.time" : "Tamamlanma Vakti",
"timegoal.duration" : "Süre",
"timegoal.duration.placeholder" : "Değer Girin",
"timegoal.time.spent" : "Geçirilen Zaman",
"timegoal.discarded.session" : "Kaydedilmeyen Oturumlar",
"timegoal.break.down" : "İptal Et",
"timegoal.setup.suggestion.message" : "Bu alışkanlık üzerinde ne kadar zaman geçirdiğinizi takip etmek bir hedef oluşturun.",
"timegoal.setup.suggestion.action" : "Hedef Oluştur",
"timegoal.longest.session" : "En Uzun Oturum",
"timegoal.custom.time.goal" : "Zaman Hedefini Özelleştir",
"timegoal.setup.benefit" : "Zaman Hedefi alışkanlıklar üzerine harcadığınız zamanı kontrol etmenize yardımcı olur. Günlük ekranından veya bildirimlerden zamanlayıcıyı başlatabilirsiniz.",
"timegoal.no.required" : "Bugün serbest gününüz",
"timegoal.start.new.timer" : "Yeni bir zamanlayıcı başlat",
"timegoal.empty.session" : "Hiç bir oturum kaydedilmedi",
"timegoal.timer.duration.instruction" : "{msg} için zaman seçmek için cetveli kaydırın.",
"upgrade.screen.name" : "Yükselt",
"upgrade.cannot-connect" : "iTunes Store'a erişilemiyor.",
"upgrade.restore.failed.title" : "Satın almaları geri yükleme başarısız",
"upgrade.restore.failed.message" : "Satın alımlarınızı geri yükleyemedik. Lütfen tekrar deneyin veya destek ekibimizle iletişime geçin.",
"upgrade.restored.title" : "Satın Almalar Geri Yüklendi",
"upgrade.restored.message" : "Daha önce satın alınan ürünler geri yüklendi.",
"upgrade.prompt.habit.limited.title" : "Hadi, daha fazla alışkanlık için yükseltelim!",
"upgrade.prompt.habit.limited.message" : "Habitify Premium dördüncü, beşinci hatta yüzüncü alışkanlığınızı eklemenize imkan tanır. Ayrıca birden fazla hatırlatıcılar ile gün tamamlanmadan alışkanlıklarınızı tamamlarsınız.",
"upgrade.prompt.reminder.limited.title" : "Hadi hatırlatıcılar için hesabı yükseltelim!",
"upgrade.prompt.reminder.limited.message" : "Habitify Premium tek bir alışkanlık için birden fazla hatırlatıcı kurmanızı sağlar. Aynı zamansa sınırsız alışkanlık ile hayatınızdaki her şeyin daha düzenli olmasını sağlar.",
"upgrade.prompt.export.data.title" : "Hadi verileri dışarı aktarmak için hesabı yükseltelim!",
"upgrade.prompt.export.data.message" : "Habitify Premium size alışkanlıklarınızın ismini, durumunu, tarihini ve notlarınızı dışarı aktarmanıza izin verir. Belki daha iyi analiz edersiniz diye. :)",
"upgrade.prompt.cta" : "Premium Hakkında",
"upgrade.cta" : "Premium Sürümüne Yükselt",
"upgrade.monthly.price.with" : "{msg}/ay",
"upgrade.restore.purchases" : "Satın Alınanları Geri Yükle",
"useractivities.completed.withName" : "{msg} tamamlandı",
"useractivities.skipped.withName" : "{msg} atlandı",
"useractivities.undone.withName" : "{msg} tamamlanmadı",
"useractivities.view.current.time.of.day" : "Mevcut Alışkanlıklar",
"useractivities.view.all" : "Tüm Alışkanlıklar",
"useractivities.add.note.for" : "{msg} için Not Ekle",
"useractivities.view.progress" : "İlerlemeyi Görüntüle",
"useractivities.view.progress.of" : "{msg} görüntüle",
"plurals.day.per.week" : "Haftada 0 gün | Haftada {num} gün | Haftada {num} gün",
"plurals.streak" : "0 seri | {num} seri | {num} seri",
"plurals.more" : "0 daha fazlası | {num} daha fazlası | {num} daha fazlası",
"plurals.time.of.day.notification.group" : "Bu {msg} için no tane daha alışkanlık | Bu {msg} için {u1} tane daha alışkanlık | Bu {msg} için {u1} tane daha alışkanlık",
"plurals.interval.day" : "Her 0 günde bir | Her {num} günde bir | Her {num} günde bir",
"plurals.streak.day" : "0 günlük seri! | {num} günlük seri! | {num} günlük seri!",
"plurals.month" : "0 ay | {num} ay | {num} ay",
"plurals.passed.week" : "Son 0 hafta | Son {num} hafta | Son {num} hafta",
"plurals.passed.days" : "Son 0 gün | Son {num} gün | Son {num} gün",
"plurals.times" : "0 defa | {num} defa | {num} defa",
"plurals.streak.day.journal" : "0 gün seri | {num} gün seri | {num} gün seri",
"plurals.habit.remaining" : "0 alışkanlığın 0 tanesi tamamlandı | {num1} alışkanlığın {num} tanesi tamamlandı | {num1} alışkanlığın {num} tanesi tamamlandı",
"quote.widget.1.msg" : "First we make our habits, then our habits make us",
"quote.widget.1.auth" : "Charles C. Noble",
"quote.widget.2.msg" : "We are what we repeatedly do; excellence, then, is not an act but a habit",
"quote.widget.2.auth" : "Aristotle",
"quote.widget.3.msg" : "Character is habit long continued",
"quote.widget.3.auth" : "Greek",
"quote.widget.4.msg" : "There is no influence like the influence of habit",
"quote.widget.4.auth" : "Gilbert Parker",
"quote.widget.5.msg" : "Motivation is what gets you started. Habit is what keeps you going",
"quote.widget.5.auth" : "Jim Ryun",
"quote.widget.6.msg" : "Habit with it's iron sinews, clasps us and leads us day by day",
"quote.widget.6.auth" : "Alphonse de Lamartine",
"quote.widget.7.msg" : "Powerful indeed is the empire of habit",
"quote.widget.7.auth" : "Publilius Syrus",
"quote.widget.8.msg" : "Nothing is more powerful than custom or habit",
"quote.widget.8.auth" : "Ovid",
"quote.widget.9.msg" : "Winners make a habit of doing the things losers don't want to do",
"quote.widget.9.auth" : "Lucas Remmerswaal",
"quote.widget.10.msg" : "Great habits sharpen our thoughts and make us great",
"quote.widget.10.auth" : "Debasish Mridha",
"quote.widget.11.msg" : "You will never change your life until you change something you do daily",
"quote.widget.11.auth" : "John C. Maxwell",
"quote.widget.12.msg" : "Successful people are simply those with successful habits",
"quote.widget.12.auth" : "Brian Tracy",
"quote.widget.13.msg" : "Nothing is stronger than a habit",
"quote.widget.13.auth" : "Ovid",
"quote.widget.14.msg" : "Habit is the intersection of knowledge, skill and desire",
"quote.widget.14.auth" : "Stephen Covey",
"quote.widget.15.msg" : "Good habits are worth being fanatical about",
"quote.widget.15.auth" : "John Irving",
"quote.widget.16.msg" : "The best gifts anyone can give to themselve are good health habits",
"quote.widget.16.auth" : "Ellen J. Barrier",
"quote.widget.17.msg" : "Cultivate only the habits that you are willing should master you",
"quote.widget.17.auth" : "Elbert Hubbard",
"quote.widget.18.msg" : "The easier it is to do, the harder it is to change",
"quote.widget.18.auth" : "Eng’s Principle",
"quote.widget.19.msg" : "A year from now you may wish you had started today",
"quote.widget.19.auth" : "Karen Lamb",
"quote.widget.20.msg" : "Quality is not an act, it is a habit",
"quote.widget.20.auth" : "Aristotle",
"quote.widget.21.msg" : "Our character is basically a composite of our habits",
"quote.widget.21.auth" : "Stephen Covey",
"quote.widget.22.msg" : "A change in bad habits leads to a change in life",
"quote.widget.22.auth" : "Jenny Craig",
"quote.widget.23.msg" : "Chains of habit are too light to be felt until they are too heavy to be broken",
"quote.widget.23.auth" : "Warren Buffet",
"quote.widget.24.msg" : "Good habits formed at youth make all the difference",
"quote.widget.24.auth" : "Aristotle"
}