{
"authentication.error.network.title" : "Помилка мережі",
"authentication.error.unknown.title" : "О ні! Щось пішло не так!",
"authentication.error.authentication.email.existed.message" : "Цю електронну скриньку вже зайнято! Будь ласка, спробуйте іншу",
"authentication.error.authentication.wrong.email.format.message" : "Неправильний формат електронної пошти",
"authentication.error.authentication.wrong.email.or.password.message" : "Неправильна адреса ел. скриньки або гасло",
"authentication.error.authentication.user.cancelled.facebook.message" : "Вхід скасовано",
"authentication.error.authentication.email.not.provided.facebook.message" : "Ваша електронна адреса не дійсна! Увійдіть на сайт іншим способом",
"authentication.error.forgot.password.email.doesnt.exist.message" : "Упс! Такої електронної адреси не існує.",
"authentication.sync-data-description" : "Створіть обліковку для збереження і синхронізації всіх ваших звичок!",
"authentication.connect-facebook" : "Увійти через Facebook",
"authentication.sign-up-email" : "Зареєструватися через ел. скриньку",
"authentication.sign-in-email" : "У мене вже є обліковий запис",
"authentication.skip" : "Пропустити",
"authentication.sign.up" : "Створити новий обліковий запис",
"authentication.agree.term" : "Зареєструвавшись, ви погоджуєтесь з нашою політикою конфіденційності",
"authentication.forgot.password" : "Забули гасло?",
"authentication.forgot.password.title" : "Відновити гасло",
"authentication.forgot.password.sent.message" : "Ми щойно надіслали вам лист! Перейдіть за посиланням, аби відновити гасло.",
"authentication.reset.password" : "Скинути гасло",
"authentication.sign.in.title" : "Увійти до Habitify",
"authentication.sign.in.description" : "Увійдіть за допомогою свого облікового запису для безшовної синхронізації між кількома пристроями. Якщо ви вже маєте обліковий запис у Habitify iOS, увійдіть тут.",
"authentication.sign.up.title" : "Створити новий обліковий запис",
"authentication.sign.up.description" : "Створіть нову обліковку або ввійдіть через Facebook, аби зберегти ваші дані й синхронізувати їх між кількома пристроями.",
"authentication.sign.in.with.facebook" : "Увійти через Facebook",
"authentication.sign.up.with.facebook" : "Увійти через Facebook",
"authentication.sync.title" : "Синхронізація між пристроями",
"authentication.sync.mobile.instruction" : "Аби синхронізувати дані на iPhone, iPad та Apple Watch, зайдіть у налаштування і ввійдіть у систему з тією ж обліковкою.",
"authentication.invalid.email.title" : "Неправильна адреса ел. скриньки?",
"authentication.invalid.email.subtitle" : "{msg} неправильна адреса електронної пошти. Будь ласка, перевірте ще раз, позаяк вона вам пізніше знадобиться для скидання гасла та синхронізації.",
"authentication.invalid.email.action.continue" : "Користати цю ел. скриньку",
"common.retry" : "Спробувати ще раз",
"common.privacy.policy" : "Політика конфіденційності",
"common.terms.of.use" : "Умови використання",
"common.contact.us" : "Зв’яжіться з нами",
"common.fail" : "Невдача",
"common.failed" : "Не виконано",
"common.undo.fail" : "Скасувати невдачу",
"common.skip" : "Пропустити",
"common.skipped" : "Пропущено",
"common.undo.skip" : "Скасувати пропуск",
"common.complete" : "Завершити",
"common.completed" : "Завершено",
"common.undo.complete" : "Скасувати завершення",
"common.monthly" : "Щомісяця",
"common.yearly" : "Щороку",
"common.discard" : "Прибрати",
"common.archive" : "Архівувати",
"common.unarchive" : "Розархівувати",
"common.archived" : "Заархівовано",
"common.delete" : "Вилучити",
"common.later" : "Пізніше",
"common.content.default" : "Типово",
"common.empty.habit.general" : "Наразі тут немає звичок!",
"common.commit" : "Commit",
"common.cancel" : "Скасувати",
"common.today" : "Сьогодні",
"common.on" : "Увімкнути",
"common.off" : "Вимкнути",
"common.close" : "Закрити",
"common.save" : "Зберегти",
"common.edit" : "Змінити",
"common.prev" : "Назад",
"common.next" : "Далі",
"common.back" : "Назад",
"common.done" : "Виконано",
"common.select" : "Обрати",
"common.morning" : "Ранок",
"common.afternoon" : "День",
"common.evening" : "Вечір",
"common.anytime" : "Будь-який час",
"common.all.habit" : "Усі звички",
"common.current.streak" : "Поточна серія",
"common.longest.streak" : "Найдовша серія",
"common.completion.rate" : "Показник завершених",
"common.total.completion" : "Усі завершені",
"common.all.time" : "Увесь час",
"common.weekends" : "Вихідні",
"common.everyday" : "Щодня",
"common.weekdays" : "Будні",
"common.loading" : "Завантаження",
"common.from.date" : "Від {msg}",
"common.add.note" : "Додати примітку",
"common.guest" : "Гість",
"common.pseudocode.email.placeholder" : "example@gmail.com",
"common.subscribe" : "Підписатися",
"common.full.name" : "Ім’я",
"common.email" : "Ел. скринька",
"common.password" : "Гасло",
"common.sign.up" : "Зареєструватися",
"common.sign.in" : "Увійти",
"common.show" : "Показати",
"common.hide" : "Сховати",
"common.see.more" : "Більше...",
"common.not.enough.data" : "Недостатньо даних",
"common.preferences" : "Налаштування",
"common.view.note" : "Глянути примітку",
"common.view.notes" : "Глянути примітки",
"common.delete.selected" : "Вилучити обрані",
"common.edit.note" : "Змінити примітку",
"common.general" : "Загальні",
"common.account" : "Обліковка",
"common.custom" : "Інший...",
"common.dismiss" : "Скасувати",
"common.create.habit" : "Створити звичку",
"common.this.week" : "Цей тиждень",
"common.last.week" : "Минулий тиждень",
"common.yesterday" : "Учора",
"common.this.month" : "Цей місяць",
"common.last.month" : "Минулий місяць",
"common.this.year" : "Цей рік",
"common.last.year" : "Минулий рік",
"common.weekly" : "Щотижня",
"common.average" : "Середній",
"common.snooze" : "Відкласти",
"common.camera" : "Камера",
"common.other" : "Інші",
"common.photo.library" : "Ґалерія",
"common.connect" : "Під’єднатися",
"common.connected" : "Під’єднано",
"common.search" : "Шукати",
"common.ok" : "Гаразд",
"common.passcode" : "Пароль",
"common.pause" : "Призупинити",
"common.stop" : "Зупинити",
"common.resume" : "Відновити",
"common.time.goal" : "Мета часу",
"common.start.timer" : "Запустити таймер",
"common.time" : "Час",
"common.daily.average" : "В середньому за день",
"common.weekly.average" : "В середньому за тиждень",
"common.monthly.average" : "В середньому за місяць",
"common.time.of.day" : "Час дня",
"common.start.of.day" : "Початок дня",
"common.start.of.day.description" : "Тут починається ваш ранок і закінчується вечір.",
"common.more" : "Більше",
"common.profile.settings" : "Профіль і налаштування",
"common.resources" : "Ресурси",
"common.tips.tricks" : "Поради та підказки",
"common.tomorrow" : "Завтра",
"common.send" : "Надіслати",
"common.save.changes" : "Зберегти зміни",
"common.create.new.habit" : "Створити нову звичку",
"common.save.habit" : "Зберегти звичку",
"common.common.feature.restricted" : "Функція вимкнена в цій демо-версії",
"common.common.demo.info.title" : "Інформація про демо-версію",
"common.common.demo.info.message" : "Ця версія Habitify була створена вийнятково з метою демонстрації. Будь-які введені вами дані будуть стерті в момент виходу з програми.",
"common.common.continue" : "Продовжити",
"common.timer" : "Таймер",
"common.time" : "Час",
"common.minute.short" : "хв",
"edithabit.screen.name" : "Редаґувати звичку",
"edithabit.name" : "Ім’я",
"edithabit.repeat" : "Повторити",
"edithabit.start.date" : "Дата початку",
"edithabit.reminder" : "Нагадування",
"edithabit.add.reminder" : "Додати нагадування",
"edithabit.daily" : "Щодня",
"edithabit.weekly" : "Щотижня",
"edithabit.interval" : "Інтервал",
"edithabit.delete.habit" : "Вилучити цю звичку",
"edithabit.delete.confirm.title" : "Підтвердження",
"edithabit.delete.confirm.message" : "Усі дані буде вилучено назавжди. Ви й досі бажаєте продовжити?",
"edithabit.delete" : "Вилучити",
"edithabit.archive.habit" : "Заархівувати звичку",
"edithabit.unarchive.habit" : "Розархівувати звичку",
"edithabit.time.of.day" : "Час дня",
"edithabit.copy.to.clipboard" : "Скопіювати до буферу",
"edithabit.copied" : "Скопійовано",
"edithabit.xcallback.read.more" : "Дізнатися більше про x-callback-url",
"edithabit.reminder.example" : "приклад: 9:00",
"edithabit.suggested" : "Пропоновані",
"edithabit.suggested.meditate" : "Медитація",
"edithabit.suggested.run" : "Біг",
"edithabit.suggested.core.training" : "Тренування",
"edithabit.suggested.read.book" : "Читати книжку",
"edithabit.suggested.learn.language" : "Вчити іноземну мову",
"edithabit.suggested.cardio" : "Кардіо",
"edithabit.suggested.yoga" : "Йога",
"edithabit.cancel.confirm.message" : "Усі незбережені дані буде втрачено. Бажаєте продовжити?",
"edithabit.delete.reminder" : "Вилучити це нагадування",
"edithabit.repeat.everyday" : "Повторювати щодня",
"edithabit.repeat.weekdays" : "Повторювати в будні",
"edithabit.repeat.weekend" : "Повторювати у вихідні",
"edithabit.repeat.specific.weekdays" : "Повторювати по: {msg}",
"edithabit.time.goal.disabled" : "Без бажаного часу",
"edithabit.time.goal.enabled" : "Мета {msg}",
"edithabit.time.of.day.any.time" : "Зробити в будь-який час",
"edithabit.time.of.day.specific" : "Зробити в {msg}",
"edithabit.start.date.from" : "Від {msg}",
"journal.empty.title" : "Початок кращого тебе!",
"journal.empty.message" : "Habits are like dominos. As one is formed, all others will follow!",
"journal.empty.secondary.see.other" : "See What Others are Forming",
"journal.empty.in.specific.day.title" : "A Pleasant Day with No Habit",
"journal.empty.in.specific.day.message" : "Relax and enjoy your day!",
"journal.screen.name" : "Журнал",
"journal.dismiss" : "Прибрати",
"journal.hide.completed" : "Сховати завершені",
"journal.show.completed" : "Показати завершені",
"journal.date.progress.empty.habit" : "Fill this bar up with your first habit",
"journal.date.progress.no.habit.in.day" : "Сьогодні звичок немає!",
"journal.date.progress.half" : "Ви на півдорозі!",
"journal.date.progress.one.left" : "Залишилася 1 звичка. Успіхів!",
"journal.date.progress.one.completed" : "All habits are completed!",
"journal.habit.message.failed" : "Іншим разом вийде!",
"journal.habit.message.skipped" : "Swipe left to note your reason",
"journal.habit.message.empty.checkins" : "Complete today to have the first streak",
"journal.not.visible.habit.start.date" : "{msg1} will be visible from {msg2} onwards",
"journal.not.visible.habit.regularly" : "{msg1} will be visible from {msg2} onwards",
"journal.not.visible.habit.time.of.day" : "{msg1} is not visible in {msg2}. Switch to All Habit to see it.",
"journal.new.habit" : "Нова звичка",
"manage.active.count" : "Активно ({num})",
"manage.archived.count" : "Архівовано ({num})",
"menubarapp.filter.by" : "Сортувати звички за:",
"menubarapp.quit" : "Вийти з Habitify Mini",
"newupgrade.title" : "Get Habitify Premium",
"newupgrade.package.popular" : "Популярне",
"newupgrade.package.best.value" : "Best Value",
"newupgrade.package.life-time" : "Назавжди",
"newupgrade.purchase.terms" : "Your iTunes Account will be charged at confirmation of purchase. Subscription will be auto-renewed. Your Account will be charged {msg} for renewal within 24-hours before current period ends. You can manage subscription & turn-off in Account Settings. Read our <a href='https://habitify.me/privacy-policy.html'>Privacy Policy</a> and <a href='https://habitify.me/terms-of-use.html'>Terms of Use</a>",
"newupgrade.purchase.life.time.terms" : "Your payment of {msg} will be charged to your iTunes account at confirmation of purchase. This is one-time payment. Once you have purchased this package, you’ll be entitled Premium membership forever, on all platforms, without having to pay anything else.",
"newupgrade.benefits.unlimited.habit.title" : "Необмежена кількість звичок",
"newupgrade.benefits.unlimited.habit.description" : "Become a well-rounded person by forming good habits in more areas of your life.",
"newupgrade.benefits.skip.title" : "Пропускайте звички",
"newupgrade.benefits.skip.description" : "Protect that dazzling and motivating streak of hard work by \"skipping\" your habit.",
"newupgrade.benefits.archive.title" : "Архівування звичок",
"newupgrade.benefits.archive.description" : "Keep your habit list clean and focused by archiving unwanted habits.",
"newupgrade.benefits.yearly.calendar.title" : "Річний календар",
"newupgrade.benefits.yearly.calendar.description" : "Have an overview of your well-being and performance with a yearly view option.",
"newupgrade.benefits.dark.mode.title" : "Темний режим",
"newupgrade.benefits.dark.mode.description" : "Дайте очам відпочити, перевіряючи свій поступ увечері.",
"newupgrade.benefits.export.data.title" : "Експортування даних",
"newupgrade.benefits.export.data.description" : "Discover new insights into yourself by exporting data to other analysis tools.",
"newupgrade.benefits.privacy.lock.title" : "Приватний режим",
"newupgrade.benefits.privacy.lock.description" : "Захистіть ваші дані за допомогою пароля, TouchID або FaceID.",
"newupgrade.benefits.notes.title" : "Примітки до звичок",
"newupgrade.benefits.notes.description" : "Quickly record your achievements and thoughts with messenger-styled notes.",
"newupgrade.benefits.unlimited.reminder.title" : "Необмежені нагадування",
"newupgrade.benefits.unlimited.reminder.description" : "Get reminded repeatedly to do a \"stubborn\" habit with unlimited reminders.",
"notification.snoozed.for" : "Відкладено на {msg}",
"notification.action.change.snooze.to" : "Відкласти на {msg}",
"notification.daily.briefing.morning.default.title" : "Доброго ранку, користувачу Habitify!",
"notification.daily.briefing.morning.default.message" : "Перевірте свої звички, аби розібратися з ними по черзі.",
"notification.daily.briefing.morning.title" : "Today Briefing",
"notification.daily.briefing.morning.single" : "Your only habit for today is {msg1} at {msg2}.",
"notification.daily.briefing.morning.no.habit.in.day" : "You have a free day with no habit! Enjoy some me-time!",
"notification.daily.briefing.morning.empty.habit.day.one.title" : "Перша звичка для вас!",
"notification.daily.briefing.morning.empty.habit.day.one.message" : "Meditate improves focus and mindfulness for a more productive day. Let’s do it!",
"notification.daily.briefing.morning.empty.habit.day.two.title" : "Our second habit for you!",
"notification.daily.briefing.morning.empty.habit.day.two.message" : "Morning exercises lead to a clearer mind and deeper sleep. Let’s create the habit today.",
"notification.daily.briefing.morning.empty.habit.fallback.title" : "Time for your Morning routine!",
"notification.daily.briefing.morning.empty.habit.fallback.message" : "A good morning routine makes you feel productive all day. Let’s create the first one!",
"notification.daily.briefing.evening.default.title" : "Як минає ваш день?",
"notification.daily.briefing.evening.default.message" : "Take notes of your achievements by swiping left on each habit. They will motivate you tomorrow!",
"notification.daily.briefing.evening.title" : "Сьогоднішній огляд",
"notification.daily.briefing.evening.completed.all" : "Ви завершили всі звички на сьогодні! Ура!",
"notification.daily.briefing.evening.completed.in.progress.2" : "Today’s report is ready for you. Let’s see how well you’re performing",
"notification.daily.briefing.evening.empty.habit.day.one.title" : "Час для вечірніх звичок!",
"notification.daily.briefing.evening.empty.habit.day.one.message" : "Медитація та читання книжки в рази покращує ваш сон. Спробуйте зайнятись цим всього по 5 хвилин.",
"notification.daily.briefing.evening.empty.habit.day.two.title" : "Час для вечірніх звичок!",
"notification.daily.briefing.evening.empty.habit.day.two.message" : "Successful people often write journals to reflect and prepare for the next day. Let it help you too.",
"notification.daily.briefing.evening.empty.habit.fallback.title" : "Час для вечірньої рутини!",
"notification.daily.briefing.evening.empty.habit.fallback.message" : "Медитуйте. Робіть розтягування. Записуйте до щоденника. Читайте книжку. Нумо формувати звички, які стануть корисними!",
"notification.daily.briefing.evening.break.record" : "You reached a new personal record today, check it out!",
"notification.daily.briefing.evening.weekly.single.habit.completed" : "You have completed this week’s goal of {msg}. Sweet!",
"notification.habit.one.streak" : "If you could do this habit once, you can do it twice!",
"notification.habit.zero.streak.empty.checkin" : "This is a new habit. Do it to get the first streak!",
"notification.habit.last.failed" : "Last time you failed this habit. Better do it to get back on track!",
"notification.habit.last.skipped" : "Last time you skipped this habit. Better do it to resume your winning streak!",
"notification.habit.last.none" : "Last time you didn’t complete this habit. Do it to get back on track!",
"notification.timer.running.title" : "Таймер запущено",
"notification.timer.running.body" : "%1@ session will end at %2@",
"notification.timer.completed.title" : "Сесію виконано",
"notification.timer.completed.body" : "Your %1@ session for %2@ has completed. Press to save.",
"notification.timer.cancelled.title" : "Сесію скасовано",
"notification.timer.cancelled.body" : "Your session for {msg} has been discarded because you’ve cleared Habitify in background.",
"onboarding.introduce.title" : "Ласкаво просимо до Habitify!",
"onboarding.introduce.description" : "Start forming awesome habits to get that perfect daily routine you've been dreaming of.",
"onboarding.step.easily-access.title" : "Easy Access",
"onboarding.step.easily-access.description" : "You can access Habitify effortlessly \nthrough your iPhone, iPad, Apple Watch \nand even Today Widget.",
"onboarding.action.get-started" : "Почніть",
"onboarding.introduce.continue" : "Start Tour",
"onboarding.select.habit" : "Оберіть одну звичку, щоб почати",
"onboarding.select.habit.assurance" : "No worries, you can change it later",
"onboarding.actions.action1" : "Great choice! Tap the tick button to mark the {msg} as completed",
"onboarding.actions.action2" : "Perfect! Want to see your progress?, tap the name of the habit",
"onboarding.stats.title.compact.height" : "Awesome! Scroll down to see more insightful graphs",
"onboarding.stats.title.regular.height" : "Great! Here is how well you have been doing recently",
"onboarding.stats.finish" : "Finish Tour",
"onboarding.tips.title" : "Чудово!",
"onboarding.tips.description" : "A few tips for you to use Habitify more effectively!",
"onboarding.tips.skip" : "Пропустити цей крок",
"onboarding.tips.swipe" : "Swipe to See More",
"onboarding.tips.sync.title" : "Sign up to keep data synced and intact even after you reset or change device",
"onboarding.tips.sync.action" : "Зареєструватися",
"onboarding.tips.notification.title" : "Never forget to check off a pending habit with reminder",
"onboarding.tips.notification.action" : "Увімкнути сповіщення",
"onboarding.tips.widget.title" : "Give yourself a quick boost with motivational quotes in Today Widget",
"onboarding.welcome.step1.title" : "Ласкаво просимо до Habitify",
"onboarding.welcome.step1.subtitle" : "We believe the world is more beautiful as each person gets better. Yep, that’s you.",
"onboarding.welcome.step2.title" : "Сформуйте стійкі звички",
"onboarding.welcome.step2.subtitle" : "Form all types of recurring habits and feel motivated every time your streaks go up.",
"onboarding.welcome.step3.title" : "Звільніть свій розум",
"onboarding.welcome.step3.subtitle" : "Go mind-free all day with daily briefings and timely reminders.",
"onboarding.welcome.step4.title" : "Ставайте кращим щодня",
"onboarding.welcome.step4.subtitle" : "Відслідковуйте дні, про які ви забули чи пропустили, і пам'ятайте заповнити їх наступного разу.",
"onboarding.welcome.sign.in" : "Already have an account? {msg1}",
"onboarding.introduce.skip" : "Skip Tour",
"onboarding.tips.action" : "Створіть свою першу звичку",
"onboarding.pick.habit.title" : "Оберіть звичку",
"onboarding.pick.habit.subtitle" : "4 з 10 людей мають нагадування читати книжку в своєму переліку звичок.",
"onboarding.pick.habit.not.found" : "Власна звичка",
"onboarding.pick.frequency.title" : "Оберіть частоту",
"onboarding.pick.frequency.subtitle" : "Starting with 2-3 times per week raises your success rate considerably.",
"onboarding.pick.reminder.title" : "Оберіть час",
"onboarding.pick.reminder.subtitle" : "Ви отримаєте нагадування зробити вашу звичку у вказаний час.",
"onboarding.review.habit" : "Переглянути свою звичку",
"onboarding.habit.review.title" : "Огляд звички",
"onboarding.habit.review.subtitle" : "You’re going to {msg1} {msg2} at {msg3}. Tap any option below to change.",
"onboarding.save.habit" : "Зберегти цю звичку",
"onboarding.save.habit.title" : "Збережіть свою звичку",
"onboarding.save.habit.subtitle" : "Create an account to save your habits. Everything can be restored at a tap.",
"onboarding.create.account" : "Створити обліковку",
"onboarding.create.later" : "Зробити це пізніше",
"privacylock.enter.current.passcode" : "Уведіть поточний пароль",
"privacylock.enter.new.passcode" : "Уведіть новий пароль",
"privacylock.re.enter.new.passcode" : "Уведіть новий пароль ще раз",
"privacylock.enter.passcode" : "Уведіть пароль",
"privacylock.biometrics.fallback" : "Використовуйте пароль Habitify",
"privacylock.lock.instruction" : "Відбиток пальця або пароль",
"privacylock.fingerprint.unlock" : "Розблокуйте відбитком пальця",
"privacylock.cancel.setup.confirmation" : "Вам треба встановити пароль, аби ввімкнути функцію \"Приватний режим\". Бажаєте все скасувати?",
"privacylock.fingerprint.unlock.error.message" : "Ми не розпізнали ваш відбиток пальця. Будь ласка, спробуйте ще раз.",
"privacylock.passcode.unlock.error.message" : "Уведений пароль неправильний. Будь ласка, спробуйте ще раз.",
"progress.empty.title" : "Ваш поступ у цифрах",
"progress.empty.message" : "Чіткий розум і здорове тіло починається з однієї маленької звички.",
"progress.empty.secondary.see.other" : "Ознайомитися з демо-прогресом",
"progress.most.popular.title" : "Найпопулярніші",
"progress.most.popular.subtitle" : "Ці звички популярні тому, що кардинально змінили життя!",
"progress.preview.checkin.time.title" : "Час старту",
"progress.preview.checkin.time.subtitle" : "Заповни свій вільний час корисними звичками",
"progress.preview.weekly.progress.title" : "Мета звички",
"progress.preview.weekly.progress.subtitle" : "Перевірте свої цілі на день і тиждень, щоб діяти по плану",
"progress.preview.completion.rate.title" : "Показник завершених",
"progress.preview.completion.rate.subtitle" : "Перевірте свої результати за тиждень або місяць",
"progress.preview.daily.performance.title" : "Активність за день",
"progress.preview.daily.performance.subtitle" : "Згадай найменш ефективний день, щоб сфокусуватися на ньому",
"progress.preview.yearly.graph.title" : "Звичка",
"progress.preview.yearly.graph.subtitle" : "Перегляньте і порівняйте свої звички з місячним і річним переглядом",
"progress.overall" : "Усього",
"progress.notes" : "Примітки",
"progress.based.on.completion.rate" : "Виходячи з коефіцієнту виконання",
"progress.screen.name" : "Поступ",
"progress.view.all" : "Показати все",
"progress.empty.habit.title" : "У вас поки що немає жодної звички.",
"progress.empty.habit.message" : "Створіть одну і побачите красиві графіки",
"progress.checkin.time" : "Час старту",
"progress.today.habits" : "Звички на сьогодні",
"progress.streaks" : "Серії",
"progress.daily.performance" : "Статистика за день",
"progress.weekly.goal" : "Мета на тиждень",
"progress.empty.note.title" : "Нотатки наразі відсутні!",
"progress.empty.note.message" : "Ви можете користати слова «сьогодні», «вчора», або «1 березня» для швидкого додавання приміток до цього дня.",
"progress.empty.note.placeholder" : "Може спробуємо почати зі \"вчора\"?",
"progress.empty.note.web.message" : "Просто пишіть і натисніть надіслати, як у чаті",
"progress.empty.note.web.message" : "Просто пишіть і натисніть надіслати, як у чаті",
"progress.siri.shortcut" : "Ярлик Siri",
"progress.siri.shortcut.message" : "Швидко позначте звичку як закінчену, своїм голосом.",
"progress.weekly.goal.reached" : "Ви досягли мети цього тижня!",
"progress.weekly.goal.not.started" : "Справив діло, гуляй сміло.",
"progress.weekly.goal.half" : "Лишилось зовсім трішки, продовжуй!",
"progress.streak.level.message.1" : "Почніть сьогодні, аби мати першу серію",
"progress.streak.level.message.2" : "Тисніть «Пропустити», аби не порушити серії!",
"progress.streak.level.message.3" : "Ви просто красень!",
"progress.streak.level.message.4" : "Залишилося всього {num} дн.!",
"progress.streak.level.message.5" : "Нараз Рим не збудували",
"progress.streak.level.message.6" : "Вас не спинити!",
"progress.streak.level.message.7" : "Бачите? У вас виходить!",
"progress.streak.level.message.8" : "Ви скінчили перший тиждень! Вітаємо!",
"progress.streak.level.message.9" : "Ви почали {num} дн. тому.",
"progress.streak.level.message.10" : "Шлях був довгим, не спиняйтесь.",
"progress.streak.level.message.11" : "Ви наполегливо йшли до мети, і ось поступ.",
"progress.streak.level.message.12" : "Давай, давай, давай.",
"progress.streak.level.message.13" : "Вам слід пишатися собою!",
"progress.streak.level.message.14" : "Ви на півдорозі! Не спиняйтесь!",
"progress.streak.level.message.15" : "Залишилось {num} для формування цієї звички!",
"progress.streak.level.message.16" : "Лишилось менше тижня!",
"progress.streak.level.message.17" : "Гляньте, як далеко ви зайшли!",
"progress.streak.level.message.18" : "Це неймовірно!",
"progress.streak.level.message.19" : "Як вам це вдалося?",
"progress.streak.level.message.20" : "Лишився. Всього. День.",
"progress.streak.level.message.21" : "Ви успішно сформували цю звичку!",
"progress.streak.level.message.22" : "Для вас це як Сірку муху з’їсти!",
"progress.streak.level.message.23" : "9 тижнів! Ви собі можете уявити?",
"progress.streak.level.message.24" : "Ви робите цю звичку вже 3 місяці поспіль!",
"progress.today.message.empty.1" : "Для початку виконаємо всього одне завдання.",
"progress.today.message.empty.2" : "Ми кидаємо вам виклик зробити бодай одну звичку. Ви в ділі?",
"progress.today.message.one.left.1" : "Одна. Залишилася всього одна справа!",
"progress.today.message.one.left.2" : "Для вас немає недосяжних вершин.",
"progress.today.message.completed.1" : "Неймовірно! Ви можете пишатися собою!",
"progress.today.message.completed.2" : "Можна навіть поплескати самому собі!",
"progress.today.message.completed.3" : "Ви виконали всі звички на сьогодні!",
"progress.today.message.one" : "Не так вже й складно! Може ще одну?",
"progress.today.message.two.half.1" : "Вас не спинити!",
"progress.today.message.two.half.2" : "Навіть найменший крок — це вже поступ.",
"progress.today.message.two.half.3" : "Ви чудові!",
"progress.today.message.two.half.4" : "Ви сьогодні в гуморі, продовжуйте!",
"progress.today.message.two.half.5" : "Якщо ви не в гуморі, пропустіть кілька звичок. Ми зрозуміємо.",
"progress.today.message.two.half.6" : "Усе, що нас не вбиває — робить нас сильнішими!",
"progress.today.message.half.1" : "Ви на півдорозі. Далі буде легше.",
"progress.today.message.half.completed.1" : "Дотримування звички, наче додержування слова, даного собі.",
"progress.today.message.half.completed.2" : "Гляньте в дзеркало. Ця людина заслуговує поваги!",
"progress.today.message.half.completed.3" : "Ви — зірка цього дня!",
"progress.today.message.half.completed.4" : "Залишилось зовсім трішки до кінця!",
"progress.today.message.half.completed.5" : "«Талан воїна більший за його рани» — Б. Бурхард",
"progress.in.app.review.title" : "Вам подобається Habitify?",
"progress.in.app.review.description" : "Як би ви оцінили свій досвід з програмою?",
"progress.in.app.review.one.star" : "Схоже, нам є над чим попрацювати. Ви могли б поділитися своєю думкою?",
"progress.in.app.review.three.star" : "Дякуємо за оцінку! Що нам слід зробити, аби отримати ще 2 зірочки?",
"progress.in.app.review.four.star" : "Круто! Ми раді, що вам сподобалося. Бажаєте залишити відгук для наших розробників?",
"progress.in.app.review.five.star" : "Чудово! Зможете написати невеличкий огляд, щоб іншим було легше знайти наш застосунок?",
"progress.in.app.review.action.write.review" : "Написати відозву",
"progress.in.app.review.action.send.feedback" : "Надіслати відозву",
"settings.icloud.connected" : "Synced with your iCloud Account",
"settings.not.synced" : "Your data is currently not synced",
"settings.change.name" : "Змінити ім’я",
"settings.translate" : "Перекласти Habitify",
"settings.change.name.placeholder" : "Уведіть ваше ім’я нижче",
"settings.knowledge.base" : "Knowledge Hub",
"settings.changelogs" : "Журнал змін",
"settings.community" : "User Community",
"settings.app.badge" : "Значок застосунку",
"settings.app.badge.time.of.day.explaination" : "The badge only shows habits in a specific period of the day (Morning, Afternoon, Evening)",
"settings.app.badge.all.explaination" : "The badge shows all habits in the day",
"settings.app.badge.time.of.day" : "Based on Time of Day",
"settings.app.badge.all.habit" : "Для всіх звичок",
"settings.sounds" : "Звуки",
"settings.sounds.reminder" : "Звук нагадування",
"settings.sounds.completion" : "Звук виконання",
"settings.subscribe.newsletter" : "Підписатися на нашу розсилку новин",
"settings.export.data" : "Експортування даних",
"settings.reorder.habit" : "Керування звичками",
"settings.in.app.sound" : "Звук у застосунку",
"settings.notifications" : "Сповіщення",
"settings.upgrade" : "Upgrade to Premium",
"settings.account" : "Обліковка",
"settings.follow.twitter" : "Слідкуйте за нами у Twitter",
"settings.follow.instagram" : "Слідкуйте за нами в Instagram",
"settings.screen.name" : "Налаштування",
"settings.first.day.of.week" : "Перший день тижня",
"settings.privacy.lock" : "Приватний режим",
"settings.daily.reminder" : "Щоденне нагадування",
"settings.support" : "Chat with Our Support Team",
"settings.rate.on.appstore" : "Review Us on the App Store!",
"settings.spread.the.word" : "Spread the Word",
"settings.acknowledgements" : "Acknowledgements",
"settings.sign.out" : "Вийти",
"settings.reset.habit.data" : "Скинути дані звичок",
"settings.reset.habit.confirmation" : "Only progress and notes will be permanently deleted, while habit names are not. Do you want to continue?",
"settings.reset.habit.completed" : "All of your habit data has been reseted.",
"settings.delete.all.habit.data" : "Вилучити всі дані",
"settings.delete.all.habit.confirmation" : "All habit names, progress and notes will be permanently deleted. Do you still want to continue?",
"settings.delete.all.habit.completed" : "All of your habit data has been reseted.",
"settings.sign.up.message" : "Link with Email or Facebook will keep your data backed up safely on our server.",
"settings.sign.up" : "Створити нову обліковку",
"settings.sign.in" : "Sign In with Existing Account",
"settings.account.linking" : "Account Linking",
"settings.account.message" : "Link with Email or Facebook will keep your data backed up safely on our server.",
"settings.unlink.facebook.confirmation" : "Ви більше не зможете входити через Facebook. Бажаєте продовжити?",
"settings.unlink.facebook.action" : "Unlink from Facebook",
"settings.unlink.email.confirmation" : "You won't be able to sign in with this email anymore. Do you want to continue?",
"settings.unlink.email.action" : "Від'єднати",
"settings.status.free" : "Free Member",
"settings.status.premium.life.time" : "Premium (Назавжди)",
"settings.status.premium.expire.at" : "Premium ({msg})",
"settings.snooze.duration" : "Snooze Duration",
"settings.notification.sound" : "Звук сповіщення",
"settings.daily.breifing" : "Daily Briefing",
"settings.dailf.briefing.morning.description" : "We’ll notify how many habits you have and which habit to focus on at 7 AM everyday.",
"settings.dailf.briefing.evening.description" : "​​We'll summarize your day’s progress and new record.",
"settings.data.management" : "Керувати даними",
"settings.no.email.provided" : "Немає адреси ел. скриньки",
"settings.subscription.info" : "Інформація про підписку",
"settings.download.mac.app" : "Завантажте Habitify для Mac",
"settings.privacy.lock.enabled" : "Privacy Lock Enabled",
"settings.unlock.with" : "Unlock with {msg}",
"settings.change.passcode" : "Змінити пароль",
"settings.dark.mode" : "Темний режим",
"settings.dark.mode.preview.title" : "Лише передогляд",
"settings.dark.mode.preview.message" : "Dark Mode is only available for Premium User, Habitify will reset to Light in the next app launch. Become Premium Member to keep it as default.",
"settings.dark.mode.upgrade.cta" : "Про Premium",
"settings.newsletter.request.title" : "Дізнавайтеся першим",
"settings.newsletter.request.subtitle" : "Subscribe to our newsletter to get the updates to your email inbox...",
"settings.newsletter.request.later" : "Нагадати мені пізніше",
"settings.newsletter.acknowledment.title" : "Дякуємо",
"settings.newsletter.acknowledment.subtitle" : "You've been added to our mailing list and will be among the first to hear about new updates and special offers.",
"settings.no.account.connected" : "No Account Connected",
"settings.account.status.free" : "Status: Free",
"settings.account.status.pro.lifetime" : "Status: Premium (life-time)",
"settings.account.status.valid.until" : "Status: Premium (valid until {msg})",
"settings.social.share.content" : "Habitify is phenomenal for getting productive and staying on top of your daily habits! Worth a download!",
"settings.sign.out.confirmation" : "Ви справді бажаєте вийти?",
"settings.fingerprint.not.setup" : "To enable this feature, please add your fingerprint in the phone's settings first.",
"settings.general" : "Загальне",
"settings.app.settings" : "Налаштування застосунку",
"settings.language" : "Мова",
"settings.payment" : "Оплата",
"settings.new.password" : "Нове гасло",
"settings.re.enter.new.password" : "Уведіть нове гасло ще раз",
"settings.current.password" : "Поточне гасло",
"settings.current.plan" : "Поточний тарифний план",
"settings.change.plan" : "Змінити тарифний план",
"settings.cancel.subscription" : "Скасувати підписку",
"timegoal.picker.benefit" : "Pick a goal for {msg}. Then use the timer to track time spent on it.",
"timegoal.save.goal" : "Зберегти ціль",
"timegoal.session.discard.title" : "Скасувати сесію",
"timegoal.session.discard.message" : "Your current progress for this session will not be saved.",
"timegoal.session.completed" : "Сесію виконано",
"timegoal.session.completed.message" : "%1@ has been logged for %2@.",
"timegoal.log.session" : "Log Session",
"timegoal.view.sessions" : "Переглянути сеанси",
"timegoal.completion.time" : "Completion Time",
"timegoal.duration" : "Тривалість",
"timegoal.duration.placeholder" : "Уведіть значення",
"timegoal.time.spent" : "Часу витрачено",
"timegoal.discarded.session" : "Скасовані сесії",
"timegoal.break.down" : "Break Down",
"timegoal.setup.suggestion.message" : "Створіть мету, щоб стежити за тим, скільки часу ви хочете приділяти цій звичці.",
"timegoal.setup.suggestion.action" : "Створити мету",
"timegoal.longest.session" : "Найдовша сесія",
"timegoal.custom.time.goal" : "Довільний бажаний час",
"timegoal.setup.benefit" : "Time Goal helps you track your time spent on a habit. You can start the timer from notification or Journal screen.",
"timegoal.no.required" : "Ви сьогодні вільні",
"timegoal.start.new.timer" : "Запустити новий таймер",
"timegoal.empty.session" : "No Session Logged",
"timegoal.timer.duration.instruction" : "Drag the ruler below to select session duration for {msg}.",
"upgrade.screen.name" : "Upgrade",
"upgrade.cannot-connect" : "Cannot connect to iTunes Store",
"upgrade.restore.failed.title" : "Restore Purchases Failed",
"upgrade.restore.failed.message" : "We're unable to restore your previous purchases. Please try again or contact our support team.",
"upgrade.restored.title" : "Purchases Restored",
"upgrade.restored.message" : "Your previously purchased products have been restored.",
"upgrade.prompt.habit.limited.title" : "Let's upgrade for more habits!",
"upgrade.prompt.habit.limited.message" : "Habitify Premium lets you add the 4th, 5th or even 100th habit anytime, plus multiple reminders to help you get things done before the day ends.",
"upgrade.prompt.reminder.limited.title" : "Let's upgrade for more reminders!",
"upgrade.prompt.reminder.limited.message" : "Habitify Premium lets you add multiple reminders per habit, plus unlimited habits to help you stay on track of everything in life.",
"upgrade.prompt.export.data.title" : "Let's upgrade to export data!",
"upgrade.prompt.export.data.message" : "Habitify Premium lets you export all habit names, statuses, date and notes for further (and better) analysis.",
"upgrade.prompt.cta" : "Про Premium",
"upgrade.cta" : "Go Premium",
"upgrade.monthly.price.with" : "{msg}8/міс.",
"upgrade.restore.purchases" : "Restore Purchases",
"useractivities.completed.withName" : "{msg} зроблено",
"useractivities.skipped.withName" : "{msg} пропущено",
"useractivities.undone.withName" : "{msg} скасовано",
"useractivities.view.current.time.of.day" : "Поточні звички",
"useractivities.view.all" : "Усі звички",
"useractivities.add.note.for" : "Додати примітку для {msg}",
"useractivities.view.progress" : "Переглянути поступ",
"useractivities.view.progress.of" : "Переглянути {msg}",
"plurals.day.per.week" : "0 день на тиждень | {num} день на тиждень | {num} дні на тиждень",
"plurals.streak" : "0 серія | {num} серія | {num} серій",
"plurals.more" : "Ще 0 | Ще {num} | Ще {num}",
"plurals.time.of.day.notification.group" : "no more habit in {msg} | {u1} more habit in {msg} | {u1} more habits in {msg}",
"plurals.interval.day" : "Every 0 day | Every {num} day | Every {num} days",
"plurals.streak.day" : "0 day streaks! | {num} day streaks! | {num} days streaks!",
"plurals.month" : "0 month | {num} month | {num} months",
"plurals.passed.week" : "Last 0 week | Last {num} week | Last {num} weeks",
"plurals.passed.days" : "Last 0 day | Last {num} day | Last {num} days",
"plurals.times" : "0 time | {num} time | {num} times",
"plurals.streak.day.journal" : "0-day streak | {num}-day streak | {num}-day streak",
"plurals.habit.remaining" : "0 of 0 habit completed | {num} of {num1} habit completed | {num} of {num1} habits completed"